runs/24077215463/precheck/rtl/rtl_precheck.vcd
$date
	Tue Apr  7 10:41:11 2026
$end
$version
	Icarus Verilog
$end
$timescale
	1ps
$end
$scope module tb_rns_top_crt $end
$var wire 16 ! X_out [15:0] $end
$var wire 1 " Done $end
$var reg 16 # A_in [15:0] $end
$var reg 16 $ B_in [15:0] $end
$var reg 2 % Op_Sel [1:0] $end
$var reg 1 & Start $end
$var reg 1 ' clk $end
$var reg 1 ( rst_n $end
$scope module dut $end
$var wire 1 ) ALU_Done_all $end
$var wire 16 * A_in [15:0] $end
$var wire 16 + B_in [15:0] $end
$var wire 1 , Encode_Done_all $end
$var wire 1 - MRC_Done $end
$var wire 2 . Op_Sel [1:0] $end
$var wire 1 & Start $end
$var wire 16 / X_out [15:0] $end
$var wire 1 0 accept_start $end
$var wire 1 ' clk $end
$var wire 1 ( rst_n $end
$var wire 4 1 z_r3 [3:0] $end
$var wire 3 2 z_r2 [2:0] $end
$var wire 3 3 z_r1 [2:0] $end
$var wire 2 4 z_r0 [1:0] $end
$var wire 1 5 slice3_done $end
$var wire 1 6 slice2_done $end
$var wire 1 7 slice1_done $end
$var wire 1 8 slice0_done $end
$var wire 4 9 b_r3 [3:0] $end
$var wire 3 : b_r2 [2:0] $end
$var wire 3 ; b_r1 [2:0] $end
$var wire 2 < b_r0 [1:0] $end
$var wire 4 = a_r3 [3:0] $end
$var wire 3 > a_r2 [2:0] $end
$var wire 3 ? a_r1 [2:0] $end
$var wire 2 @ a_r0 [1:0] $end
$var wire 16 A X_crt [15:0] $end
$var wire 1 B Out_EN $end
$var wire 1 C MRC_Start $end
$var wire 1 D Load_IN $end
$var wire 1 E Encode_EN $end
$var wire 1 F Encode_Done_B $end
$var wire 1 G Encode_Done_A $end
$var wire 1 " Done $end
$var wire 3 H CU_state_dbg [2:0] $end
$var wire 1 I CRT_Start $end
$var wire 1 J CRT_Done $end
$var wire 1 K ALU_EN $end
$var parameter 32 L M0 $end
$var parameter 32 M M1 $end
$var parameter 32 N M2 $end
$var parameter 32 O M3 $end
$var parameter 3 P S_IDLE $end
$var parameter 32 Q W0 $end
$var parameter 32 R W1 $end
$var parameter 32 S W2 $end
$var parameter 32 T W3 $end
$var parameter 32 U WIDTH_IN $end
$var reg 16 V A_reg [15:0] $end
$var reg 16 W A_req [15:0] $end
$var reg 16 X B_reg [15:0] $end
$var reg 16 Y B_req [15:0] $end
$var reg 2 Z OpSel_reg [1:0] $end
$var reg 2 [ OpSel_req [1:0] $end
$var reg 16 \ X_reg [15:0] $end
$scope module u_crt $end
$var wire 1 ' clk $end
$var wire 1 ( rst_n $end
$var wire 4 ] r3 [3:0] $end
$var wire 3 ^ r2 [2:0] $end
$var wire 3 _ r1 [2:0] $end
$var wire 2 ` r0 [1:0] $end
$var wire 1 I CRT_Start $end
$var parameter 32 a INV0 $end
$var parameter 32 b INV1 $end
$var parameter 32 c INV2 $end
$var parameter 32 d INV3 $end
$var parameter 32 e M $end
$var parameter 32 f M0 $end
$var parameter 32 g M1 $end
$var parameter 32 h M2 $end
$var parameter 32 i M3 $end
$var parameter 32 j OUT_WIDTH $end
$var parameter 32 k W0 $end
$var parameter 32 l W1 $end
$var parameter 32 m W2 $end
$var parameter 32 n W3 $end
$var reg 1 J CRT_Done $end
$var reg 16 o X_next [15:0] $end
$var reg 16 p X_out [15:0] $end
$var reg 1 q start_d $end
$var reg 10 r term0 [9:0] $end
$var reg 10 s term1 [9:0] $end
$var reg 11 t term2 [10:0] $end
$var reg 12 u term3 [11:0] $end
$var reg 13 v total [12:0] $end
$var reg 11 w total_mod [10:0] $end
$var reg 2 x x0_mod [1:0] $end
$var reg 3 y x1_mod [2:0] $end
$var reg 3 z x2_mod [2:0] $end
$var reg 4 { x3_mod [3:0] $end
$scope function norm_mod $end
$var integer 32 | m [31:0] $end
$var integer 32 } t [31:0] $end
$var integer 32 ~ x [31:0] $end
$upscope $end
$upscope $end
$scope module u_cu $end
$var wire 1 ) ALU_Done $end
$var wire 1 J CRT_Done $end
$var wire 1 , Encode_Done $end
$var wire 1 - MRC_Done $end
$var wire 1 !" Recon_Mode $end
$var wire 1 & Start $end
$var wire 1 ' clk $end
$var wire 1 ( rst_n $end
$var wire 1 "" recon_done_sel $end
$var wire 3 #" CU_state_dbg [2:0] $end
$var parameter 3 $" S_ALU $end
$var parameter 3 %" S_DONE $end
$var parameter 3 &" S_ENCODE $end
$var parameter 3 '" S_IDLE $end
$var parameter 3 (" S_LOAD $end
$var parameter 3 )" S_OUT $end
$var parameter 3 *" S_RECON $end
$var reg 1 K ALU_EN $end
$var reg 1 I CRT_Start $end
$var reg 1 " Done $end
$var reg 1 E Encode_EN $end
$var reg 1 D Load_IN $end
$var reg 1 C MRC_Start $end
$var reg 1 B Out_EN $end
$var reg 3 +" next_state [2:0] $end
$var reg 3 ," state [2:0] $end
$upscope $end
$scope module u_enc_a $end
$var wire 1 E Encode_EN $end
$var wire 1 ' clk $end
$var wire 1 ( rst_n $end
$var wire 16 -" x [15:0] $end
$var wire 4 ." r3_next [3:0] $end
$var wire 3 /" r2_next [2:0] $end
$var wire 3 0" r1_next [2:0] $end
$var wire 2 1" r0_next [1:0] $end
$var parameter 32 2" M0 $end
$var parameter 32 3" M1 $end
$var parameter 32 4" M2 $end
$var parameter 32 5" M3 $end
$var parameter 32 6" W0 $end
$var parameter 32 7" W1 $end
$var parameter 32 8" W2 $end
$var parameter 32 9" W3 $end
$var parameter 32 :" WIDTH_IN $end
$var reg 1 G Encode_Done $end
$var reg 2 ;" r0 [1:0] $end
$var reg 3 <" r1 [2:0] $end
$var reg 3 =" r2 [2:0] $end
$var reg 4 >" r3 [3:0] $end
$upscope $end
$scope module u_enc_b $end
$var wire 1 E Encode_EN $end
$var wire 1 ' clk $end
$var wire 1 ( rst_n $end
$var wire 16 ?" x [15:0] $end
$var wire 4 @" r3_next [3:0] $end
$var wire 3 A" r2_next [2:0] $end
$var wire 3 B" r1_next [2:0] $end
$var wire 2 C" r0_next [1:0] $end
$var parameter 32 D" M0 $end
$var parameter 32 E" M1 $end
$var parameter 32 F" M2 $end
$var parameter 32 G" M3 $end
$var parameter 32 H" W0 $end
$var parameter 32 I" W1 $end
$var parameter 32 J" W2 $end
$var parameter 32 K" W3 $end
$var parameter 32 L" WIDTH_IN $end
$var reg 1 F Encode_Done $end
$var reg 2 M" r0 [1:0] $end
$var reg 3 N" r1 [2:0] $end
$var reg 3 O" r2 [2:0] $end
$var reg 4 P" r3 [3:0] $end
$upscope $end
$scope module u_slice0 $end
$var wire 1 K ALU_EN $end
$var wire 2 Q" a [1:0] $end
$var wire 2 R" b [1:0] $end
$var wire 1 ' clk $end
$var wire 2 S" op_sel [1:0] $end
$var wire 1 ( rst_n $end
$var parameter 32 T" MODULUS $end
$var parameter 32 U" WIDTH $end
$var reg 1 8 ALU_Done $end
$var reg 1 V" start_d $end
$var reg 2 W" y [1:0] $end
$var reg 2 X" y_next [1:0] $end
$var integer 32 Y" tmp [31:0] $end
$upscope $end
$scope module u_slice1 $end
$var wire 1 K ALU_EN $end
$var wire 3 Z" a [2:0] $end
$var wire 3 [" b [2:0] $end
$var wire 1 ' clk $end
$var wire 2 \" op_sel [1:0] $end
$var wire 1 ( rst_n $end
$var parameter 32 ]" MODULUS $end
$var parameter 32 ^" WIDTH $end
$var reg 1 7 ALU_Done $end
$var reg 1 _" start_d $end
$var reg 3 `" y [2:0] $end
$var reg 3 a" y_next [2:0] $end
$var integer 32 b" tmp [31:0] $end
$upscope $end
$scope module u_slice2 $end
$var wire 1 K ALU_EN $end
$var wire 3 c" a [2:0] $end
$var wire 3 d" b [2:0] $end
$var wire 1 ' clk $end
$var wire 2 e" op_sel [1:0] $end
$var wire 1 ( rst_n $end
$var parameter 32 f" MODULUS $end
$var parameter 32 g" WIDTH $end
$var reg 1 6 ALU_Done $end
$var reg 1 h" start_d $end
$var reg 3 i" y [2:0] $end
$var reg 3 j" y_next [2:0] $end
$var integer 32 k" tmp [31:0] $end
$upscope $end
$scope module u_slice3 $end
$var wire 1 K ALU_EN $end
$var wire 4 l" a [3:0] $end
$var wire 4 m" b [3:0] $end
$var wire 1 ' clk $end
$var wire 2 n" op_sel [1:0] $end
$var wire 1 ( rst_n $end
$var parameter 32 o" MODULUS $end
$var parameter 32 p" WIDTH $end
$var reg 1 5 ALU_Done $end
$var reg 1 q" start_d $end
$var reg 4 r" y [3:0] $end
$var reg 4 s" y_next [3:0] $end
$var integer 32 t" tmp [31:0] $end
$upscope $end
$upscope $end
$scope task run_test $end
$var reg 16 u" a [15:0] $end
$var reg 16 v" b [15:0] $end
$var reg 16 w" expected [15:0] $end
$var reg 128 x" name [127:0] $end
$var reg 2 y" op [1:0] $end
$upscope $end
$upscope $end
$enddefinitions $end
$comment Show the parameter values. $end
$dumpall
b100 p"
b1011 o"
b11 g"
b111 f"
b11 ^"
b101 ]"
b10 U"
b11 T"
b10000 L"
b100 K"
b11 J"
b11 I"
b10 H"
b1011 G"
b111 F"
b101 E"
b11 D"
b10000 :"
b100 9"
b11 8"
b11 7"
b10 6"
b1011 5"
b111 4"
b101 3"
b11 2"
b100 *"
b101 )"
b1 ("
b0 '"
b10 &"
b110 %"
b11 $"
b100 n
b11 m
b11 l
b10 k
b10000 j
b1101001 i
b10100101 h
b11100111 g
b110000001 f
b10010000011 e
b10 d
b10 c
b1 b
b1 a
b10000 U
b100 T
b11 S
b11 R
b10 Q
b0 P
b1011 O
b111 N
b101 M
b11 L
$end
#0
$dumpvars
bx y"
bx x"
bx w"
bx v"
bx u"
bx t"
bx s"
bx r"
xq"
bx n"
bx m"
bx l"
bx k"
bx j"
bx i"
xh"
bx e"
bx d"
bx c"
bx b"
bx a"
bx `"
x_"
bx \"
bx ["
bx Z"
bx Y"
bx X"
bx W"
xV"
bx S"
bx R"
bx Q"
bx P"
bx O"
bx N"
bx M"
bx C"
bx B"
bx A"
bx @"
bx ?"
bx >"
bx ="
bx <"
bx ;"
bx 1"
bx 0"
bx /"
bx ."
bx -"
b0 ,"
b0 +"
b0 #"
x""
0!"
bx ~
bx }
bx |
bx {
bx z
bx y
bx x
bx w
bx v
bx u
bx t
bx s
bx r
xq
bx p
bx o
bx `
bx _
bx ^
bx ]
b0 \
bx [
bx Z
bx Y
bx X
bx W
bx V
0K
xJ
0I
b0 H
xG
xF
0E
0D
0C
0B
bx A
bx @
bx ?
bx >
bx =
bx <
bx ;
bx :
bx 9
x8
x7
x6
x5
bx 4
bx 3
bx 2
bx 1
00
b0 /
b0 .
0-
x,
b0 +
b0 *
x)
0(
0'
0&
b0 %
b0 $
b0 #
0"
b0 !
$end
#5000
0,
0)
0""
0G
0F
08
0V"
07
0_"
06
0h"
05
0q"
0q
0J
1'
#10000
0'
#15000
1'
#20000
0'
#25000
1'
#30000
0'
#35000
1'
#40000
0'
#45000
1'
#50000
1(
0'
#55000
1'
#60000
b111 $
b111 +
b1010 #
b1010 *
b100000101000100010001000101111100110001001100000101111100110111 x"
b10001 w"
b111 v"
b1010 u"
b0 y"
0'
#65000
1'
#70000
10
b1 +"
1&
0'
#75000
1D
b10 +"
00
b0 [
b111 Y
b1010 W
b1 H
b1 #"
b1 ,"
1'
#80000
b10 +"
0&
0'
#85000
bx Y"
bx X"
bx b"
bx a"
bx k"
bx j"
bx t"
bx s"
b1 C"
b10 B"
b0 A"
b111 @"
b1 1"
b0 0"
b11 /"
b1010 ."
1E
0D
b0 Z
b0 S"
b0 \"
b0 e"
b0 n"
b111 X
b111 ?"
b1010 V
b1010 -"
b10 H
b10 #"
b10 ,"
1'
#90000
0'
#95000
b11 +"
1,
b110 t"
b110 s"
b11 k"
b11 j"
b10 b"
b10 a"
b10 Y"
b10 X"
1F
b111 9
b111 P"
b111 m"
b0 :
b0 O"
b0 d"
b10 ;
b10 N"
b10 ["
b1 <
b1 M"
b1 R"
1G
b1010 =
b1010 >"
b1010 l"
b11 >
b11 ="
b11 c"
b0 ?
b0 <"
b0 Z"
b1 @
b1 ;"
b1 Q"
1'
#100000
0'
#105000
1K
0E
1G
1F
b11 H
b11 #"
b11 ,"
1'
#110000
0'
#115000
b10001 o
b10001 w
b110110011010 v
b10011101100 u
b1111011110 t
b111001110 s
b1100000010 r
b110 {
b11 z
b10 y
b10 x
b10001 }
b110110011010 ~
b10010000011 |
0,
b110 1
b110 ]
b110 r"
1q"
b11 2
b11 ^
b11 i"
1h"
b10 3
b10 _
b10 `"
1_"
b10 4
b10 `
b10 W"
1V"
0F
0G
1'
#120000
0'
#125000
b100 +"
1)
18
17
16
15
1'
#130000
0'
#135000
1I
0K
b100 H
b100 #"
b100 ,"
1'
#140000
0'
#145000
0V"
0_"
0h"
0q"
b10001 A
b10001 p
1q
1'
#150000
0'
#155000
b101 +"
1""
0)
1J
05
06
07
08
1'
#160000
0'
#165000
1B
0I
b110 +"
b101 H
b101 #"
b101 ,"
1'
#170000
0'
#175000
1"
0B
b0 +"
0q
b110 H
b110 #"
b110 ,"
b10001 !
b10001 /
b10001 \
1'
#180000
b100101100 $
b100101100 +
b1111101000 #
b1111101000 *
b100000101000100010001000101111101010111010100100100000101010000 x"
b10010001 w"
b100101100 v"
b1111101000 u"
0'
#185000
0""
0"
0J
b0 H
b0 #"
b0 ,"
1'
#190000
10
b1 +"
1&
0'
#195000
1D
b10 +"
00
b100101100 Y
b1111101000 W
b1 H
b1 #"
b1 ,"
1'
#200000
b10 +"
0&
0'
#205000
b0 C"
b0 B"
b110 A"
b11 @"
b110 /"
1E
0D
b100101100 X
b100101100 ?"
b1111101000 V
b1111101000 -"
b10 H
b10 #"
b10 ,"
1'
#210000
0'
#215000
b11 +"
b10 t"
b10 s"
b0 b"
b0 a"
b1 Y"
b1 X"
1,
b101 k"
b101 j"
1F
b11 9
b11 P"
b11 m"
b110 :
b110 O"
b110 d"
b0 ;
b0 N"
b0 ["
b0 <
b0 M"
b0 R"
1G
b110 >
b110 ="
b110 c"
1'
#220000
0'
#225000
1K
0E
1G
1F
b11 H
b11 #"
b11 ,"
1'
#230000
0'
#235000
b10010001 o
b10010001 w
b100110010111 v
b110100100 u
b11001110010 t
b0 s
b110000001 r
b10 {
b101 z
b0 y
b1 x
b10010001 }
b100110010111 ~
b10010000011 |
0,
b10 1
b10 ]
b10 r"
1q"
b101 2
b101 ^
b101 i"
1h"
b0 3
b0 _
b0 `"
1_"
b1 4
b1 `
b1 W"
1V"
0F
0G
1'
#240000
0'
#245000
b100 +"
1)
18
17
16
15
1'
#250000
0'
#255000
1I
0K
b100 H
b100 #"
b100 ,"
1'
#260000
0'
#265000
0V"
0_"
0h"
0q"
b10010001 A
b10010001 p
1q
1'
#270000
0'
#275000
b101 +"
1""
0)
1J
05
06
07
08
1'
#280000
0'
#285000
1B
0I
b110 +"
b101 H
b101 #"
b101 ,"
1'
#290000
0'
#295000
1"
0B
b0 +"
0q
b110 H
b110 #"
b110 ,"
b10010001 !
b10010001 /
b10010001 \
1'
#300000
b110010 $
b110010 +
b11001000 #
b11001000 *
b1 %
b1 .
b1010011010101010100001001011111001100100011000000110000010111110011010100110000 x"
b10010110 w"
b110010 v"
b11001000 u"
b1 y"
0'
#305000
0""
0"
0J
b0 H
b0 #"
b0 ,"
1'
#310000
10
b1 +"
1&
0'
#315000
1D
b10 +"
00
b1 [
b110010 Y
b11001000 W
b1 H
b1 #"
b1 ,"
1'
#320000
b10 +"
0&
0'
#325000
b1 Y"
b1 X"
b0 b"
b0 k"
b0 j"
b111 t"
b111 s"
b10 C"
b1 A"
b110 @"
b10 1"
b100 /"
b10 ."
1E
0D
b1 Z
b1 S"
b1 \"
b1 e"
b1 n"
b110010 X
b110010 ?"
b11001000 V
b11001000 -"
b10 H
b10 #"
b10 ,"
1'
#330000
0'
#335000
b11 +"
1,
b111 t"
b111 s"
b11 j"
b11 k"
b0 Y"
b0 X"
1F
b110 9
b110 P"
b110 m"
b1 :
b1 O"
b1 d"
b10 <
b10 M"
b10 R"
1G
b10 =
b10 >"
b10 l"
b100 >
b100 ="
b100 c"
b10 @
b10 ;"
b10 Q"
1'
#340000
0'
#345000
1K
0E
1G
1F
b11 H
b11 #"
b11 ,"
1'
#350000
0'
#355000
b10010110 o
b10010110 w
b100110011100 v
b10110111110 u
b1111011110 t
b0 r
b111 {
b11 z
b0 x
b10010110 }
b100110011100 ~
b10010000011 |
0,
b111 1
b111 ]
b111 r"
1q"
b11 2
b11 ^
b11 i"
1h"
1_"
b0 4
b0 `
b0 W"
1V"
0F
0G
1'
#360000
0'
#365000
b100 +"
1)
18
17
16
15
1'
#370000
0'
#375000
1I
0K
b100 H
b100 #"
b100 ,"
1'
#380000
0'
#385000
0V"
0_"
0h"
0q"
b10010110 A
b10010110 p
1q
1'
#390000
0'
#395000
b101 +"
1""
0)
1J
05
06
07
08
1'
#400000
0'
#405000
1B
0I
b110 +"
b101 H
b101 #"
b101 ,"
1'
#410000
0'
#415000
1"
0B
b0 +"
0q
b110 H
b110 #"
b110 ,"
b10010110 !
b10010110 /
b10010110 \
1'
#420000
b11001000 $
b11001000 +
b110010 #
b110010 *
b101001101010101010000100101111101010111010100100100000101010000 x"
b1111101101 w"
b11001000 v"
b110010 u"
0'
#425000
0""
0"
0J
b0 H
b0 #"
b0 ,"
1'
#430000
10
b1 +"
1&
0'
#435000
1D
b10 +"
00
b11001000 Y
b110010 W
b1 H
b1 #"
b1 ,"
1'
#440000
b10 +"
0&
0'
#445000
b100 A"
b10 @"
b1 /"
b110 ."
1E
0D
b11001000 X
b11001000 ?"
b110010 V
b110010 -"
b10 H
b10 #"
b10 ,"
1'
#450000
0'
#455000
b11 +"
1,
b100 t"
b100 s"
b100 k"
b100 j"
1F
b10 9
b10 P"
b10 m"
b100 :
b100 O"
b100 d"
1G
b110 =
b110 >"
b110 l"
b1 >
b1 ="
b1 c"
1'
#460000
0'
#465000
1K
0E
1G
1F
b11 H
b11 #"
b11 ,"
1'
#470000
0'
#475000
b1111101101 o
b1111101101 w
b100001110000 v
b1101001000 u
b10100101000 t
b100 {
b100 z
b1111101101 }
b100001110000 ~
b10010000011 |
0,
b100 1
b100 ]
b100 r"
1q"
b100 2
b100 ^
b100 i"
1h"
1_"
1V"
0F
0G
1'
#480000
0'
#485000
b100 +"
1)
18
17
16
15
1'
#490000
0'
#495000
1I
0K
b100 H
b100 #"
b100 ,"
1'
#500000
0'
#505000
0V"
0_"
0h"
0q"
b1111101101 A
b1111101101 p
1q
1'
#510000
0'
#515000
b101 +"
1""
0)
1J
05
06
07
08
1'
#520000
0'
#525000
1B
0I
b110 +"
b101 H
b101 #"
b101 ,"
1'
#530000
0'
#535000
1"
0B
b0 +"
0q
b110 H
b110 #"
b110 ,"
b1111101101 !
b1111101101 /
b1111101101 \
1'
#540000
b10001 $
b10001 +
b1011 #
b1011 *
b10 %
b10 .
b10011010101010101001100010111110011000100110001010111110011000100110111 x"
b10111011 w"
b10001 v"
b1011 u"
b10 y"
0'
#545000
0""
0"
0J
b0 H
b0 #"
b0 ,"
1'
#550000
10
b1 +"
1&
0'
#555000
1D
b10 +"
00
b10 [
b10001 Y
b1011 W
b1 H
b1 #"
b1 ,"
1'
#560000
b10 +"
0&
0'
#565000
b1 X"
b1 Y"
b100 k"
b100 j"
b1 t"
b1 s"
b10 B"
b11 A"
b110 @"
b1 0"
b100 /"
b0 ."
1E
0D
b10 Z
b10 S"
b10 \"
b10 e"
b10 n"
b10001 X
b10001 ?"
b1011 V
b1011 -"
b10 H
b10 #"
b10 ,"
1'
#570000
0'
#575000
b11 +"
1,
b0 t"
b0 s"
b101 k"
b101 j"
b10 a"
b10 b"
1F
b110 9
b110 P"
b110 m"
b11 :
b11 O"
b11 d"
b10 ;
b10 N"
b10 ["
1G
b0 =
b0 >"
b0 l"
b100 >
b100 ="
b100 c"
b1 ?
b1 <"
b1 Z"
1'
#580000
0'
#585000
1K
0E
1G
1F
b11 H
b11 #"
b11 ,"
1'
#590000
0'
#595000
b10111011 o
b10111011 w
b100111000001 v
b0 u
b11001110010 t
b111001110 s
b110000001 r
b0 {
b101 z
b10 y
b1 x
b10111011 }
b100111000001 ~
b10010000011 |
0,
b0 1
b0 ]
b0 r"
1q"
b101 2
b101 ^
b101 i"
1h"
b10 3
b10 _
b10 `"
1_"
b1 4
b1 `
b1 W"
1V"
0F
0G
1'
#600000
0'
#605000
b100 +"
1)
18
17
16
15
1'
#610000
0'
#615000
1I
0K
b100 H
b100 #"
b100 ,"
1'
#620000
0'
#625000
0V"
0_"
0h"
0q"
b10111011 A
b10111011 p
1q
1'
#630000
0'
#635000
b101 +"
1""
0)
1J
05
06
07
08
1'
#640000
0'
#645000
1B
0I
b110 +"
b101 H
b101 #"
b101 ,"
1'
#650000
0'
#655000
1"
0B
b0 +"
0q
b110 H
b110 #"
b110 ,"
b10111011 !
b10111011 /
b10111011 \
1'
#660000
b101000 $
b101000 +
b101000 #
b101000 *
b100110101010101010011000101111101010111010100100100000101010000 x"
b110111101 w"
b101000 v"
b101000 u"
0'
#665000
0""
0"
0J
b0 H
b0 #"
b0 ,"
1'
#670000
10
b1 +"
1&
0'
#675000
1D
b10 +"
00
b101000 Y
b101000 W
b1 H
b1 #"
b1 ,"
1'
#680000
b10 +"
0&
0'
#685000
b1 C"
b0 B"
b101 A"
b111 @"
b1 1"
b0 0"
b101 /"
b111 ."
1E
0D
b101000 X
b101000 ?"
b101000 V
b101000 -"
b10 H
b10 #"
b10 ,"
1'
#690000
0'
#695000
b11 +"
1,
b101 s"
b101 t"
b100 k"
b100 j"
b0 b"
b0 a"
b1 Y"
b1 X"
1F
b111 9
b111 P"
b111 m"
b101 :
b101 O"
b101 d"
b0 ;
b0 N"
b0 ["
b1 <
b1 M"
b1 R"
1G
b111 =
b111 >"
b111 l"
b101 >
b101 ="
b101 c"
b0 ?
b0 <"
b0 Z"
b1 @
b1 ;"
b1 Q"
1'
#700000
0'
#705000
1K
0E
1G
1F
b11 H
b11 #"
b11 ,"
1'
#710000
0'
#715000
b110111101 o
b110111101 w
b101011000011 v
b10000011010 u
b10100101000 t
b0 s
b101 {
b100 z
b0 y
b110111101 }
b101011000011 ~
b10010000011 |
0,
b101 1
b101 ]
b101 r"
1q"
b100 2
b100 ^
b100 i"
1h"
b0 3
b0 _
b0 `"
1_"
1V"
0F
0G
1'
#720000
0'
#725000
b100 +"
1)
18
17
16
15
1'
#730000
0'
#735000
1I
0K
b100 H
b100 #"
b100 ,"
1'
#740000
0'
#745000
0V"
0_"
0h"
0q"
b110111101 A
b110111101 p
1q
1'
#750000
0'
#755000
b101 +"
1""
0)
1J
05
06
07
08
1'
#760000
0'
#765000
1B
0I
b110 +"
b101 H
b101 #"
b101 ,"
1'
#770000
0'
#775000
1"
0B
b0 +"
0q
b110 H
b110 #"
b110 ,"
b110111101 !
b110111101 /
b110111101 \
1'
#780000
0'
#785000
0""
0"
0J
b0 H
b0 #"
b0 ,"
1'
