runs/24038460964/precheck/rtl/rtl_precheck.vcd
$date
	Mon Apr  6 15:41:48 2026
$end
$version
	Icarus Verilog
$end
$timescale
	1ps
$end
$scope module tb_crns_top_mrc $end
$var wire 16 ! X_out [15:0] $end
$var wire 1 " Done $end
$var reg 16 # A_in [15:0] $end
$var reg 16 $ B_in [15:0] $end
$var reg 2 % Op_Sel [1:0] $end
$var reg 1 & Start $end
$var reg 1 ' clk $end
$var reg 1 ( rst_n $end
$scope module dut $end
$var wire 1 ) ALU_Done_all $end
$var wire 16 * A_in [15:0] $end
$var wire 16 + B_in [15:0] $end
$var wire 1 , CRT_Done $end
$var wire 1 - Encode_Done_all $end
$var wire 2 . Op_Sel [1:0] $end
$var wire 1 & Start $end
$var wire 16 / X_out [15:0] $end
$var wire 1 0 accept_start $end
$var wire 1 ' clk $end
$var wire 1 ( rst_n $end
$var wire 4 1 z_r3 [3:0] $end
$var wire 3 2 z_r2 [2:0] $end
$var wire 3 3 z_r1 [2:0] $end
$var wire 2 4 z_r0 [1:0] $end
$var wire 1 5 slice3_done $end
$var wire 1 6 slice2_done $end
$var wire 1 7 slice1_done $end
$var wire 1 8 slice0_done $end
$var wire 4 9 b_r3 [3:0] $end
$var wire 3 : b_r2 [2:0] $end
$var wire 3 ; b_r1 [2:0] $end
$var wire 2 < b_r0 [1:0] $end
$var wire 4 = a_r3 [3:0] $end
$var wire 3 > a_r2 [2:0] $end
$var wire 3 ? a_r1 [2:0] $end
$var wire 2 @ a_r0 [1:0] $end
$var wire 16 A X_mrc [15:0] $end
$var wire 1 B Out_EN $end
$var wire 1 C MRC_Start $end
$var wire 1 D MRC_Done $end
$var wire 1 E Load_IN $end
$var wire 1 F Encode_EN $end
$var wire 1 G Encode_Done_B $end
$var wire 1 H Encode_Done_A $end
$var wire 1 " Done $end
$var wire 3 I CU_state_dbg [2:0] $end
$var wire 1 J CRT_Start $end
$var wire 1 K ALU_EN $end
$var parameter 32 L CENTERED_OUT_EN $end
$var parameter 32 M CRNS_EN $end
$var parameter 32 N M0 $end
$var parameter 32 O M1 $end
$var parameter 32 P M2 $end
$var parameter 32 Q M3 $end
$var parameter 3 R S_IDLE $end
$var parameter 32 S W0 $end
$var parameter 32 T W1 $end
$var parameter 32 U W2 $end
$var parameter 32 V W3 $end
$var parameter 32 W WIDTH_IN $end
$var reg 16 X A_reg [15:0] $end
$var reg 16 Y A_req [15:0] $end
$var reg 16 Z B_reg [15:0] $end
$var reg 16 [ B_req [15:0] $end
$var reg 2 \ OpSel_reg [1:0] $end
$var reg 2 ] OpSel_req [1:0] $end
$var reg 16 ^ X_reg [15:0] $end
$scope module u_cu $end
$var wire 1 ) ALU_Done $end
$var wire 1 , CRT_Done $end
$var wire 1 - Encode_Done $end
$var wire 1 _ Recon_Mode $end
$var wire 1 & Start $end
$var wire 1 ' clk $end
$var wire 1 ( rst_n $end
$var wire 1 ` recon_done_sel $end
$var wire 1 D MRC_Done $end
$var wire 3 a CU_state_dbg [2:0] $end
$var parameter 3 b S_ALU $end
$var parameter 3 c S_DONE $end
$var parameter 3 d S_ENCODE $end
$var parameter 3 e S_IDLE $end
$var parameter 3 f S_LOAD $end
$var parameter 3 g S_OUT $end
$var parameter 3 h S_RECON $end
$var reg 1 K ALU_EN $end
$var reg 1 J CRT_Start $end
$var reg 1 " Done $end
$var reg 1 F Encode_EN $end
$var reg 1 E Load_IN $end
$var reg 1 C MRC_Start $end
$var reg 1 B Out_EN $end
$var reg 3 i next_state [2:0] $end
$var reg 3 j state [2:0] $end
$upscope $end
$scope module u_enc_a $end
$var wire 1 F Encode_EN $end
$var wire 1 ' clk $end
$var wire 1 ( rst_n $end
$var wire 16 k x [15:0] $end
$var parameter 32 l CRNS_EN $end
$var parameter 32 m M0 $end
$var parameter 32 n M1 $end
$var parameter 32 o M2 $end
$var parameter 32 p M3 $end
$var parameter 32 q W0 $end
$var parameter 32 r W1 $end
$var parameter 32 s W2 $end
$var parameter 32 t W3 $end
$var parameter 32 u WIDTH_IN $end
$var reg 1 H Encode_Done $end
$var reg 2 v r0 [1:0] $end
$var reg 3 w r1 [2:0] $end
$var reg 3 x r2 [2:0] $end
$var reg 4 y r3 [3:0] $end
$var integer 32 z tmp0 [31:0] $end
$var integer 32 { tmp1 [31:0] $end
$var integer 32 | tmp2 [31:0] $end
$var integer 32 } tmp3 [31:0] $end
$scope function norm_bal $end
$var integer 32 ~ m [31:0] $end
$var integer 32 !" r [31:0] $end
$var integer 32 "" val [31:0] $end
$upscope $end
$scope function norm_std $end
$var integer 32 #" m [31:0] $end
$var integer 32 $" val [31:0] $end
$upscope $end
$upscope $end
$scope module u_enc_b $end
$var wire 1 F Encode_EN $end
$var wire 1 ' clk $end
$var wire 1 ( rst_n $end
$var wire 16 %" x [15:0] $end
$var parameter 32 &" CRNS_EN $end
$var parameter 32 '" M0 $end
$var parameter 32 (" M1 $end
$var parameter 32 )" M2 $end
$var parameter 32 *" M3 $end
$var parameter 32 +" W0 $end
$var parameter 32 ," W1 $end
$var parameter 32 -" W2 $end
$var parameter 32 ." W3 $end
$var parameter 32 /" WIDTH_IN $end
$var reg 1 G Encode_Done $end
$var reg 2 0" r0 [1:0] $end
$var reg 3 1" r1 [2:0] $end
$var reg 3 2" r2 [2:0] $end
$var reg 4 3" r3 [3:0] $end
$var integer 32 4" tmp0 [31:0] $end
$var integer 32 5" tmp1 [31:0] $end
$var integer 32 6" tmp2 [31:0] $end
$var integer 32 7" tmp3 [31:0] $end
$scope function norm_bal $end
$var integer 32 8" m [31:0] $end
$var integer 32 9" r [31:0] $end
$var integer 32 :" val [31:0] $end
$upscope $end
$scope function norm_std $end
$var integer 32 ;" m [31:0] $end
$var integer 32 <" val [31:0] $end
$upscope $end
$upscope $end
$scope module u_mrc $end
$var wire 1 C MRC_Start $end
$var wire 1 ' clk $end
$var wire 1 ( rst_n $end
$var wire 1 =" start_pulse $end
$var wire 11 >" total_mod_w [10:0] $end
$var wire 11 ?" total_centered_w [10:0] $end
$var wire 4 @" t4_w [3:0] $end
$var wire 3 A" t3_w [2:0] $end
$var wire 3 B" t2_w [2:0] $end
$var wire 4 C" r3 [3:0] $end
$var wire 3 D" r2 [2:0] $end
$var wire 3 E" r1 [2:0] $end
$var wire 2 F" r0 [1:0] $end
$var wire 11 G" X4_w [10:0] $end
$var wire 7 H" X3_next_w [6:0] $end
$var wire 4 I" X2_next_w [3:0] $end
$var parameter 32 J" HALF_M $end
$var parameter 32 K" INV_12 $end
$var parameter 32 L" INV_123 $end
$var parameter 32 M" INV_1234 $end
$var parameter 32 N" MOD0 $end
$var parameter 32 O" MOD1 $end
$var parameter 32 P" MOD2 $end
$var parameter 32 Q" MOD3 $end
$var parameter 32 R" MPREV1 $end
$var parameter 32 S" MPREV2 $end
$var parameter 32 T" MPREV3 $end
$var parameter 32 U" M_TOTAL $end
$var parameter 32 V" OUT_WIDTH $end
$var parameter 3 W" S_DONE $end
$var parameter 3 X" S_IDLE $end
$var parameter 3 Y" S_S1 $end
$var parameter 3 Z" S_S2 $end
$var parameter 3 [" S_S3 $end
$var parameter 3 \" S_S4 $end
$var parameter 32 ]" W0 $end
$var parameter 32 ^" W1 $end
$var parameter 32 _" W2 $end
$var parameter 32 `" W3 $end
$var reg 1 D MRC_Done $end
$var reg 2 a" X1_r [1:0] $end
$var reg 4 b" X2_r [3:0] $end
$var reg 7 c" X3_r [6:0] $end
$var reg 16 d" X_out [15:0] $end
$var reg 2 e" r0_mod_r [1:0] $end
$var reg 3 f" r1_mod_r [2:0] $end
$var reg 3 g" r2_mod_r [2:0] $end
$var reg 4 h" r3_mod_r [3:0] $end
$var reg 1 i" start_d $end
$var reg 3 j" state [2:0] $end
$scope function norm_mod $end
$var integer 32 k" m [31:0] $end
$var integer 32 l" t [31:0] $end
$var integer 32 m" x [31:0] $end
$upscope $end
$upscope $end
$scope module u_slice0 $end
$var wire 1 K ALU_EN $end
$var wire 2 n" a [1:0] $end
$var wire 2 o" b [1:0] $end
$var wire 1 ' clk $end
$var wire 2 p" op_sel [1:0] $end
$var wire 1 ( rst_n $end
$var parameter 32 q" CRNS_EN $end
$var parameter 32 r" MODULUS $end
$var parameter 32 s" WIDTH $end
$var reg 1 8 ALU_Done $end
$var reg 1 t" start_d $end
$var reg 2 u" y [1:0] $end
$var reg 2 v" y_next [1:0] $end
$var integer 32 w" raw [31:0] $end
$var integer 32 x" tmp [31:0] $end
$scope function norm_bal $end
$var integer 32 y" m [31:0] $end
$var integer 32 z" r [31:0] $end
$var integer 32 {" val [31:0] $end
$upscope $end
$scope function norm_std $end
$var integer 32 |" m [31:0] $end
$var integer 32 }" val [31:0] $end
$upscope $end
$upscope $end
$scope module u_slice1 $end
$var wire 1 K ALU_EN $end
$var wire 3 ~" a [2:0] $end
$var wire 3 !# b [2:0] $end
$var wire 1 ' clk $end
$var wire 2 "# op_sel [1:0] $end
$var wire 1 ( rst_n $end
$var parameter 32 ## CRNS_EN $end
$var parameter 32 $# MODULUS $end
$var parameter 32 %# WIDTH $end
$var reg 1 7 ALU_Done $end
$var reg 1 &# start_d $end
$var reg 3 '# y [2:0] $end
$var reg 3 (# y_next [2:0] $end
$var integer 32 )# raw [31:0] $end
$var integer 32 *# tmp [31:0] $end
$scope function norm_bal $end
$var integer 32 +# m [31:0] $end
$var integer 32 ,# r [31:0] $end
$var integer 32 -# val [31:0] $end
$upscope $end
$scope function norm_std $end
$var integer 32 .# m [31:0] $end
$var integer 32 /# val [31:0] $end
$upscope $end
$upscope $end
$scope module u_slice2 $end
$var wire 1 K ALU_EN $end
$var wire 3 0# a [2:0] $end
$var wire 3 1# b [2:0] $end
$var wire 1 ' clk $end
$var wire 2 2# op_sel [1:0] $end
$var wire 1 ( rst_n $end
$var parameter 32 3# CRNS_EN $end
$var parameter 32 4# MODULUS $end
$var parameter 32 5# WIDTH $end
$var reg 1 6 ALU_Done $end
$var reg 1 6# start_d $end
$var reg 3 7# y [2:0] $end
$var reg 3 8# y_next [2:0] $end
$var integer 32 9# raw [31:0] $end
$var integer 32 :# tmp [31:0] $end
$scope function norm_bal $end
$var integer 32 ;# m [31:0] $end
$var integer 32 <# r [31:0] $end
$var integer 32 =# val [31:0] $end
$upscope $end
$scope function norm_std $end
$var integer 32 ># m [31:0] $end
$var integer 32 ?# val [31:0] $end
$upscope $end
$upscope $end
$scope module u_slice3 $end
$var wire 1 K ALU_EN $end
$var wire 4 @# a [3:0] $end
$var wire 4 A# b [3:0] $end
$var wire 1 ' clk $end
$var wire 2 B# op_sel [1:0] $end
$var wire 1 ( rst_n $end
$var parameter 32 C# CRNS_EN $end
$var parameter 32 D# MODULUS $end
$var parameter 32 E# WIDTH $end
$var reg 1 5 ALU_Done $end
$var reg 1 F# start_d $end
$var reg 4 G# y [3:0] $end
$var reg 4 H# y_next [3:0] $end
$var integer 32 I# raw [31:0] $end
$var integer 32 J# tmp [31:0] $end
$scope function norm_bal $end
$var integer 32 K# m [31:0] $end
$var integer 32 L# r [31:0] $end
$var integer 32 M# val [31:0] $end
$upscope $end
$scope function norm_std $end
$var integer 32 N# m [31:0] $end
$var integer 32 O# val [31:0] $end
$upscope $end
$upscope $end
$upscope $end
$scope task run_test $end
$var reg 16 P# a [15:0] $end
$var reg 16 Q# b [15:0] $end
$var reg 16 R# expected [15:0] $end
$var reg 128 S# name [127:0] $end
$var reg 2 T# op [1:0] $end
$upscope $end
$upscope $end
$enddefinitions $end
$comment Show the parameter values. $end
$dumpall
b100 E#
b1011 D#
b1 C#
b11 5#
b111 4#
b1 3#
b11 %#
b101 $#
b1 ##
b10 s"
b11 r"
b1 q"
b100 `"
b11 _"
b11 ^"
b10 ]"
b100 \"
b11 ["
b10 Z"
b1 Y"
b0 X"
b101 W"
b10000 V"
b10010000011 U"
b1101001 T"
b1111 S"
b11 R"
b1011 Q"
b111 P"
b101 O"
b11 N"
b10 M"
b1 L"
b10 K"
b1001000001 J"
b10000 /"
b100 ."
b11 -"
b11 ,"
b10 +"
b1011 *"
b111 )"
b101 ("
b11 '"
b1 &"
b10000 u
b100 t
b11 s
b11 r
b10 q
b1011 p
b111 o
b101 n
b11 m
b1 l
b100 h
b101 g
b1 f
b0 e
b10 d
b110 c
b11 b
b10000 W
b100 V
b11 U
b11 T
b10 S
b0 R
b1011 Q
b111 P
b101 O
b11 N
b1 M
b1 L
$end
#0
$dumpvars
bx T#
bx S#
bx R#
bx Q#
bx P#
bx O#
bx N#
bx M#
bx L#
bx K#
bx J#
bx I#
bx H#
bx G#
xF#
bx B#
bx A#
bx @#
bx ?#
bx >#
bx =#
bx <#
bx ;#
bx :#
bx 9#
bx 8#
bx 7#
x6#
bx 2#
bx 1#
bx 0#
bx /#
bx .#
bx -#
bx ,#
bx +#
bx *#
bx )#
bx (#
bx '#
x&#
bx "#
bx !#
bx ~"
bx }"
bx |"
bx {"
bx z"
bx y"
bx x"
bx w"
bx v"
bx u"
xt"
bx p"
bx o"
bx n"
bx m"
bx l"
b111 k"
bx j"
xi"
bx h"
bx g"
bx f"
bx e"
bx d"
bx c"
bx b"
bx a"
bx I"
bx H"
bx G"
bx F"
bx E"
bx D"
bx C"
bx B"
bx A"
bx @"
bx ?"
bx >"
0="
bx <"
bx ;"
bx :"
bx 9"
bx 8"
bx 7"
bx 6"
bx 5"
bx 4"
bx 3"
bx 2"
bx 1"
bx 0"
bx %"
bx $"
bx #"
bx ""
bx !"
bx ~
bx }
bx |
bx {
bx z
bx y
bx x
bx w
bx v
bx k
bx j
b0 i
bx a
x`
1_
bx ^
bx ]
bx \
bx [
bx Z
bx Y
bx X
0K
0J
bx I
xH
xG
0F
0E
xD
0C
0B
bx A
bx @
bx ?
bx >
bx =
bx <
bx ;
bx :
bx 9
x8
x7
x6
x5
bx 4
bx 3
bx 2
bx 1
00
bx /
b0 .
x-
0,
b0 +
b0 *
x)
0(
0'
0&
b0 %
b0 $
b0 #
0"
bx !
$end
#5000
0-
0)
0`
b0 I
b0 a
b0 j
0H
0G
08
0t"
07
0&#
06
06#
05
0F#
0D
0i"
b0 j"
1'
#10000
0'
#15000
1'
#20000
0'
#25000
1'
#30000
0'
#35000
1'
#40000
0'
#45000
1'
#50000
1(
0'
#55000
1'
#60000
b111 $
b111 +
b1010 #
b1010 *
b100000101000100010001000101111100110001001100000101111100110111 S#
b10001 R#
b111 Q#
b1010 P#
b0 T#
0'
#65000
1'
#70000
10
b1 i
1&
0'
#75000
1E
b10 i
00
b0 ]
b111 [
b1010 Y
b1 I
b1 a
b1 j
1'
#80000
b10 i
0&
0'
#85000
1F
0E
b11 |"
b11 y"
bx v"
bx x"
bx w"
b101 .#
b101 +#
bx (#
bx *#
bx )#
b111 >#
b111 ;#
bx 8#
bx :#
bx 9#
b1011 N#
b1011 K#
bx H#
bx J#
bx I#
b10 I
b10 a
b10 j
b0 \
b0 p"
b0 "#
b0 2#
b0 B#
b111 Z
b111 %"
b1010 X
b1010 k
1'
#90000
0'
#95000
b11 i
1-
b11111111111111111111111111111011 L#
b11111111111111111111111111111011 O#
b11111111111111111111111111111011 M#
b1011 H#
b11111111111111111111111111111011 J#
b11111111111111111111111111111011 I#
b11 <#
b11 ?#
b11 =#
b11 8#
b11 :#
b11 9#
b10 ,#
b10 /#
b10 -#
b10 (#
b10 *#
b10 )#
b11111111111111111111111111111111 z"
b10 }"
b10 {"
b11 v"
b11111111111111111111111111111111 x"
b10 w"
1G
b1100 9
b1100 3"
b1100 A#
b0 :
b0 2"
b0 1#
b10 ;
b10 1"
b10 !#
b1 <
b1 0"
b1 o"
1H
b1111 =
b1111 y
b1111 @#
b11 >
b11 x
b11 0#
b0 ?
b0 w
b0 ~"
b1 @
b1 v
b1 n"
b11111111111111111111111111111100 7"
b0 6"
b10 5"
b1 4"
b11111111111111111111111111111100 9"
b111 <"
b1011 ;"
b111 :"
b1011 8"
b11111111111111111111111111111111 }
b11 |
b0 {
b1 z
b11111111111111111111111111111111 !"
b1010 $"
b1011 #"
b1010 ""
b1011 ~
1'
#100000
0'
#105000
1K
0F
b11 I
b11 a
b11 j
1H
1G
b11111111111111111111111111111111 !"
b1011 #"
b1011 ~
b11111111111111111111111111111100 9"
b1011 ;"
b1011 8"
1'
#110000
0'
#115000
0-
b1011 1
b1011 C"
b1011 G#
1F#
b11 2
b11 D"
b11 7#
16#
b10 3
b10 E"
b10 '#
1&#
b11 4
b11 F"
b11 u"
1t"
0G
0H
1'
#120000
0'
#125000
b100 i
1)
18
17
16
15
1'
#130000
0'
#135000
1="
1C
0K
b100 I
b100 a
b100 j
1'
#140000
0'
#145000
0="
0t"
0&#
06#
0F#
b1 j"
b110 h"
b11 g"
b10 f"
b10 e"
1i"
b110 l"
b11111111111111111111111111111011 m"
b1011 k"
1'
#150000
0'
#155000
b10 I"
b0 B"
b0 l"
b101 k"
b0 m"
0)
b10 j"
b10 a"
05
06
07
08
1'
#160000
0'
#165000
b10001 H"
b1 A"
b1 l"
b111 k"
b1 m"
b11 j"
b10 b"
1'
#170000
0'
#175000
b10001 ?"
b10001 >"
b10001 G"
b0 @"
b10001 l"
b10010000011 k"
b10001 m"
b100 j"
b10001 c"
1'
#180000
0'
#185000
b101 j"
b10001 A
b10001 d"
1'
#190000
0'
#195000
b101 i
1`
b0 j"
1D
1'
#200000
0'
#205000
1B
0C
b110 i
0`
b101 I
b101 a
b101 j
0D
1'
#210000
0'
#215000
1"
0B
b0 i
b10001 !
b10001 /
b10001 ^
0i"
b110 I
b110 a
b110 j
1'
#220000
b100101100 $
b100101100 +
b1111101000 #
b1111101000 *
b100000101000100010001000101111101010111010100100100000101010000 S#
b10010001 R#
b100101100 Q#
b1111101000 P#
0'
#225000
0"
b0 I
b0 a
b0 j
1'
#230000
10
b1 i
1&
0'
#235000
1E
b10 i
00
b100101100 [
b1111101000 Y
b1 I
b1 a
b1 j
1'
#240000
b10 i
0&
0'
#245000
1F
0E
b10 I
b10 a
b10 j
b100101100 Z
b100101100 %"
b1111101000 X
b1111101000 k
1'
#250000
0'
#255000
b11 i
b10 L#
b10 O#
b10 M#
b10 H#
b10 J#
b10 I#
b0 ,#
b0 /#
b0 -#
b0 (#
b0 *#
b0 )#
b1 z"
b1 }"
b1 {"
b1 v"
b1 x"
b1 w"
1-
b11111111111111111111111111111110 <#
b11111111111111111111111111111110 ?#
b11111111111111111111111111111110 =#
b110 8#
b11111111111111111111111111111110 :#
b11111111111111111111111111111110 9#
1G
b11 9
b11 3"
b11 A#
b111 :
b111 2"
b111 1#
b0 ;
b0 1"
b0 !#
b0 <
b0 0"
b0 o"
1H
b111 >
b111 x
b111 0#
b11 7"
b11111111111111111111111111111111 6"
b0 5"
b0 4"
b11 9"
b100101100 <"
b1011 ;"
b100101100 :"
b1011 8"
b11111111111111111111111111111111 |
b11111111111111111111111111111111 !"
b1111101000 $"
b1011 #"
b1111101000 ""
b1011 ~
1'
#260000
0'
#265000
1K
0F
b11 I
b11 a
b11 j
1H
1G
b11111111111111111111111111111111 !"
b1011 #"
b1011 ~
b11 9"
b1011 ;"
b1011 8"
1'
#270000
0'
#275000
0-
b10 1
b10 C"
b10 G#
1F#
b110 2
b110 D"
b110 7#
16#
b0 3
b0 E"
b0 '#
1&#
b1 4
b1 F"
b1 u"
1t"
0G
0H
1'
#280000
0'
#285000
b100 i
1)
18
17
16
15
1'
#290000
0'
#295000
1="
1C
0K
b100 I
b100 a
b100 j
1'
#300000
0'
#305000
b101001100 ?"
b101001100 >"
b101001100 G"
b101111 H"
b101 I"
b11 @"
b11 A"
b1 B"
0="
0t"
0&#
06#
0F#
b1 j"
b10 h"
b101 g"
b0 f"
b1 e"
1i"
b101001100 l"
b101001100 m"
b10010000011 k"
1'
#310000
0'
#315000
b11 B"
b11 l"
b101 k"
b1000 m"
b1010 I"
0)
b10 j"
b1 a"
05
06
07
08
1'
#320000
0'
#325000
b10 A"
b10 l"
b111 k"
b10 m"
b101000 H"
b11 j"
b1010 b"
1'
#330000
0'
#335000
b10010001 ?"
b1 @"
b10010001 >"
b10010001 l"
b10010000011 k"
b10010001 m"
b10010001 G"
b100 j"
b101000 c"
1'
#340000
0'
#345000
b101 j"
b10010001 A
b10010001 d"
1'
#350000
0'
#355000
b101 i
1`
b0 j"
1D
1'
#360000
0'
#365000
1B
0C
b110 i
0`
b101 I
b101 a
b101 j
0D
1'
#370000
0'
#375000
1"
0B
b0 i
b10010001 !
b10010001 /
b10010001 ^
0i"
b110 I
b110 a
b110 j
1'
#380000
b110010 $
b110010 +
b11001000 #
b11001000 *
b1 %
b1 .
b1010011010101010100001001011111001100100011000000110000010111110011010100110000 S#
b10010110 R#
b110010 Q#
b11001000 P#
b1 T#
0'
#385000
0"
b0 I
b0 a
b0 j
1'
#390000
10
b1 i
1&
0'
#395000
1E
b10 i
00
b1 ]
b110010 [
b11001000 Y
b1 I
b1 a
b1 j
1'
#400000
b10 i
0&
0'
#405000
1F
0E
b1 v"
b1 x"
b1 w"
b0 <#
b0 ?#
b0 =#
b0 8#
b0 :#
b0 9#
b11111111111111111111111111111100 L#
b11111111111111111111111111111100 O#
b11111111111111111111111111111100 M#
b1100 H#
b11111111111111111111111111111100 J#
b11111111111111111111111111111100 I#
b10 I
b10 a
b10 j
b1 \
b1 p"
b1 "#
b1 2#
b1 B#
b110010 Z
b110010 %"
b11001000 X
b11001000 k
1'
#410000
0'
#415000
b11 i
1-
b11111111111111111111111111111100 L#
b111 O#
b111 M#
b1100 H#
b11111111111111111111111111111100 J#
b111 I#
b11 8#
b11 :#
b11 <#
b11111111111111111111111111111100 ?#
b11111111111111111111111111111100 =#
b11111111111111111111111111111100 9#
b0 z"
b0 }"
b0 {"
b0 v"
b0 x"
b0 w"
1G
b1011 9
b1011 3"
b1011 A#
b1 :
b1 2"
b1 1#
b11 <
b11 0"
b11 o"
1H
b10 =
b10 y
b10 @#
b101 >
b101 x
b101 0#
b11 @
b11 v
b11 n"
b11111111111111111111111111111011 7"
b1 6"
b11111111111111111111111111111111 4"
b11111111111111111111111111111011 9"
b110010 <"
b1011 ;"
b110010 :"
b1011 8"
b10 }
b11111111111111111111111111111101 |
b11111111111111111111111111111111 z
b10 !"
b11001000 $"
b1011 #"
b11001000 ""
b1011 ~
1'
#420000
0'
#425000
1K
0F
b11 I
b11 a
b11 j
1H
1G
b10 !"
b1011 #"
b1011 ~
b11111111111111111111111111111011 9"
b1011 ;"
b1011 8"
1'
#430000
0'
#435000
0-
b1100 1
b1100 C"
b1100 G#
1F#
b11 2
b11 D"
b11 7#
16#
1&#
b0 4
b0 F"
b0 u"
1t"
0G
0H
1'
#440000
0'
#445000
b100 i
1)
18
17
16
15
1'
#450000
0'
#455000
1="
1C
0K
b100 I
b100 a
b100 j
1'
#460000
0'
#465000
b101000 ?"
b101000 >"
b101000 G"
b1010 H"
b0 @"
b0 A"
0="
0t"
0&#
06#
0F#
b1 j"
b111 h"
b11 g"
b0 e"
1i"
b101000 l"
b101000 m"
b10010000011 k"
1'
#470000
0'
#475000
b0 B"
b0 l"
b101 k"
b0 m"
b0 I"
0)
b10 j"
b0 a"
05
06
07
08
1'
#480000
0'
#485000
b11 A"
b11 l"
b11 m"
b111 k"
b101101 H"
b11 j"
b0 b"
1'
#490000
0'
#495000
b10010110 ?"
b1 @"
b10010110 >"
b10010110 l"
b10010000011 k"
b10010110 m"
b10010110 G"
b100 j"
b101101 c"
1'
#500000
0'
#505000
b101 j"
b10010110 A
b10010110 d"
1'
#510000
0'
#515000
b101 i
1`
b0 j"
1D
1'
#520000
0'
#525000
1B
0C
b110 i
0`
b101 I
b101 a
b101 j
0D
1'
#530000
0'
#535000
1"
0B
b0 i
b10010110 !
b10010110 /
b10010110 ^
0i"
b110 I
b110 a
b110 j
1'
#540000
b11001000 $
b11001000 +
b110010 #
b110010 *
b101001101010101010000100101111101010111010100100100000101010000 S#
b1111111101101010 R#
b11001000 Q#
b110010 P#
0'
#545000
0"
b0 I
b0 a
b0 j
1'
#550000
10
b1 i
1&
0'
#555000
1E
b10 i
00
b11001000 [
b110010 Y
b1 I
b1 a
b1 j
1'
#560000
b10 i
0&
0'
#565000
1F
0E
b10 I
b10 a
b10 j
b11001000 Z
b11001000 %"
b110010 X
b110010 k
1'
#570000
0'
#575000
b11 i
1-
b100 L#
b11111111111111111111111111111001 O#
b11111111111111111111111111111001 M#
b100 H#
b100 J#
b11111111111111111111111111111001 I#
b11111111111111111111111111111101 <#
b100 ?#
b100 =#
b101 8#
b11111111111111111111111111111101 :#
b100 9#
1G
b10 9
b10 3"
b10 A#
b101 :
b101 2"
b101 1#
1H
b1011 =
b1011 y
b1011 @#
b1 >
b1 x
b1 0#
b10 7"
b11111111111111111111111111111101 6"
b10 9"
b11001000 <"
b1011 ;"
b11001000 :"
b1011 8"
b11111111111111111111111111111011 }
b1 |
b11111111111111111111111111111011 !"
b110010 $"
b1011 #"
b110010 ""
b1011 ~
1'
#580000
0'
#585000
1K
0F
b11 I
b11 a
b11 j
1H
1G
b11111111111111111111111111111011 !"
b1011 #"
b1011 ~
b10 9"
b1011 ;"
b1011 8"
1'
#590000
0'
#595000
0-
b100 1
b100 C"
b100 G#
1F#
b101 2
b101 D"
b101 7#
16#
1&#
1t"
0G
0H
1'
#600000
0'
#605000
b100 i
1)
18
17
16
15
1'
#610000
0'
#615000
1="
1C
0K
b100 I
b100 a
b100 j
1'
#620000
0'
#625000
b11000100000 ?"
b1010100011 >"
b1010100011 G"
b111100 H"
b110 @"
b100 A"
0="
0t"
0&#
06#
0F#
b1 j"
b100 h"
b100 g"
1i"
b1010100011 l"
b1010100011 m"
b10010000011 k"
1'
#630000
0'
#635000
0)
b10 j"
05
06
07
08
1'
#640000
0'
#645000
b11 j"
1'
#650000
0'
#655000
b11101101010 ?"
b1001 @"
b1111101101 >"
b1111101101 l"
b10010000011 k"
b1111101101 m"
b1111101101 G"
b100 j"
b111100 c"
1'
#660000
0'
#665000
b101 j"
b1111111101101010 A
b1111111101101010 d"
1'
#670000
0'
#675000
b101 i
1`
b0 j"
1D
1'
#680000
0'
#685000
1B
0C
b110 i
0`
b101 I
b101 a
b101 j
0D
1'
#690000
0'
#695000
1"
0B
b0 i
b1111111101101010 !
b1111111101101010 /
b1111111101101010 ^
0i"
b110 I
b110 a
b110 j
1'
#700000
b10001 $
b10001 +
b1011 #
b1011 *
b10 %
b10 .
b10011010101010101001100010111110011000100110001010111110011000100110111 S#
b10111011 R#
b10001 Q#
b1011 P#
b10 T#
0'
#705000
0"
b0 I
b0 a
b0 j
1'
#710000
10
b1 i
1&
0'
#715000
1E
b10 i
00
b10 ]
b10001 [
b1011 Y
b1 I
b1 a
b1 j
1'
#720000
b10 i
0&
0'
#725000
1F
0E
b1 v"
b1 x"
b1 z"
b1 }"
b1 {"
b1 w"
b11111111111111111111111111111101 <#
b11111111111111111111111111111101 ?#
b11111111111111111111111111111101 =#
b101 8#
b11111111111111111111111111111101 :#
b11111111111111111111111111111101 9#
b1 L#
b11111111111111111111111111110110 O#
b11111111111111111111111111110110 M#
b1 H#
b1 J#
b11111111111111111111111111110110 I#
b10 I
b10 a
b10 j
b10 \
b10 p"
b10 "#
b10 2#
b10 B#
b10001 Z
b10001 %"
b1011 X
b1011 k
1'
#730000
0'
#735000
b11 i
1-
b0 L#
b0 O#
b0 M#
b0 H#
b0 J#
b0 I#
b11111111111111111111111111111110 <#
b11111111111111111111111111110111 ?#
b11111111111111111111111111110111 =#
b110 8#
b11111111111111111111111111111110 :#
b11111111111111111111111111110111 9#
b10 (#
b10 *#
b10 ,#
b10 /#
b10 -#
b10 )#
1G
b1011 9
b1011 3"
b1011 A#
b11 :
b11 2"
b11 1#
b10 ;
b10 1"
b10 !#
1H
b0 =
b0 y
b0 @#
b101 >
b101 x
b101 0#
b1 ?
b1 w
b1 ~"
b11111111111111111111111111111011 7"
b11 6"
b10 5"
b11111111111111111111111111111011 9"
b10001 <"
b1011 ;"
b10001 :"
b1011 8"
b0 }
b11111111111111111111111111111101 |
b1 {
b0 !"
b1011 $"
b1011 #"
b1011 ""
b1011 ~
1'
#740000
0'
#745000
1K
0F
b11 I
b11 a
b11 j
1H
1G
b0 !"
b1011 #"
b1011 ~
b11111111111111111111111111111011 9"
b1011 ;"
b1011 8"
1'
#750000
0'
#755000
0-
b0 1
b0 C"
b0 G#
1F#
b110 2
b110 D"
b110 7#
16#
b10 3
b10 E"
b10 '#
1&#
b1 4
b1 F"
b1 u"
1t"
0G
0H
1'
#760000
0'
#765000
b100 i
1)
18
17
16
15
1'
#770000
0'
#775000
1="
1C
0K
b100 I
b100 a
b100 j
1'
#780000
0'
#785000
b10100101 ?"
b10100101 >"
b10100101 G"
b1001011 H"
b1100 I"
b1 @"
b101 A"
b100 B"
0="
0t"
0&#
06#
0F#
b1 j"
b0 h"
b101 g"
b10 f"
b1 e"
1i"
b10100101 l"
b10100101 m"
b10010000011 k"
1'
#790000
0'
#795000
b10 B"
b10 l"
b101 k"
b10 m"
b111 I"
0)
b10 j"
b1 a"
05
06
07
08
1'
#800000
0'
#805000
b0 l"
b111 k"
b111 m"
b1010010 H"
b11 j"
b111 b"
1'
#810000
0'
#815000
b10111011 ?"
b10111011 >"
b10111011 l"
b10010000011 k"
b10111011 m"
b10111011 G"
b100 j"
b1010010 c"
1'
#820000
0'
#825000
b101 j"
b10111011 A
b10111011 d"
1'
#830000
0'
#835000
b101 i
1`
b0 j"
1D
1'
#840000
0'
#845000
1B
0C
b110 i
0`
b101 I
b101 a
b101 j
0D
1'
#850000
0'
#855000
1"
0B
b0 i
b10111011 !
b10111011 /
b10111011 ^
0i"
b110 I
b110 a
b110 j
1'
