rrns_mrc_all_lane/latest/precheck/rtl/all_lane_mrc_rtl_precheck.vcd
$date
	Mon Apr 20 08:46:05 2026
$end
$version
	Icarus Verilog
$end
$timescale
	1ps
$end
$scope module tb_rrns_all_lane_top_mrc $end
$var wire 16 ! X_out [15:0] $end
$var wire 1 " Valid $end
$var wire 1 # Error_Detected $end
$var wire 1 $ Done $end
$var wire 1 % Corrected $end
$var reg 16 & A_in [15:0] $end
$var reg 16 ' B_in [15:0] $end
$var reg 2 ( Op_Sel [1:0] $end
$var reg 1 ) Start $end
$var reg 1 * clk $end
$var reg 4 + force_r4_hold [3:0] $end
$var reg 5 , force_r5_hold [4:0] $end
$var reg 1 - rst_n $end
$var integer 32 . force_lane_hold [31:0] $end
$var integer 32 / lane [31:0] $end
$var integer 32 0 tests_failed [31:0] $end
$var integer 32 1 tests_run [31:0] $end
$scope module dut $end
$var wire 1 2 ALU_Done_all $end
$var wire 16 3 A_in [15:0] $end
$var wire 16 4 B_in [15:0] $end
$var wire 1 5 CRT_Done $end
$var wire 1 % Corrected $end
$var wire 1 6 Encode_Done_all $end
$var wire 1 # Error_Detected $end
$var wire 2 7 Op_Sel [1:0] $end
$var wire 1 ) Start $end
$var wire 1 " Valid $end
$var wire 16 8 X_base_pre [15:0] $end
$var wire 16 9 X_out [15:0] $end
$var wire 1 * clk $end
$var wire 1 - rst_n $end
$var wire 5 : z_r5 [4:0] $end
$var wire 4 ; z_r4 [3:0] $end
$var wire 4 < z_r3 [3:0] $end
$var wire 3 = z_r2 [2:0] $end
$var wire 3 > z_r1 [2:0] $end
$var wire 2 ? z_r0 [1:0] $end
$var wire 1 @ slice5_done $end
$var wire 1 A slice4_done $end
$var wire 1 B slice3_done $end
$var wire 1 C slice2_done $end
$var wire 1 D slice1_done $end
$var wire 1 E slice0_done $end
$var wire 1 F recon_post_sel $end
$var wire 4 G corr_r3 [3:0] $end
$var wire 3 H corr_r2 [2:0] $end
$var wire 3 I corr_r1 [2:0] $end
$var wire 2 J corr_r0 [1:0] $end
$var wire 5 K b_r5 [4:0] $end
$var wire 4 L b_r4 [3:0] $end
$var wire 4 M b_r3 [3:0] $end
$var wire 3 N b_r2 [2:0] $end
$var wire 3 O b_r1 [2:0] $end
$var wire 2 P b_r0 [1:0] $end
$var wire 5 Q a_r5 [4:0] $end
$var wire 4 R a_r4 [3:0] $end
$var wire 4 S a_r3 [3:0] $end
$var wire 3 T a_r2 [2:0] $end
$var wire 3 U a_r1 [2:0] $end
$var wire 2 V a_r0 [1:0] $end
$var wire 16 W X_final_post [15:0] $end
$var wire 1 X Valid_now $end
$var wire 1 Y Out_EN $end
$var wire 1 Z MRC_Start $end
$var wire 1 [ MRC_Done $end
$var wire 1 \ Load_IN $end
$var wire 1 ] Error_now $end
$var wire 1 ^ Encode_EN $end
$var wire 1 _ Encode_Done_B $end
$var wire 1 ` Encode_Done_A $end
$var wire 1 $ Done $end
$var wire 1 a Corrected_now $end
$var wire 1 b Correct_Start $end
$var wire 1 c Correct_Done $end
$var wire 4 d CU_state_dbg [3:0] $end
$var wire 1 e CRT_Start $end
$var wire 1 f ALU_EN $end
$var parameter 32 g CENTERED_OUT_EN $end
$var parameter 32 h CRNS_EN $end
$var parameter 32 i M0 $end
$var parameter 32 j M1 $end
$var parameter 32 k M2 $end
$var parameter 32 l M3 $end
$var parameter 32 m M4 $end
$var parameter 32 n M5 $end
$var parameter 32 o W0 $end
$var parameter 32 p W1 $end
$var parameter 32 q W2 $end
$var parameter 32 r W3 $end
$var parameter 32 s W4 $end
$var parameter 32 t W5 $end
$var parameter 32 u WIDTH_IN $end
$var reg 16 v A_reg [15:0] $end
$var reg 16 w A_req [15:0] $end
$var reg 16 x B_reg [15:0] $end
$var reg 16 y B_req [15:0] $end
$var reg 1 z Corrected_reg $end
$var reg 1 { Error_reg $end
$var reg 2 | OpSel_reg [1:0] $end
$var reg 2 } OpSel_req [1:0] $end
$var reg 1 ~ Valid_reg $end
$var reg 16 !" X_reg [15:0] $end
$scope module u_corrector $end
$var wire 16 "" X_base [15:0] $end
$var wire 1 * clk $end
$var wire 1 - rst_n $end
$var wire 1 #" start_pulse $end
$var wire 5 $" r5 [4:0] $end
$var wire 4 %" r4 [3:0] $end
$var wire 4 &" r3 [3:0] $end
$var wire 3 '" r2 [2:0] $end
$var wire 3 (" r1 [2:0] $end
$var wire 2 )" r0 [1:0] $end
$var wire 1 b Correct_Start $end
$var parameter 32 *" M0 $end
$var parameter 32 +" M1 $end
$var parameter 32 ," M2 $end
$var parameter 32 -" M3 $end
$var parameter 32 ." M4 $end
$var parameter 32 /" M5 $end
$var parameter 32 0" M_BASE $end
$var parameter 32 1" OUT_WIDTH $end
$var parameter 3 2" S_DONE $end
$var parameter 3 3" S_EVAL $end
$var parameter 3 4" S_IDLE $end
$var parameter 3 5" S_PREP $end
$var parameter 3 6" S_RESOLVE $end
$var parameter 32 7" W0 $end
$var parameter 32 8" W1 $end
$var parameter 32 9" W2 $end
$var parameter 32 :" W3 $end
$var parameter 32 ;" W4 $end
$var parameter 32 <" W5 $end
$var reg 1 c Correct_Done $end
$var reg 1 a Corrected $end
$var reg 1 ] Error_Detected $end
$var reg 1 X Valid $end
$var reg 2 =" b0_w [1:0] $end
$var reg 3 >" b1_w [2:0] $end
$var reg 3 ?" b2_w [2:0] $end
$var reg 4 @" b3_w [3:0] $end
$var reg 4 A" cand_val_r [3:0] $end
$var reg 1 B" chk13_r $end
$var reg 1 C" chk17_r $end
$var reg 1 D" conflict_found_r $end
$var reg 2 E" corr_r0 [1:0] $end
$var reg 3 F" corr_r1 [2:0] $end
$var reg 3 G" corr_r2 [2:0] $end
$var reg 4 H" corr_r3 [3:0] $end
$var reg 4 I" exp13_w [3:0] $end
$var reg 5 J" exp17_w [4:0] $end
$var reg 1 K" hit_w $end
$var reg 2 L" lane_idx_r [1:0] $end
$var reg 2 M" n0_r [1:0] $end
$var reg 3 N" n1_r [2:0] $end
$var reg 3 O" n2_r [2:0] $end
$var reg 4 P" n3_r [3:0] $end
$var reg 4 Q" n4_r [3:0] $end
$var reg 5 R" n5_r [4:0] $end
$var reg 1 S" start_d $end
$var reg 3 T" state [2:0] $end
$var reg 1 U" winner_found_r $end
$var reg 2 V" winner_lane_r [1:0] $end
$var reg 4 W" winner_res_r [3:0] $end
$scope function canon_r0 $end
$var reg 2 X" x [1:0] $end
$upscope $end
$scope function canon_r1 $end
$var reg 3 Y" x [2:0] $end
$upscope $end
$scope function canon_r2 $end
$var reg 3 Z" x [2:0] $end
$upscope $end
$scope function canon_r3 $end
$var reg 4 [" x [3:0] $end
$upscope $end
$scope function canon_r4 $end
$var reg 4 \" x [3:0] $end
$upscope $end
$scope function canon_r5 $end
$var reg 5 ]" x [4:0] $end
$upscope $end
$scope function center_with_modulus $end
$var integer 32 ^" p [31:0] $end
$var integer 32 _" t [31:0] $end
$var integer 32 `" x [31:0] $end
$upscope $end
$scope function norm_mod $end
$var integer 32 a" m [31:0] $end
$var integer 32 b" t [31:0] $end
$var integer 32 c" x [31:0] $end
$upscope $end
$scope function x_mod13_from_centered $end
$var reg 16 d" x [15:0] $end
$var integer 32 e" xs [31:0] $end
$upscope $end
$scope function x_mod17_from_centered $end
$var reg 16 f" x [15:0] $end
$var integer 32 g" xs [31:0] $end
$upscope $end
$scope begin predict_reds $end
$var integer 32 h" t2_i [31:0] $end
$var integer 32 i" t3_i [31:0] $end
$var integer 32 j" t4_i [31:0] $end
$var integer 32 k" x1_i [31:0] $end
$var integer 32 l" x2_i [31:0] $end
$var integer 32 m" x3_i [31:0] $end
$var integer 32 n" x_ctr_i [31:0] $end
$var integer 32 o" x_pos_i [31:0] $end
$upscope $end
$upscope $end
$scope module u_cu $end
$var wire 1 2 ALU_Done $end
$var wire 1 5 CRT_Done $end
$var wire 1 c Correct_Done $end
$var wire 1 6 Encode_Done $end
$var wire 1 p" Recon_Mode $end
$var wire 1 ) Start $end
$var wire 1 * clk $end
$var wire 1 - rst_n $end
$var wire 1 q" recon_done_sel $end
$var wire 1 [ MRC_Done $end
$var wire 4 r" CU_state_dbg [3:0] $end
$var parameter 4 s" S_ALU $end
$var parameter 4 t" S_CORRECT $end
$var parameter 4 u" S_DONE $end
$var parameter 4 v" S_ENCODE $end
$var parameter 4 w" S_IDLE $end
$var parameter 4 x" S_LOAD $end
$var parameter 4 y" S_OUT $end
$var parameter 4 z" S_RECON_POST $end
$var parameter 4 {" S_RECON_PRE $end
$var reg 1 f ALU_EN $end
$var reg 1 e CRT_Start $end
$var reg 1 b Correct_Start $end
$var reg 1 $ Done $end
$var reg 1 ^ Encode_EN $end
$var reg 1 \ Load_IN $end
$var reg 1 Z MRC_Start $end
$var reg 1 Y Out_EN $end
$var reg 4 |" next_state [3:0] $end
$var reg 4 }" state [3:0] $end
$upscope $end
$scope module u_enc_a $end
$var wire 1 ^ Encode_EN $end
$var wire 1 * clk $end
$var wire 1 - rst_n $end
$var wire 16 ~" x [15:0] $end
$var parameter 32 !# CRNS_EN $end
$var parameter 32 "# M0 $end
$var parameter 32 ## M1 $end
$var parameter 32 $# M2 $end
$var parameter 32 %# M3 $end
$var parameter 32 &# M4 $end
$var parameter 32 '# M5 $end
$var parameter 32 (# W0 $end
$var parameter 32 )# W1 $end
$var parameter 32 *# W2 $end
$var parameter 32 +# W3 $end
$var parameter 32 ,# W4 $end
$var parameter 32 -# W5 $end
$var parameter 32 .# WIDTH_IN $end
$var reg 1 ` Encode_Done $end
$var reg 2 /# r0 [1:0] $end
$var reg 3 0# r1 [2:0] $end
$var reg 3 1# r2 [2:0] $end
$var reg 4 2# r3 [3:0] $end
$var reg 4 3# r4 [3:0] $end
$var reg 5 4# r5 [4:0] $end
$var integer 32 5# tmp0 [31:0] $end
$var integer 32 6# tmp1 [31:0] $end
$var integer 32 7# tmp2 [31:0] $end
$var integer 32 8# tmp3 [31:0] $end
$var integer 32 9# tmp4 [31:0] $end
$var integer 32 :# tmp5 [31:0] $end
$scope function norm_bal $end
$var integer 32 ;# m [31:0] $end
$var integer 32 <# r [31:0] $end
$var integer 32 =# val [31:0] $end
$upscope $end
$scope function norm_std $end
$var integer 32 ># m [31:0] $end
$var integer 32 ?# val [31:0] $end
$upscope $end
$upscope $end
$scope module u_enc_b $end
$var wire 1 ^ Encode_EN $end
$var wire 1 * clk $end
$var wire 1 - rst_n $end
$var wire 16 @# x [15:0] $end
$var parameter 32 A# CRNS_EN $end
$var parameter 32 B# M0 $end
$var parameter 32 C# M1 $end
$var parameter 32 D# M2 $end
$var parameter 32 E# M3 $end
$var parameter 32 F# M4 $end
$var parameter 32 G# M5 $end
$var parameter 32 H# W0 $end
$var parameter 32 I# W1 $end
$var parameter 32 J# W2 $end
$var parameter 32 K# W3 $end
$var parameter 32 L# W4 $end
$var parameter 32 M# W5 $end
$var parameter 32 N# WIDTH_IN $end
$var reg 1 _ Encode_Done $end
$var reg 2 O# r0 [1:0] $end
$var reg 3 P# r1 [2:0] $end
$var reg 3 Q# r2 [2:0] $end
$var reg 4 R# r3 [3:0] $end
$var reg 4 S# r4 [3:0] $end
$var reg 5 T# r5 [4:0] $end
$var integer 32 U# tmp0 [31:0] $end
$var integer 32 V# tmp1 [31:0] $end
$var integer 32 W# tmp2 [31:0] $end
$var integer 32 X# tmp3 [31:0] $end
$var integer 32 Y# tmp4 [31:0] $end
$var integer 32 Z# tmp5 [31:0] $end
$scope function norm_bal $end
$var integer 32 [# m [31:0] $end
$var integer 32 \# r [31:0] $end
$var integer 32 ]# val [31:0] $end
$upscope $end
$scope function norm_std $end
$var integer 32 ^# m [31:0] $end
$var integer 32 _# val [31:0] $end
$upscope $end
$upscope $end
$scope module u_mrc $end
$var wire 1 Z MRC_Start $end
$var wire 1 * clk $end
$var wire 2 `# r0 [1:0] $end
$var wire 3 a# r1 [2:0] $end
$var wire 3 b# r2 [2:0] $end
$var wire 4 c# r3 [3:0] $end
$var wire 1 - rst_n $end
$var wire 1 d# start_pulse $end
$var wire 11 e# total_mod_w [10:0] $end
$var wire 11 f# total_centered_w [10:0] $end
$var wire 4 g# t4_w [3:0] $end
$var wire 3 h# t3_w [2:0] $end
$var wire 3 i# t2_w [2:0] $end
$var wire 11 j# X4_w [10:0] $end
$var wire 7 k# X3_next_w [6:0] $end
$var wire 4 l# X2_next_w [3:0] $end
$var parameter 32 m# HALF_M $end
$var parameter 32 n# INV_12 $end
$var parameter 32 o# INV_123 $end
$var parameter 32 p# INV_1234 $end
$var parameter 32 q# MOD0 $end
$var parameter 32 r# MOD1 $end
$var parameter 32 s# MOD2 $end
$var parameter 32 t# MOD3 $end
$var parameter 32 u# MPREV1 $end
$var parameter 32 v# MPREV2 $end
$var parameter 32 w# MPREV3 $end
$var parameter 32 x# M_TOTAL $end
$var parameter 32 y# OUT_WIDTH $end
$var parameter 3 z# S_DONE $end
$var parameter 3 {# S_IDLE $end
$var parameter 3 |# S_S1 $end
$var parameter 3 }# S_S2 $end
$var parameter 3 ~# S_S3 $end
$var parameter 3 !$ S_S4 $end
$var parameter 32 "$ W0 $end
$var parameter 32 #$ W1 $end
$var parameter 32 $$ W2 $end
$var parameter 32 %$ W3 $end
$var reg 1 [ MRC_Done $end
$var reg 2 &$ X1_r [1:0] $end
$var reg 4 '$ X2_r [3:0] $end
$var reg 7 ($ X3_r [6:0] $end
$var reg 16 )$ X_out [15:0] $end
$var reg 2 *$ r0_mod_r [1:0] $end
$var reg 3 +$ r1_mod_r [2:0] $end
$var reg 3 ,$ r2_mod_r [2:0] $end
$var reg 4 -$ r3_mod_r [3:0] $end
$var reg 1 .$ start_d $end
$var reg 3 /$ state [2:0] $end
$scope function norm_mod $end
$var integer 32 0$ m [31:0] $end
$var integer 32 1$ t [31:0] $end
$var integer 32 2$ x [31:0] $end
$upscope $end
$upscope $end
$scope module u_slice0 $end
$var wire 1 f ALU_EN $end
$var wire 2 3$ a [1:0] $end
$var wire 2 4$ b [1:0] $end
$var wire 1 * clk $end
$var wire 2 5$ op_sel [1:0] $end
$var wire 1 - rst_n $end
$var parameter 32 6$ CRNS_EN $end
$var parameter 32 7$ MODULUS $end
$var parameter 32 8$ WIDTH $end
$var reg 1 E ALU_Done $end
$var reg 1 9$ start_d $end
$var reg 2 :$ y [1:0] $end
$var reg 2 ;$ y_next [1:0] $end
$var integer 32 <$ raw [31:0] $end
$var integer 32 =$ tmp [31:0] $end
$scope function norm_bal $end
$var integer 32 >$ m [31:0] $end
$var integer 32 ?$ r [31:0] $end
$var integer 32 @$ val [31:0] $end
$upscope $end
$scope function norm_std $end
$var integer 32 A$ m [31:0] $end
$var integer 32 B$ val [31:0] $end
$upscope $end
$upscope $end
$scope module u_slice1 $end
$var wire 1 f ALU_EN $end
$var wire 3 C$ a [2:0] $end
$var wire 3 D$ b [2:0] $end
$var wire 1 * clk $end
$var wire 2 E$ op_sel [1:0] $end
$var wire 1 - rst_n $end
$var parameter 32 F$ CRNS_EN $end
$var parameter 32 G$ MODULUS $end
$var parameter 32 H$ WIDTH $end
$var reg 1 D ALU_Done $end
$var reg 1 I$ start_d $end
$var reg 3 J$ y [2:0] $end
$var reg 3 K$ y_next [2:0] $end
$var integer 32 L$ raw [31:0] $end
$var integer 32 M$ tmp [31:0] $end
$scope function norm_bal $end
$var integer 32 N$ m [31:0] $end
$var integer 32 O$ r [31:0] $end
$var integer 32 P$ val [31:0] $end
$upscope $end
$scope function norm_std $end
$var integer 32 Q$ m [31:0] $end
$var integer 32 R$ val [31:0] $end
$upscope $end
$upscope $end
$scope module u_slice2 $end
$var wire 1 f ALU_EN $end
$var wire 3 S$ a [2:0] $end
$var wire 3 T$ b [2:0] $end
$var wire 1 * clk $end
$var wire 2 U$ op_sel [1:0] $end
$var wire 1 - rst_n $end
$var parameter 32 V$ CRNS_EN $end
$var parameter 32 W$ MODULUS $end
$var parameter 32 X$ WIDTH $end
$var reg 1 C ALU_Done $end
$var reg 1 Y$ start_d $end
$var reg 3 Z$ y [2:0] $end
$var reg 3 [$ y_next [2:0] $end
$var integer 32 \$ raw [31:0] $end
$var integer 32 ]$ tmp [31:0] $end
$scope function norm_bal $end
$var integer 32 ^$ m [31:0] $end
$var integer 32 _$ r [31:0] $end
$var integer 32 `$ val [31:0] $end
$upscope $end
$scope function norm_std $end
$var integer 32 a$ m [31:0] $end
$var integer 32 b$ val [31:0] $end
$upscope $end
$upscope $end
$scope module u_slice3 $end
$var wire 1 f ALU_EN $end
$var wire 4 c$ a [3:0] $end
$var wire 4 d$ b [3:0] $end
$var wire 1 * clk $end
$var wire 2 e$ op_sel [1:0] $end
$var wire 1 - rst_n $end
$var parameter 32 f$ CRNS_EN $end
$var parameter 32 g$ MODULUS $end
$var parameter 32 h$ WIDTH $end
$var reg 1 B ALU_Done $end
$var reg 1 i$ start_d $end
$var reg 4 j$ y [3:0] $end
$var reg 4 k$ y_next [3:0] $end
$var integer 32 l$ raw [31:0] $end
$var integer 32 m$ tmp [31:0] $end
$scope function norm_bal $end
$var integer 32 n$ m [31:0] $end
$var integer 32 o$ r [31:0] $end
$var integer 32 p$ val [31:0] $end
$upscope $end
$scope function norm_std $end
$var integer 32 q$ m [31:0] $end
$var integer 32 r$ val [31:0] $end
$upscope $end
$upscope $end
$scope module u_slice4 $end
$var wire 1 f ALU_EN $end
$var wire 4 s$ a [3:0] $end
$var wire 4 t$ b [3:0] $end
$var wire 1 * clk $end
$var wire 2 u$ op_sel [1:0] $end
$var wire 1 - rst_n $end
$var parameter 32 v$ CRNS_EN $end
$var parameter 32 w$ MODULUS $end
$var parameter 32 x$ WIDTH $end
$var reg 1 A ALU_Done $end
$var reg 1 y$ start_d $end
$var reg 4 z$ y [3:0] $end
$var reg 4 {$ y_next [3:0] $end
$var integer 32 |$ raw [31:0] $end
$var integer 32 }$ tmp [31:0] $end
$scope function norm_bal $end
$var integer 32 ~$ m [31:0] $end
$var integer 32 !% r [31:0] $end
$var integer 32 "% val [31:0] $end
$upscope $end
$scope function norm_std $end
$var integer 32 #% m [31:0] $end
$var integer 32 $% val [31:0] $end
$upscope $end
$upscope $end
$scope module u_slice5 $end
$var wire 1 f ALU_EN $end
$var wire 5 %% a [4:0] $end
$var wire 5 &% b [4:0] $end
$var wire 1 * clk $end
$var wire 2 '% op_sel [1:0] $end
$var wire 1 - rst_n $end
$var parameter 32 (% CRNS_EN $end
$var parameter 32 )% MODULUS $end
$var parameter 32 *% WIDTH $end
$var reg 1 @ ALU_Done $end
$var reg 1 +% start_d $end
$var reg 5 ,% y [4:0] $end
$var reg 5 -% y_next [4:0] $end
$var integer 32 .% raw [31:0] $end
$var integer 32 /% tmp [31:0] $end
$scope function norm_bal $end
$var integer 32 0% m [31:0] $end
$var integer 32 1% r [31:0] $end
$var integer 32 2% val [31:0] $end
$upscope $end
$scope function norm_std $end
$var integer 32 3% m [31:0] $end
$var integer 32 4% val [31:0] $end
$upscope $end
$upscope $end
$upscope $end
$scope task finish_report $end
$upscope $end
$scope task pulse_start $end
$upscope $end
$scope task record_result $end
$upscope $end
$scope task run_fault_test_base_lane $end
$upscope $end
$scope task run_fault_test_red13 $end
$upscope $end
$scope task run_fault_test_red17 $end
$upscope $end
$scope task run_test $end
$upscope $end
$scope task wait_done_or_timeout $end
$upscope $end
$upscope $end
$enddefinitions $end
$comment Show the parameter values. $end
$dumpall
b101 *%
b10001 )%
b1 (%
b100 x$
b1101 w$
b1 v$
b100 h$
b1011 g$
b1 f$
b11 X$
b111 W$
b1 V$
b11 H$
b101 G$
b1 F$
b10 8$
b11 7$
b1 6$
b100 %$
b11 $$
b11 #$
b10 "$
b100 !$
b11 ~#
b10 }#
b1 |#
b0 {#
b101 z#
b10000 y#
b10010000011 x#
b1101001 w#
b1111 v#
b11 u#
b1011 t#
b111 s#
b101 r#
b11 q#
b10 p#
b1 o#
b10 n#
b1001000001 m#
b10000 N#
b101 M#
b100 L#
b100 K#
b11 J#
b11 I#
b10 H#
b10001 G#
b1101 F#
b1011 E#
b111 D#
b101 C#
b11 B#
b1 A#
b10000 .#
b101 -#
b100 ,#
b100 +#
b11 *#
b11 )#
b10 (#
b10001 '#
b1101 &#
b1011 %#
b111 $#
b101 ##
b11 "#
b1 !#
b100 {"
b110 z"
b111 y"
b1 x"
b0 w"
b10 v"
b1000 u"
b101 t"
b11 s"
b101 <"
b100 ;"
b100 :"
b11 9"
b11 8"
b10 7"
b11 6"
b1 5"
b0 4"
b10 3"
b100 2"
b10000 1"
b10010000011 0"
b10001 /"
b1101 ."
b1011 -"
b111 ,"
b101 +"
b11 *"
b10000 u
b101 t
b100 s
b100 r
b11 q
b11 p
b10 o
b10001 n
b1101 m
b1011 l
b111 k
b101 j
b11 i
b1 h
b1 g
$end
#0
$dumpvars
bx 4%
bx 3%
bx 2%
bx 1%
bx 0%
bx /%
bx .%
bx -%
bx ,%
x+%
bx '%
bx &%
bx %%
bx $%
bx #%
bx "%
bx !%
bx ~$
bx }$
bx |$
bx {$
bx z$
xy$
bx u$
bx t$
bx s$
bx r$
bx q$
bx p$
bx o$
bx n$
bx m$
bx l$
bx k$
bx j$
xi$
bx e$
bx d$
bx c$
bx b$
bx a$
bx `$
bx _$
bx ^$
bx ]$
bx \$
bx [$
bx Z$
xY$
bx U$
bx T$
bx S$
bx R$
bx Q$
bx P$
bx O$
bx N$
bx M$
bx L$
bx K$
bx J$
xI$
bx E$
bx D$
bx C$
bx B$
bx A$
bx @$
bx ?$
bx >$
bx =$
bx <$
bx ;$
bx :$
x9$
bx 5$
bx 4$
bx 3$
bx 2$
bx 1$
b111 0$
bx /$
x.$
bx -$
bx ,$
bx +$
bx *$
bx )$
bx ($
bx '$
bx &$
bx l#
bx k#
bx j#
bx i#
bx h#
bx g#
bx f#
bx e#
0d#
bx c#
bx b#
bx a#
bx `#
bx _#
bx ^#
bx ]#
bx \#
bx [#
bx Z#
bx Y#
bx X#
bx W#
bx V#
bx U#
bx T#
bx S#
bx R#
bx Q#
bx P#
bx O#
bx @#
bx ?#
bx >#
bx =#
bx <#
bx ;#
bx :#
bx 9#
bx 8#
bx 7#
bx 6#
bx 5#
bx 4#
bx 3#
bx 2#
bx 1#
bx 0#
bx /#
bx ~"
bx }"
b0 |"
bx r"
xq"
1p"
bx o"
bx n"
bx m"
bx l"
bx k"
bx j"
bx i"
bx h"
bx g"
bx f"
bx e"
bx d"
bx c"
bx b"
bx a"
bx `"
bx _"
bx ^"
bx ]"
bx \"
bx ["
bx Z"
bx Y"
bx X"
bx W"
bx V"
xU"
bx T"
xS"
bx R"
bx Q"
bx P"
bx O"
bx N"
bx M"
bx L"
xK"
bx J"
bx I"
bx H"
bx G"
bx F"
bx E"
xD"
xC"
xB"
bx A"
bx @"
bx ?"
bx >"
bx ="
bx )"
bx ("
bx '"
bx &"
bx %"
bx $"
0#"
bx ""
bx !"
x~
bx }
bx |
x{
xz
bx y
bx x
bx w
bx v
0f
0e
bx d
xc
0b
xa
x`
x_
0^
x]
0\
x[
0Z
0Y
xX
bx W
bx V
bx U
bx T
bx S
bx R
bx Q
bx P
bx O
bx N
bx M
bx L
bx K
bx J
bx I
bx H
bx G
xF
xE
xD
xC
xB
xA
x@
bx ?
bx >
bx =
bx <
bx ;
bx :
bx 9
bx 8
b0 7
x6
05
b0 4
b0 3
x2
b0 1
b0 0
bx /
bx .
0-
bx ,
bx +
0*
0)
b0 (
b0 '
b0 &
x%
0$
x#
x"
bx !
$end
#5000
06
02
0q"
1K"
b0 J"
b0 I"
b0 n"
b0 o"
b0 j"
b0 m"
b0 i"
b0 l"
b0 h"
b0 b"
b0 c"
b10001 a"
b0 k"
b0 @"
b0 ?"
b0 >"
b0 ="
0F
b0 d
b0 r"
b0 }"
0`
0_
0E
09$
0D
0I$
0C
0Y$
0B
0i$
0A
0y$
0@
0+%
0[
0.$
b0 /$
b0 R"
b0 Q"
b0 P"
b0 O"
b0 N"
b0 M"
b0 W"
b0 V"
0D"
0U"
b0 A"
b0 L"
0C"
0B"
0X
0a
0]
b0 G
b0 H"
b0 H
b0 G"
b0 I
b0 F"
b0 J
b0 E"
0c
0S"
b0 T"
b0 }
b0 y
b0 w
0"
0~
0%
0z
0#
0{
b0 !
b0 9
b0 !"
1*
#10000
0*
#15000
1*
#20000
0*
#25000
1*
#30000
0*
#35000
1*
#40000
0*
#45000
1*
#50000
1-
0*
#55000
1*
#60000
b111 '
b111 4
b1010 &
b1010 3
0*
#65000
b111 y
b1010 w
1*
#70000
b1 |"
1)
0*
#75000
1\
b10 |"
b1 d
b1 r"
b1 }"
1*
#80000
b10 |"
0)
0*
#85000
1^
0\
b11 A$
b11 >$
bx ;$
bx =$
bx <$
b101 Q$
b101 N$
bx K$
bx M$
bx L$
b111 a$
b111 ^$
bx [$
bx ]$
bx \$
b1011 q$
b1011 n$
bx k$
bx m$
bx l$
b1101 #%
b1101 ~$
bx {$
bx }$
bx |$
b10001 3%
b10001 0%
bx -%
bx /%
bx .%
b10 d
b10 r"
b10 }"
b0 |
b0 5$
b0 E$
b0 U$
b0 e$
b0 u$
b0 '%
b111 x
b111 @#
b1010 v
b1010 ~"
1*
#90000
0*
#95000
b11 |"
16
b0 1%
b0 4%
b0 2%
b0 -%
b0 /%
b0 .%
b100 !%
b11111111111111111111111111110111 $%
b11111111111111111111111111110111 "%
b100 {$
b100 }$
b11111111111111111111111111110111 |$
b11111111111111111111111111111011 o$
b11111111111111111111111111111011 r$
b11111111111111111111111111111011 p$
b1011 k$
b11111111111111111111111111111011 m$
b11111111111111111111111111111011 l$
b11 _$
b11 b$
b11 `$
b11 [$
b11 ]$
b11 \$
b10 O$
b10 R$
b10 P$
b10 K$
b10 M$
b10 L$
b11111111111111111111111111111111 ?$
b10 B$
b10 @$
b11 ;$
b11111111111111111111111111111111 =$
b10 <$
1_
b111 K
b111 T#
b111 &%
b1010 L
b1010 S#
b1010 t$
b1100 M
b1100 R#
b1100 d$
b0 N
b0 Q#
b0 T$
b10 O
b10 P#
b10 D$
b1 P
b1 O#
b1 4$
1`
b11001 Q
b11001 4#
b11001 %%
b1101 R
b1101 3#
b1101 s$
b1111 S
b1111 2#
b1111 c$
b11 T
b11 1#
b11 S$
b0 U
b0 0#
b0 C$
b1 V
b1 /#
b1 3$
b111 Z#
b11111111111111111111111111111010 Y#
b11111111111111111111111111111100 X#
b0 W#
b10 V#
b1 U#
b111 \#
b111 _#
b10001 ^#
b111 ]#
b10001 [#
b11111111111111111111111111111001 :#
b11111111111111111111111111111101 9#
b11111111111111111111111111111111 8#
b11 7#
b0 6#
b1 5#
b11111111111111111111111111111001 <#
b1010 ?#
b10001 >#
b1010 =#
b10001 ;#
1*
#100000
0*
#105000
1f
0^
b11 d
b11 r"
b11 }"
1`
1_
b11111111111111111111111111111001 <#
b10001 >#
b10001 ;#
b111 \#
b10001 ^#
b10001 [#
1*
#110000
0*
#115000
b1011 c#
b11 b#
b10 a#
b11 `#
06
b0 :
b0 $"
b0 ,%
1+%
b100 ;
b100 %"
b100 z$
1y$
b1011 <
b1011 &"
b1011 j$
1i$
b11 =
b11 '"
b11 Z$
1Y$
b10 >
b10 ("
b10 J$
1I$
b11 ?
b11 )"
b11 :$
19$
0_
0`
1*
#120000
0*
#125000
b100 |"
12
1E
1D
1C
1B
1A
1@
1*
#130000
0*
#135000
1d#
1Z
0f
b100 d
b100 r"
b100 }"
1*
#140000
0*
#145000
0d#
09$
0I$
0Y$
0i$
0y$
0+%
b1 /$
b110 -$
b11 ,$
b10 +$
b10 *$
1.$
b110 1$
b11111111111111111111111111111011 2$
b1011 0$
1*
#150000
0*
#155000
b10 l#
b0 i#
b0 1$
b101 0$
b0 2$
02
b10 /$
b10 &$
0@
0A
0B
0C
0D
0E
1*
#160000
0*
#165000
b10001 k#
b1 h#
b1 1$
b111 0$
b1 2$
b11 /$
b10 '$
1*
#170000
0*
#175000
b10001 f#
b10001 e#
b10001 j#
b0 g#
b10001 1$
b10010000011 0$
b10001 2$
b100 /$
b10001 ($
1*
#180000
0*
#185000
b101 /$
b10001 8
b10001 ""
b10001 W
b10001 )$
1*
#190000
0*
#195000
b101 |"
1q"
b0 /$
1[
1*
#200000
0*
#205000
1#"
1b
0Z
0q"
b101 d
b101 r"
b101 }"
0[
1*
#210000
0*
#215000
0#"
0K"
b1011 J"
b1100 I"
b110010010 n"
b110010010 o"
b11 j"
b1010111 m"
b101 i"
b1100 l"
b100 h"
b1011 b"
b110010010 c"
b10001 a"
b110 @"
b11 ?"
b10 >"
b0 ="
b1 T"
b1011 G
b1011 H"
b11 H
b11 G"
b10 I
b10 F"
b11 J
b11 E"
b100 Q"
b110 P"
b11 O"
b10 N"
b10 M"
1S"
0.$
b0 ]"
b100 \"
b1011 ["
b11 Z"
b10 Y"
b11 X"
1*
#220000
0*
#225000
b100 T"
1X
1C"
1B"
b10001 g"
b10001 f"
b0 b"
b10001 c"
b10001 a"
b10001 e"
b10001 d"
1*
#230000
0*
#235000
b110 |"
b0 T"
1c
1*
#240000
0*
#245000
1d#
1Z
0b
1F
b110 d
b110 r"
b110 }"
0c
1*
#250000
0*
#255000
0d#
0S"
b1 /$
1.$
b110 1$
b11111111111111111111111111111011 2$
b1011 0$
1*
#260000
0*
#265000
b10 /$
1*
#270000
0*
#275000
b11 /$
1*
#280000
0*
#285000
b100 /$
1*
#290000
0*
#295000
b101 /$
1*
#300000
0*
#305000
b111 |"
1q"
b0 /$
1[
1*
#310000
0*
#315000
0q"
1Y
0Z
b1000 |"
0[
0F
b111 d
b111 r"
b111 }"
1*
#320000
0*
#325000
1$
0Y
b0 |"
b1000 d
b1000 r"
b1000 }"
0.$
1"
1~
b10001 !
b10001 9
b10001 !"
1*
#330000
0*
