runs/24077195018/precheck/rtl/rtl_precheck.vcd
$date
	Tue Apr  7 10:40:45 2026
$end
$version
	Icarus Verilog
$end
$timescale
	1ps
$end
$scope module tb_rns_top_mrc $end
$var wire 16 ! X_out [15:0] $end
$var wire 1 " Done $end
$var reg 16 # A_in [15:0] $end
$var reg 16 $ B_in [15:0] $end
$var reg 2 % Op_Sel [1:0] $end
$var reg 1 & Start $end
$var reg 1 ' clk $end
$var reg 1 ( rst_n $end
$scope module dut $end
$var wire 1 ) ALU_Done_all $end
$var wire 16 * A_in [15:0] $end
$var wire 16 + B_in [15:0] $end
$var wire 1 , CRT_Done $end
$var wire 1 - Encode_Done_all $end
$var wire 2 . Op_Sel [1:0] $end
$var wire 1 & Start $end
$var wire 16 / X_out [15:0] $end
$var wire 1 0 accept_start $end
$var wire 1 ' clk $end
$var wire 1 ( rst_n $end
$var wire 4 1 z_r3 [3:0] $end
$var wire 3 2 z_r2 [2:0] $end
$var wire 3 3 z_r1 [2:0] $end
$var wire 2 4 z_r0 [1:0] $end
$var wire 1 5 slice3_done $end
$var wire 1 6 slice2_done $end
$var wire 1 7 slice1_done $end
$var wire 1 8 slice0_done $end
$var wire 4 9 b_r3 [3:0] $end
$var wire 3 : b_r2 [2:0] $end
$var wire 3 ; b_r1 [2:0] $end
$var wire 2 < b_r0 [1:0] $end
$var wire 4 = a_r3 [3:0] $end
$var wire 3 > a_r2 [2:0] $end
$var wire 3 ? a_r1 [2:0] $end
$var wire 2 @ a_r0 [1:0] $end
$var wire 16 A X_mrc [15:0] $end
$var wire 1 B Out_EN $end
$var wire 1 C MRC_Start $end
$var wire 1 D MRC_Done $end
$var wire 1 E Load_IN $end
$var wire 1 F Encode_EN $end
$var wire 1 G Encode_Done_B $end
$var wire 1 H Encode_Done_A $end
$var wire 1 " Done $end
$var wire 3 I CU_state_dbg [2:0] $end
$var wire 1 J CRT_Start $end
$var wire 1 K ALU_EN $end
$var parameter 32 L M0 $end
$var parameter 32 M M1 $end
$var parameter 32 N M2 $end
$var parameter 32 O M3 $end
$var parameter 3 P S_IDLE $end
$var parameter 32 Q W0 $end
$var parameter 32 R W1 $end
$var parameter 32 S W2 $end
$var parameter 32 T W3 $end
$var parameter 32 U WIDTH_IN $end
$var reg 16 V A_reg [15:0] $end
$var reg 16 W A_req [15:0] $end
$var reg 16 X B_reg [15:0] $end
$var reg 16 Y B_req [15:0] $end
$var reg 2 Z OpSel_reg [1:0] $end
$var reg 2 [ OpSel_req [1:0] $end
$var reg 16 \ X_reg [15:0] $end
$scope module u_cu $end
$var wire 1 ) ALU_Done $end
$var wire 1 , CRT_Done $end
$var wire 1 - Encode_Done $end
$var wire 1 ] Recon_Mode $end
$var wire 1 & Start $end
$var wire 1 ' clk $end
$var wire 1 ( rst_n $end
$var wire 1 ^ recon_done_sel $end
$var wire 1 D MRC_Done $end
$var wire 3 _ CU_state_dbg [2:0] $end
$var parameter 3 ` S_ALU $end
$var parameter 3 a S_DONE $end
$var parameter 3 b S_ENCODE $end
$var parameter 3 c S_IDLE $end
$var parameter 3 d S_LOAD $end
$var parameter 3 e S_OUT $end
$var parameter 3 f S_RECON $end
$var reg 1 K ALU_EN $end
$var reg 1 J CRT_Start $end
$var reg 1 " Done $end
$var reg 1 F Encode_EN $end
$var reg 1 E Load_IN $end
$var reg 1 C MRC_Start $end
$var reg 1 B Out_EN $end
$var reg 3 g next_state [2:0] $end
$var reg 3 h state [2:0] $end
$upscope $end
$scope module u_enc_a $end
$var wire 1 F Encode_EN $end
$var wire 1 ' clk $end
$var wire 1 ( rst_n $end
$var wire 16 i x [15:0] $end
$var wire 4 j r3_next [3:0] $end
$var wire 3 k r2_next [2:0] $end
$var wire 3 l r1_next [2:0] $end
$var wire 2 m r0_next [1:0] $end
$var parameter 32 n M0 $end
$var parameter 32 o M1 $end
$var parameter 32 p M2 $end
$var parameter 32 q M3 $end
$var parameter 32 r W0 $end
$var parameter 32 s W1 $end
$var parameter 32 t W2 $end
$var parameter 32 u W3 $end
$var parameter 32 v WIDTH_IN $end
$var reg 1 H Encode_Done $end
$var reg 2 w r0 [1:0] $end
$var reg 3 x r1 [2:0] $end
$var reg 3 y r2 [2:0] $end
$var reg 4 z r3 [3:0] $end
$upscope $end
$scope module u_enc_b $end
$var wire 1 F Encode_EN $end
$var wire 1 ' clk $end
$var wire 1 ( rst_n $end
$var wire 16 { x [15:0] $end
$var wire 4 | r3_next [3:0] $end
$var wire 3 } r2_next [2:0] $end
$var wire 3 ~ r1_next [2:0] $end
$var wire 2 !" r0_next [1:0] $end
$var parameter 32 "" M0 $end
$var parameter 32 #" M1 $end
$var parameter 32 $" M2 $end
$var parameter 32 %" M3 $end
$var parameter 32 &" W0 $end
$var parameter 32 '" W1 $end
$var parameter 32 (" W2 $end
$var parameter 32 )" W3 $end
$var parameter 32 *" WIDTH_IN $end
$var reg 1 G Encode_Done $end
$var reg 2 +" r0 [1:0] $end
$var reg 3 ," r1 [2:0] $end
$var reg 3 -" r2 [2:0] $end
$var reg 4 ." r3 [3:0] $end
$upscope $end
$scope module u_mrc $end
$var wire 1 C MRC_Start $end
$var wire 1 ' clk $end
$var wire 1 ( rst_n $end
$var wire 1 /" start_pulse $end
$var wire 11 0" total_mod_w [10:0] $end
$var wire 4 1" t4_w [3:0] $end
$var wire 3 2" t3_w [2:0] $end
$var wire 3 3" t2_w [2:0] $end
$var wire 4 4" r3 [3:0] $end
$var wire 3 5" r2 [2:0] $end
$var wire 3 6" r1 [2:0] $end
$var wire 2 7" r0 [1:0] $end
$var wire 11 8" X4_w [10:0] $end
$var wire 7 9" X3_next_w [6:0] $end
$var wire 4 :" X2_next_w [3:0] $end
$var parameter 32 ;" INV_12 $end
$var parameter 32 <" INV_123 $end
$var parameter 32 =" INV_1234 $end
$var parameter 32 >" MOD0 $end
$var parameter 32 ?" MOD1 $end
$var parameter 32 @" MOD2 $end
$var parameter 32 A" MOD3 $end
$var parameter 32 B" MPREV1 $end
$var parameter 32 C" MPREV2 $end
$var parameter 32 D" MPREV3 $end
$var parameter 32 E" M_TOTAL $end
$var parameter 32 F" OUT_WIDTH $end
$var parameter 3 G" S_DONE $end
$var parameter 3 H" S_IDLE $end
$var parameter 3 I" S_S1 $end
$var parameter 3 J" S_S2 $end
$var parameter 3 K" S_S3 $end
$var parameter 3 L" S_S4 $end
$var parameter 32 M" W0 $end
$var parameter 32 N" W1 $end
$var parameter 32 O" W2 $end
$var parameter 32 P" W3 $end
$var reg 1 D MRC_Done $end
$var reg 2 Q" X1_r [1:0] $end
$var reg 4 R" X2_r [3:0] $end
$var reg 7 S" X3_r [6:0] $end
$var reg 16 T" X_out [15:0] $end
$var reg 2 U" r0_mod_r [1:0] $end
$var reg 3 V" r1_mod_r [2:0] $end
$var reg 3 W" r2_mod_r [2:0] $end
$var reg 4 X" r3_mod_r [3:0] $end
$var reg 1 Y" start_d $end
$var reg 3 Z" state [2:0] $end
$scope function norm_mod $end
$var integer 32 [" m [31:0] $end
$var integer 32 \" t [31:0] $end
$var integer 32 ]" x [31:0] $end
$upscope $end
$upscope $end
$scope module u_slice0 $end
$var wire 1 K ALU_EN $end
$var wire 2 ^" a [1:0] $end
$var wire 2 _" b [1:0] $end
$var wire 1 ' clk $end
$var wire 2 `" op_sel [1:0] $end
$var wire 1 ( rst_n $end
$var parameter 32 a" MODULUS $end
$var parameter 32 b" WIDTH $end
$var reg 1 8 ALU_Done $end
$var reg 1 c" start_d $end
$var reg 2 d" y [1:0] $end
$var reg 2 e" y_next [1:0] $end
$var integer 32 f" tmp [31:0] $end
$upscope $end
$scope module u_slice1 $end
$var wire 1 K ALU_EN $end
$var wire 3 g" a [2:0] $end
$var wire 3 h" b [2:0] $end
$var wire 1 ' clk $end
$var wire 2 i" op_sel [1:0] $end
$var wire 1 ( rst_n $end
$var parameter 32 j" MODULUS $end
$var parameter 32 k" WIDTH $end
$var reg 1 7 ALU_Done $end
$var reg 1 l" start_d $end
$var reg 3 m" y [2:0] $end
$var reg 3 n" y_next [2:0] $end
$var integer 32 o" tmp [31:0] $end
$upscope $end
$scope module u_slice2 $end
$var wire 1 K ALU_EN $end
$var wire 3 p" a [2:0] $end
$var wire 3 q" b [2:0] $end
$var wire 1 ' clk $end
$var wire 2 r" op_sel [1:0] $end
$var wire 1 ( rst_n $end
$var parameter 32 s" MODULUS $end
$var parameter 32 t" WIDTH $end
$var reg 1 6 ALU_Done $end
$var reg 1 u" start_d $end
$var reg 3 v" y [2:0] $end
$var reg 3 w" y_next [2:0] $end
$var integer 32 x" tmp [31:0] $end
$upscope $end
$scope module u_slice3 $end
$var wire 1 K ALU_EN $end
$var wire 4 y" a [3:0] $end
$var wire 4 z" b [3:0] $end
$var wire 1 ' clk $end
$var wire 2 {" op_sel [1:0] $end
$var wire 1 ( rst_n $end
$var parameter 32 |" MODULUS $end
$var parameter 32 }" WIDTH $end
$var reg 1 5 ALU_Done $end
$var reg 1 ~" start_d $end
$var reg 4 !# y [3:0] $end
$var reg 4 "# y_next [3:0] $end
$var integer 32 ## tmp [31:0] $end
$upscope $end
$upscope $end
$scope task run_test $end
$var reg 16 $# a [15:0] $end
$var reg 16 %# b [15:0] $end
$var reg 16 &# expected [15:0] $end
$var reg 128 '# name [127:0] $end
$var reg 2 (# op [1:0] $end
$upscope $end
$upscope $end
$enddefinitions $end
$comment Show the parameter values. $end
$dumpall
b100 }"
b1011 |"
b11 t"
b111 s"
b11 k"
b101 j"
b10 b"
b11 a"
b100 P"
b11 O"
b11 N"
b10 M"
b100 L"
b11 K"
b10 J"
b1 I"
b0 H"
b101 G"
b10000 F"
b10010000011 E"
b1101001 D"
b1111 C"
b11 B"
b1011 A"
b111 @"
b101 ?"
b11 >"
b10 ="
b1 <"
b10 ;"
b10000 *"
b100 )"
b11 ("
b11 '"
b10 &"
b1011 %"
b111 $"
b101 #"
b11 ""
b10000 v
b100 u
b11 t
b11 s
b10 r
b1011 q
b111 p
b101 o
b11 n
b100 f
b101 e
b1 d
b0 c
b10 b
b110 a
b11 `
b10000 U
b100 T
b11 S
b11 R
b10 Q
b0 P
b1011 O
b111 N
b101 M
b11 L
$end
#0
$dumpvars
bx (#
bx '#
bx &#
bx %#
bx $#
bx ##
bx "#
bx !#
x~"
bx {"
bx z"
bx y"
bx x"
bx w"
bx v"
xu"
bx r"
bx q"
bx p"
bx o"
bx n"
bx m"
xl"
bx i"
bx h"
bx g"
bx f"
bx e"
bx d"
xc"
bx `"
bx _"
bx ^"
bx ]"
bx \"
b111 ["
bx Z"
xY"
bx X"
bx W"
bx V"
bx U"
bx T"
bx S"
bx R"
bx Q"
bx :"
bx 9"
bx 8"
bx 7"
bx 6"
bx 5"
bx 4"
bx 3"
bx 2"
bx 1"
bx 0"
0/"
bx ."
bx -"
bx ,"
bx +"
bx !"
bx ~
bx }
bx |
bx {
bx z
bx y
bx x
bx w
bx m
bx l
bx k
bx j
bx i
b0 h
b0 g
b0 _
x^
1]
b0 \
bx [
bx Z
bx Y
bx X
bx W
bx V
0K
0J
b0 I
xH
xG
0F
0E
xD
0C
0B
bx A
bx @
bx ?
bx >
bx =
bx <
bx ;
bx :
bx 9
x8
x7
x6
x5
bx 4
bx 3
bx 2
bx 1
00
b0 /
b0 .
x-
0,
b0 +
b0 *
x)
0(
0'
0&
b0 %
b0 $
b0 #
0"
b0 !
$end
#5000
0-
0)
0^
0H
0G
08
0c"
07
0l"
06
0u"
05
0~"
0D
0Y"
b0 Z"
1'
#10000
0'
#15000
1'
#20000
0'
#25000
1'
#30000
0'
#35000
1'
#40000
0'
#45000
1'
#50000
1(
0'
#55000
1'
#60000
b111 $
b111 +
b1010 #
b1010 *
b100000101000100010001000101111100110001001100000101111100110111 '#
b10001 &#
b111 %#
b1010 $#
b0 (#
0'
#65000
1'
#70000
10
b1 g
1&
0'
#75000
1E
b10 g
00
b1 I
b1 _
b1 h
b0 [
b111 Y
b1010 W
1'
#80000
b10 g
0&
0'
#85000
1F
0E
bx f"
bx e"
bx o"
bx n"
bx x"
bx w"
bx ##
bx "#
b1 !"
b10 ~
b0 }
b111 |
b1 m
b0 l
b11 k
b1010 j
b10 I
b10 _
b10 h
b0 Z
b0 `"
b0 i"
b0 r"
b0 {"
b111 X
b111 {
b1010 V
b1010 i
1'
#90000
0'
#95000
b11 g
1-
b110 ##
b110 "#
b11 x"
b11 w"
b10 o"
b10 n"
b10 f"
b10 e"
1G
b111 9
b111 ."
b111 z"
b0 :
b0 -"
b0 q"
b10 ;
b10 ,"
b10 h"
b1 <
b1 +"
b1 _"
1H
b1010 =
b1010 z
b1010 y"
b11 >
b11 y
b11 p"
b0 ?
b0 x
b0 g"
b1 @
b1 w
b1 ^"
1'
#100000
0'
#105000
1K
0F
b11 I
b11 _
b11 h
1H
1G
1'
#110000
0'
#115000
0-
b110 1
b110 4"
b110 !#
1~"
b11 2
b11 5"
b11 v"
1u"
b10 3
b10 6"
b10 m"
1l"
b10 4
b10 7"
b10 d"
1c"
0G
0H
1'
#120000
0'
#125000
b100 g
1)
18
17
16
15
1'
#130000
0'
#135000
1/"
1C
0K
b100 I
b100 _
b100 h
1'
#140000
0'
#145000
0/"
0c"
0l"
0u"
0~"
b1 Z"
b110 X"
b11 W"
b10 V"
b10 U"
1Y"
b110 \"
b110 ]"
b1011 ["
1'
#150000
0'
#155000
b10 :"
b0 3"
b0 \"
b101 ["
b0 ]"
0)
b10 Z"
b10 Q"
05
06
07
08
1'
#160000
0'
#165000
b10001 9"
b1 2"
b1 \"
b111 ["
b1 ]"
b11 Z"
b10 R"
1'
#170000
0'
#175000
b10001 0"
b10001 8"
b0 1"
b10001 \"
b10010000011 ["
b10001 ]"
b100 Z"
b10001 S"
1'
#180000
0'
#185000
b101 Z"
b10001 A
b10001 T"
1'
#190000
0'
#195000
b101 g
1^
b0 Z"
1D
1'
#200000
0'
#205000
1B
0C
b110 g
0^
b101 I
b101 _
b101 h
0D
1'
#210000
0'
#215000
1"
0B
b0 g
b110 I
b110 _
b110 h
b10001 !
b10001 /
b10001 \
0Y"
1'
#220000
b100101100 $
b100101100 +
b1111101000 #
b1111101000 *
b100000101000100010001000101111101010111010100100100000101010000 '#
b10010001 &#
b100101100 %#
b1111101000 $#
0'
#225000
0"
b0 I
b0 _
b0 h
1'
#230000
10
b1 g
1&
0'
#235000
1E
b10 g
00
b1 I
b1 _
b1 h
b100101100 Y
b1111101000 W
1'
#240000
b10 g
0&
0'
#245000
1F
0E
b0 !"
b0 ~
b110 }
b11 |
b110 k
b10 I
b10 _
b10 h
b100101100 X
b100101100 {
b1111101000 V
b1111101000 i
1'
#250000
0'
#255000
b11 g
b10 ##
b10 "#
b0 o"
b0 n"
b1 f"
b1 e"
1-
b101 x"
b101 w"
1G
b11 9
b11 ."
b11 z"
b110 :
b110 -"
b110 q"
b0 ;
b0 ,"
b0 h"
b0 <
b0 +"
b0 _"
1H
b110 >
b110 y
b110 p"
1'
#260000
0'
#265000
1K
0F
b11 I
b11 _
b11 h
1H
1G
1'
#270000
0'
#275000
0-
b10 1
b10 4"
b10 !#
1~"
b101 2
b101 5"
b101 v"
1u"
b0 3
b0 6"
b0 m"
1l"
b1 4
b1 7"
b1 d"
1c"
0G
0H
1'
#280000
0'
#285000
b100 g
1)
18
17
16
15
1'
#290000
0'
#295000
1/"
1C
0K
b100 I
b100 _
b100 h
1'
#300000
0'
#305000
b101001100 0"
b101001100 8"
b101111 9"
b101 :"
b11 1"
b11 2"
b1 3"
0/"
0c"
0l"
0u"
0~"
b1 Z"
b10 X"
b101 W"
b0 V"
b1 U"
1Y"
b101001100 \"
b101001100 ]"
b10010000011 ["
1'
#310000
0'
#315000
b11 3"
b11 \"
b101 ["
b1000 ]"
b1010 :"
0)
b10 Z"
b1 Q"
05
06
07
08
1'
#320000
0'
#325000
b10 2"
b10 \"
b111 ["
b10 ]"
b101000 9"
b11 Z"
b1010 R"
1'
#330000
0'
#335000
b1 1"
b10010001 0"
b10010001 \"
b10010000011 ["
b10010001 ]"
b10010001 8"
b100 Z"
b101000 S"
1'
#340000
0'
#345000
b101 Z"
b10010001 A
b10010001 T"
1'
#350000
0'
#355000
b101 g
1^
b0 Z"
1D
1'
#360000
0'
#365000
1B
0C
b110 g
0^
b101 I
b101 _
b101 h
0D
1'
#370000
0'
#375000
1"
0B
b0 g
b110 I
b110 _
b110 h
b10010001 !
b10010001 /
b10010001 \
0Y"
1'
#380000
b110010 $
b110010 +
b11001000 #
b11001000 *
b1 %
b1 .
b1010011010101010100001001011111001100100011000000110000010111110011010100110000 '#
b10010110 &#
b110010 %#
b11001000 $#
b1 (#
0'
#385000
0"
b0 I
b0 _
b0 h
1'
#390000
10
b1 g
1&
0'
#395000
1E
b10 g
00
b1 I
b1 _
b1 h
b1 [
b110010 Y
b11001000 W
1'
#400000
b10 g
0&
0'
#405000
1F
0E
b1 f"
b1 e"
b0 o"
b0 x"
b0 w"
b111 ##
b111 "#
b10 !"
b1 }
b110 |
b10 m
b100 k
b10 j
b10 I
b10 _
b10 h
b1 Z
b1 `"
b1 i"
b1 r"
b1 {"
b110010 X
b110010 {
b11001000 V
b11001000 i
1'
#410000
0'
#415000
b11 g
1-
b111 ##
b111 "#
b11 w"
b11 x"
b0 f"
b0 e"
1G
b110 9
b110 ."
b110 z"
b1 :
b1 -"
b1 q"
b10 <
b10 +"
b10 _"
1H
b10 =
b10 z
b10 y"
b100 >
b100 y
b100 p"
b10 @
b10 w
b10 ^"
1'
#420000
0'
#425000
1K
0F
b11 I
b11 _
b11 h
1H
1G
1'
#430000
0'
#435000
0-
b111 1
b111 4"
b111 !#
1~"
b11 2
b11 5"
b11 v"
1u"
1l"
b0 4
b0 7"
b0 d"
1c"
0G
0H
1'
#440000
0'
#445000
b100 g
1)
18
17
16
15
1'
#450000
0'
#455000
1/"
1C
0K
b100 I
b100 _
b100 h
1'
#460000
0'
#465000
b101000 0"
b101000 8"
b1010 9"
b0 1"
b0 2"
0/"
0c"
0l"
0u"
0~"
b1 Z"
b111 X"
b11 W"
b0 U"
1Y"
b101000 \"
b101000 ]"
b10010000011 ["
1'
#470000
0'
#475000
b0 3"
b0 \"
b101 ["
b0 ]"
b0 :"
0)
b10 Z"
b0 Q"
05
06
07
08
1'
#480000
0'
#485000
b11 2"
b11 \"
b11 ]"
b111 ["
b101101 9"
b11 Z"
b0 R"
1'
#490000
0'
#495000
b1 1"
b10010110 0"
b10010110 \"
b10010000011 ["
b10010110 ]"
b10010110 8"
b100 Z"
b101101 S"
1'
#500000
0'
#505000
b101 Z"
b10010110 A
b10010110 T"
1'
#510000
0'
#515000
b101 g
1^
b0 Z"
1D
1'
#520000
0'
#525000
1B
0C
b110 g
0^
b101 I
b101 _
b101 h
0D
1'
#530000
0'
#535000
1"
0B
b0 g
b110 I
b110 _
b110 h
b10010110 !
b10010110 /
b10010110 \
0Y"
1'
#540000
b11001000 $
b11001000 +
b110010 #
b110010 *
b101001101010101010000100101111101010111010100100100000101010000 '#
b1111101101 &#
b11001000 %#
b110010 $#
0'
#545000
0"
b0 I
b0 _
b0 h
1'
#550000
10
b1 g
1&
0'
#555000
1E
b10 g
00
b1 I
b1 _
b1 h
b11001000 Y
b110010 W
1'
#560000
b10 g
0&
0'
#565000
1F
0E
b100 }
b10 |
b1 k
b110 j
b10 I
b10 _
b10 h
b11001000 X
b11001000 {
b110010 V
b110010 i
1'
#570000
0'
#575000
b11 g
1-
b100 ##
b100 "#
b100 x"
b100 w"
1G
b10 9
b10 ."
b10 z"
b100 :
b100 -"
b100 q"
1H
b110 =
b110 z
b110 y"
b1 >
b1 y
b1 p"
1'
#580000
0'
#585000
1K
0F
b11 I
b11 _
b11 h
1H
1G
1'
#590000
0'
#595000
0-
b100 1
b100 4"
b100 !#
1~"
b100 2
b100 5"
b100 v"
1u"
1l"
1c"
0G
0H
1'
#600000
0'
#605000
b100 g
1)
18
17
16
15
1'
#610000
0'
#615000
1/"
1C
0K
b100 I
b100 _
b100 h
1'
#620000
0'
#625000
b1010100011 0"
b1010100011 8"
b111100 9"
b110 1"
b100 2"
0/"
0c"
0l"
0u"
0~"
b1 Z"
b100 X"
b100 W"
1Y"
b1010100011 \"
b1010100011 ]"
b10010000011 ["
1'
#630000
0'
#635000
0)
b10 Z"
05
06
07
08
1'
#640000
0'
#645000
b11 Z"
1'
#650000
0'
#655000
b1001 1"
b1111101101 0"
b1111101101 \"
b10010000011 ["
b1111101101 ]"
b1111101101 8"
b100 Z"
b111100 S"
1'
#660000
0'
#665000
b101 Z"
b1111101101 A
b1111101101 T"
1'
#670000
0'
#675000
b101 g
1^
b0 Z"
1D
1'
#680000
0'
#685000
1B
0C
b110 g
0^
b101 I
b101 _
b101 h
0D
1'
#690000
0'
#695000
1"
0B
b0 g
b110 I
b110 _
b110 h
b1111101101 !
b1111101101 /
b1111101101 \
0Y"
1'
#700000
b10001 $
b10001 +
b1011 #
b1011 *
b10 %
b10 .
b10011010101010101001100010111110011000100110001010111110011000100110111 '#
b10111011 &#
b10001 %#
b1011 $#
b10 (#
0'
#705000
0"
b0 I
b0 _
b0 h
1'
#710000
10
b1 g
1&
0'
#715000
1E
b10 g
00
b1 I
b1 _
b1 h
b10 [
b10001 Y
b1011 W
1'
#720000
b10 g
0&
0'
#725000
1F
0E
b1 e"
b1 f"
b100 x"
b100 w"
b1 ##
b1 "#
b10 ~
b11 }
b110 |
b1 l
b100 k
b0 j
b10 I
b10 _
b10 h
b10 Z
b10 `"
b10 i"
b10 r"
b10 {"
b10001 X
b10001 {
b1011 V
b1011 i
1'
#730000
0'
#735000
b11 g
1-
b0 ##
b0 "#
b101 x"
b101 w"
b10 n"
b10 o"
1G
b110 9
b110 ."
b110 z"
b11 :
b11 -"
b11 q"
b10 ;
b10 ,"
b10 h"
1H
b0 =
b0 z
b0 y"
b100 >
b100 y
b100 p"
b1 ?
b1 x
b1 g"
1'
#740000
0'
#745000
1K
0F
b11 I
b11 _
b11 h
1H
1G
1'
#750000
0'
#755000
0-
b0 1
b0 4"
b0 !#
1~"
b101 2
b101 5"
b101 v"
1u"
b10 3
b10 6"
b10 m"
1l"
b1 4
b1 7"
b1 d"
1c"
0G
0H
1'
#760000
0'
#765000
b100 g
1)
18
17
16
15
1'
#770000
0'
#775000
1/"
1C
0K
b100 I
b100 _
b100 h
1'
#780000
0'
#785000
b10100101 0"
b10100101 8"
b1001011 9"
b1100 :"
b1 1"
b101 2"
b100 3"
0/"
0c"
0l"
0u"
0~"
b1 Z"
b0 X"
b101 W"
b10 V"
b1 U"
1Y"
b10100101 \"
b10100101 ]"
b10010000011 ["
1'
#790000
0'
#795000
b10 3"
b10 \"
b101 ["
b10 ]"
b111 :"
0)
b10 Z"
b1 Q"
05
06
07
08
1'
#800000
0'
#805000
b0 \"
b111 ["
b111 ]"
b1010010 9"
b11 Z"
b111 R"
1'
#810000
0'
#815000
b10111011 0"
b10111011 \"
b10010000011 ["
b10111011 ]"
b10111011 8"
b100 Z"
b1010010 S"
1'
#820000
0'
#825000
b101 Z"
b10111011 A
b10111011 T"
1'
#830000
0'
#835000
b101 g
1^
b0 Z"
1D
1'
#840000
0'
#845000
1B
0C
b110 g
0^
b101 I
b101 _
b101 h
0D
1'
#850000
0'
#855000
1"
0B
b0 g
b110 I
b110 _
b110 h
b10111011 !
b10111011 /
b10111011 \
0Y"
1'
#860000
b101000 $
b101000 +
b101000 #
b101000 *
b100110101010101010011000101111101010111010100100100000101010000 '#
b110111101 &#
b101000 %#
b101000 $#
0'
#865000
0"
b0 I
b0 _
b0 h
1'
#870000
10
b1 g
1&
0'
#875000
1E
b10 g
00
b1 I
b1 _
b1 h
b101000 Y
b101000 W
1'
#880000
b10 g
0&
0'
#885000
1F
0E
b1 !"
b0 ~
b101 }
b111 |
b1 m
b0 l
b101 k
b111 j
b10 I
b10 _
b10 h
b101000 X
b101000 {
b101000 V
b101000 i
1'
#890000
0'
#895000
b11 g
1-
b101 "#
b101 ##
b100 x"
b100 w"
b0 o"
b0 n"
b1 f"
b1 e"
1G
b111 9
b111 ."
b111 z"
b101 :
b101 -"
b101 q"
b0 ;
b0 ,"
b0 h"
b1 <
b1 +"
b1 _"
1H
b111 =
b111 z
b111 y"
b101 >
b101 y
b101 p"
b0 ?
b0 x
b0 g"
b1 @
b1 w
b1 ^"
1'
#900000
0'
#905000
1K
0F
b11 I
b11 _
b11 h
1H
1G
1'
#910000
0'
#915000
0-
b101 1
b101 4"
b101 !#
1~"
b100 2
b100 5"
b100 v"
1u"
b0 3
b0 6"
b0 m"
1l"
1c"
0G
0H
1'
#920000
0'
#925000
b100 g
1)
18
17
16
15
1'
#930000
0'
#935000
1/"
1C
0K
b100 I
b100 _
b100 h
1'
#940000
0'
#945000
b1010010 0"
b1010010 8"
b1000011 9"
b1010 :"
b0 1"
b100 2"
b11 3"
0/"
0c"
0l"
0u"
0~"
b1 Z"
b101 X"
b100 W"
b0 V"
1Y"
b1010010 \"
b1010010 ]"
b10010000011 ["
1'
#950000
0'
#955000
0)
b10 Z"
05
06
07
08
1'
#960000
0'
#965000
b1 2"
b1 \"
b111 ["
b1 ]"
b11001 9"
b11 Z"
b1010 R"
1'
#970000
0'
#975000
b100 1"
b110111101 0"
b110111101 \"
b10010000011 ["
b110111101 ]"
b110111101 8"
b100 Z"
b11001 S"
1'
#980000
0'
#985000
b101 Z"
b110111101 A
b110111101 T"
1'
#990000
0'
#995000
b101 g
1^
b0 Z"
1D
1'
#1000000
0'
#1005000
1B
0C
b110 g
0^
b101 I
b101 _
b101 h
0D
1'
#1010000
0'
#1015000
1"
0B
b0 g
b110 I
b110 _
b110 h
b110111101 !
b110111101 /
b110111101 \
0Y"
1'
#1020000
0'
#1025000
0"
b0 I
b0 _
b0 h
1'
