runs/24073531284/precheck/rtl/rtl_precheck.vcd
$date
	Tue Apr  7 09:08:19 2026
$end
$version
	Icarus Verilog
$end
$timescale
	1ps
$end
$scope module tb_crns_top_crt $end
$var wire 16 ! X_out [15:0] $end
$var wire 1 " Done $end
$var reg 16 # A_in [15:0] $end
$var reg 16 $ B_in [15:0] $end
$var reg 2 % Op_Sel [1:0] $end
$var reg 1 & Start $end
$var reg 1 ' clk $end
$var reg 1 ( rst_n $end
$scope module dut $end
$var wire 1 ) ALU_Done_all $end
$var wire 16 * A_in [15:0] $end
$var wire 16 + B_in [15:0] $end
$var wire 1 , Encode_Done_all $end
$var wire 1 - MRC_Done $end
$var wire 2 . Op_Sel [1:0] $end
$var wire 1 & Start $end
$var wire 16 / X_out [15:0] $end
$var wire 1 0 accept_start $end
$var wire 1 ' clk $end
$var wire 1 ( rst_n $end
$var wire 4 1 z_r3 [3:0] $end
$var wire 3 2 z_r2 [2:0] $end
$var wire 3 3 z_r1 [2:0] $end
$var wire 2 4 z_r0 [1:0] $end
$var wire 1 5 slice3_done $end
$var wire 1 6 slice2_done $end
$var wire 1 7 slice1_done $end
$var wire 1 8 slice0_done $end
$var wire 4 9 b_r3 [3:0] $end
$var wire 3 : b_r2 [2:0] $end
$var wire 3 ; b_r1 [2:0] $end
$var wire 2 < b_r0 [1:0] $end
$var wire 4 = a_r3 [3:0] $end
$var wire 3 > a_r2 [2:0] $end
$var wire 3 ? a_r1 [2:0] $end
$var wire 2 @ a_r0 [1:0] $end
$var wire 16 A X_crt [15:0] $end
$var wire 1 B Out_EN $end
$var wire 1 C MRC_Start $end
$var wire 1 D Load_IN $end
$var wire 1 E Encode_EN $end
$var wire 1 F Encode_Done_B $end
$var wire 1 G Encode_Done_A $end
$var wire 1 " Done $end
$var wire 3 H CU_state_dbg [2:0] $end
$var wire 1 I CRT_Start $end
$var wire 1 J CRT_Done $end
$var wire 1 K ALU_EN $end
$var parameter 32 L CENTERED_OUT_EN $end
$var parameter 32 M CRNS_EN $end
$var parameter 32 N HALF_M_TOTAL $end
$var parameter 32 O M0 $end
$var parameter 32 P M1 $end
$var parameter 32 Q M2 $end
$var parameter 32 R M3 $end
$var parameter 32 S M_TOTAL $end
$var parameter 3 T S_IDLE $end
$var parameter 32 U W0 $end
$var parameter 32 V W1 $end
$var parameter 32 W W2 $end
$var parameter 32 X W3 $end
$var parameter 32 Y WIDTH_IN $end
$var reg 16 Z A_reg [15:0] $end
$var reg 16 [ A_req [15:0] $end
$var reg 16 \ B_reg [15:0] $end
$var reg 16 ] B_req [15:0] $end
$var reg 2 ^ OpSel_reg [1:0] $end
$var reg 2 _ OpSel_req [1:0] $end
$var reg 16 ` X_reg [15:0] $end
$scope module u_crt $end
$var wire 1 ' clk $end
$var wire 1 ( rst_n $end
$var wire 4 a r3 [3:0] $end
$var wire 3 b r2 [2:0] $end
$var wire 3 c r1 [2:0] $end
$var wire 2 d r0 [1:0] $end
$var wire 1 I CRT_Start $end
$var parameter 32 e HALF_M $end
$var parameter 32 f INV0 $end
$var parameter 32 g INV1 $end
$var parameter 32 h INV2 $end
$var parameter 32 i INV3 $end
$var parameter 32 j M $end
$var parameter 32 k M0 $end
$var parameter 32 l M1 $end
$var parameter 32 m M2 $end
$var parameter 32 n M3 $end
$var parameter 32 o MOD0 $end
$var parameter 32 p MOD1 $end
$var parameter 32 q MOD2 $end
$var parameter 32 r MOD3 $end
$var parameter 32 s OUT_WIDTH $end
$var parameter 32 t W0 $end
$var parameter 32 u W1 $end
$var parameter 32 v W2 $end
$var parameter 32 w W3 $end
$var reg 1 J CRT_Done $end
$var reg 16 x X_next [15:0] $end
$var reg 16 y X_out [15:0] $end
$var reg 1 z start_d $end
$var reg 10 { term0 [9:0] $end
$var reg 10 | term1 [9:0] $end
$var reg 11 } term2 [10:0] $end
$var reg 12 ~ term3 [11:0] $end
$var reg 13 !" total [12:0] $end
$var reg 11 "" total_centered [10:0] $end
$var reg 11 #" total_mod [10:0] $end
$var reg 2 $" x0_mod [1:0] $end
$var reg 3 %" x1_mod [2:0] $end
$var reg 3 &" x2_mod [2:0] $end
$var reg 4 '" x3_mod [3:0] $end
$scope function norm_mod $end
$var integer 32 (" m [31:0] $end
$var integer 32 )" t [31:0] $end
$var integer 32 *" x [31:0] $end
$upscope $end
$upscope $end
$scope module u_cu $end
$var wire 1 ) ALU_Done $end
$var wire 1 J CRT_Done $end
$var wire 1 , Encode_Done $end
$var wire 1 - MRC_Done $end
$var wire 1 +" Recon_Mode $end
$var wire 1 & Start $end
$var wire 1 ' clk $end
$var wire 1 ( rst_n $end
$var wire 1 ," recon_done_sel $end
$var wire 3 -" CU_state_dbg [2:0] $end
$var parameter 3 ." S_ALU $end
$var parameter 3 /" S_DONE $end
$var parameter 3 0" S_ENCODE $end
$var parameter 3 1" S_IDLE $end
$var parameter 3 2" S_LOAD $end
$var parameter 3 3" S_OUT $end
$var parameter 3 4" S_RECON $end
$var reg 1 K ALU_EN $end
$var reg 1 I CRT_Start $end
$var reg 1 " Done $end
$var reg 1 E Encode_EN $end
$var reg 1 D Load_IN $end
$var reg 1 C MRC_Start $end
$var reg 1 B Out_EN $end
$var reg 3 5" next_state [2:0] $end
$var reg 3 6" state [2:0] $end
$upscope $end
$scope module u_enc_a $end
$var wire 1 E Encode_EN $end
$var wire 1 ' clk $end
$var wire 1 ( rst_n $end
$var wire 16 7" x [15:0] $end
$var parameter 32 8" CRNS_EN $end
$var parameter 32 9" M0 $end
$var parameter 32 :" M1 $end
$var parameter 32 ;" M2 $end
$var parameter 32 <" M3 $end
$var parameter 32 =" W0 $end
$var parameter 32 >" W1 $end
$var parameter 32 ?" W2 $end
$var parameter 32 @" W3 $end
$var parameter 32 A" WIDTH_IN $end
$var reg 1 G Encode_Done $end
$var reg 2 B" r0 [1:0] $end
$var reg 3 C" r1 [2:0] $end
$var reg 3 D" r2 [2:0] $end
$var reg 4 E" r3 [3:0] $end
$var integer 32 F" tmp0 [31:0] $end
$var integer 32 G" tmp1 [31:0] $end
$var integer 32 H" tmp2 [31:0] $end
$var integer 32 I" tmp3 [31:0] $end
$scope function norm_bal $end
$var integer 32 J" m [31:0] $end
$var integer 32 K" r [31:0] $end
$var integer 32 L" val [31:0] $end
$upscope $end
$scope function norm_std $end
$var integer 32 M" m [31:0] $end
$var integer 32 N" val [31:0] $end
$upscope $end
$upscope $end
$scope module u_enc_b $end
$var wire 1 E Encode_EN $end
$var wire 1 ' clk $end
$var wire 1 ( rst_n $end
$var wire 16 O" x [15:0] $end
$var parameter 32 P" CRNS_EN $end
$var parameter 32 Q" M0 $end
$var parameter 32 R" M1 $end
$var parameter 32 S" M2 $end
$var parameter 32 T" M3 $end
$var parameter 32 U" W0 $end
$var parameter 32 V" W1 $end
$var parameter 32 W" W2 $end
$var parameter 32 X" W3 $end
$var parameter 32 Y" WIDTH_IN $end
$var reg 1 F Encode_Done $end
$var reg 2 Z" r0 [1:0] $end
$var reg 3 [" r1 [2:0] $end
$var reg 3 \" r2 [2:0] $end
$var reg 4 ]" r3 [3:0] $end
$var integer 32 ^" tmp0 [31:0] $end
$var integer 32 _" tmp1 [31:0] $end
$var integer 32 `" tmp2 [31:0] $end
$var integer 32 a" tmp3 [31:0] $end
$scope function norm_bal $end
$var integer 32 b" m [31:0] $end
$var integer 32 c" r [31:0] $end
$var integer 32 d" val [31:0] $end
$upscope $end
$scope function norm_std $end
$var integer 32 e" m [31:0] $end
$var integer 32 f" val [31:0] $end
$upscope $end
$upscope $end
$scope module u_slice0 $end
$var wire 1 K ALU_EN $end
$var wire 2 g" a [1:0] $end
$var wire 2 h" b [1:0] $end
$var wire 1 ' clk $end
$var wire 2 i" op_sel [1:0] $end
$var wire 1 ( rst_n $end
$var parameter 32 j" CRNS_EN $end
$var parameter 32 k" MODULUS $end
$var parameter 32 l" WIDTH $end
$var reg 1 8 ALU_Done $end
$var reg 1 m" start_d $end
$var reg 2 n" y [1:0] $end
$var reg 2 o" y_next [1:0] $end
$var integer 32 p" raw [31:0] $end
$var integer 32 q" tmp [31:0] $end
$scope function norm_bal $end
$var integer 32 r" m [31:0] $end
$var integer 32 s" r [31:0] $end
$var integer 32 t" val [31:0] $end
$upscope $end
$scope function norm_std $end
$var integer 32 u" m [31:0] $end
$var integer 32 v" val [31:0] $end
$upscope $end
$upscope $end
$scope module u_slice1 $end
$var wire 1 K ALU_EN $end
$var wire 3 w" a [2:0] $end
$var wire 3 x" b [2:0] $end
$var wire 1 ' clk $end
$var wire 2 y" op_sel [1:0] $end
$var wire 1 ( rst_n $end
$var parameter 32 z" CRNS_EN $end
$var parameter 32 {" MODULUS $end
$var parameter 32 |" WIDTH $end
$var reg 1 7 ALU_Done $end
$var reg 1 }" start_d $end
$var reg 3 ~" y [2:0] $end
$var reg 3 !# y_next [2:0] $end
$var integer 32 "# raw [31:0] $end
$var integer 32 ## tmp [31:0] $end
$scope function norm_bal $end
$var integer 32 $# m [31:0] $end
$var integer 32 %# r [31:0] $end
$var integer 32 &# val [31:0] $end
$upscope $end
$scope function norm_std $end
$var integer 32 '# m [31:0] $end
$var integer 32 (# val [31:0] $end
$upscope $end
$upscope $end
$scope module u_slice2 $end
$var wire 1 K ALU_EN $end
$var wire 3 )# a [2:0] $end
$var wire 3 *# b [2:0] $end
$var wire 1 ' clk $end
$var wire 2 +# op_sel [1:0] $end
$var wire 1 ( rst_n $end
$var parameter 32 ,# CRNS_EN $end
$var parameter 32 -# MODULUS $end
$var parameter 32 .# WIDTH $end
$var reg 1 6 ALU_Done $end
$var reg 1 /# start_d $end
$var reg 3 0# y [2:0] $end
$var reg 3 1# y_next [2:0] $end
$var integer 32 2# raw [31:0] $end
$var integer 32 3# tmp [31:0] $end
$scope function norm_bal $end
$var integer 32 4# m [31:0] $end
$var integer 32 5# r [31:0] $end
$var integer 32 6# val [31:0] $end
$upscope $end
$scope function norm_std $end
$var integer 32 7# m [31:0] $end
$var integer 32 8# val [31:0] $end
$upscope $end
$upscope $end
$scope module u_slice3 $end
$var wire 1 K ALU_EN $end
$var wire 4 9# a [3:0] $end
$var wire 4 :# b [3:0] $end
$var wire 1 ' clk $end
$var wire 2 ;# op_sel [1:0] $end
$var wire 1 ( rst_n $end
$var parameter 32 <# CRNS_EN $end
$var parameter 32 =# MODULUS $end
$var parameter 32 ># WIDTH $end
$var reg 1 5 ALU_Done $end
$var reg 1 ?# start_d $end
$var reg 4 @# y [3:0] $end
$var reg 4 A# y_next [3:0] $end
$var integer 32 B# raw [31:0] $end
$var integer 32 C# tmp [31:0] $end
$scope function norm_bal $end
$var integer 32 D# m [31:0] $end
$var integer 32 E# r [31:0] $end
$var integer 32 F# val [31:0] $end
$upscope $end
$scope function norm_std $end
$var integer 32 G# m [31:0] $end
$var integer 32 H# val [31:0] $end
$upscope $end
$upscope $end
$upscope $end
$scope task run_test $end
$var reg 16 I# a [15:0] $end
$var reg 16 J# b [15:0] $end
$var reg 16 K# expected [15:0] $end
$var reg 128 L# name [127:0] $end
$var reg 2 M# op [1:0] $end
$upscope $end
$upscope $end
$enddefinitions $end
$comment Show the parameter values. $end
$dumpall
b100 >#
b1011 =#
b1 <#
b11 .#
b111 -#
b1 ,#
b11 |"
b101 {"
b1 z"
b10 l"
b11 k"
b1 j"
b10000 Y"
b100 X"
b11 W"
b11 V"
b10 U"
b1011 T"
b111 S"
b101 R"
b11 Q"
b1 P"
b10000 A"
b100 @"
b11 ?"
b11 >"
b10 ="
b1011 <"
b111 ;"
b101 :"
b11 9"
b1 8"
b100 4"
b101 3"
b1 2"
b0 1"
b10 0"
b110 /"
b11 ."
b100 w
b11 v
b11 u
b10 t
b10000 s
b1011 r
b111 q
b101 p
b11 o
b1101001 n
b10100101 m
b11100111 l
b110000001 k
b10010000011 j
b10 i
b10 h
b1 g
b1 f
b1001000001 e
b10000 Y
b100 X
b11 W
b11 V
b10 U
b0 T
b10010000011 S
b1011 R
b111 Q
b101 P
b11 O
b1001000001 N
b1 M
b1 L
$end
#0
$dumpvars
bx M#
bx L#
bx K#
bx J#
bx I#
bx H#
bx G#
bx F#
bx E#
bx D#
bx C#
bx B#
bx A#
bx @#
x?#
bx ;#
bx :#
bx 9#
bx 8#
bx 7#
bx 6#
bx 5#
bx 4#
bx 3#
bx 2#
bx 1#
bx 0#
x/#
bx +#
bx *#
bx )#
bx (#
bx '#
bx &#
bx %#
bx $#
bx ##
bx "#
bx !#
bx ~"
x}"
bx y"
bx x"
bx w"
bx v"
bx u"
bx t"
bx s"
bx r"
bx q"
bx p"
bx o"
bx n"
xm"
bx i"
bx h"
bx g"
bx f"
bx e"
bx d"
bx c"
bx b"
bx a"
bx `"
bx _"
bx ^"
bx ]"
bx \"
bx ["
bx Z"
bx O"
bx N"
bx M"
bx L"
bx K"
bx J"
bx I"
bx H"
bx G"
bx F"
bx E"
bx D"
bx C"
bx B"
bx 7"
bx 6"
b0 5"
bx -"
x,"
0+"
bx *"
bx )"
bx ("
bx '"
bx &"
bx %"
bx $"
bx #"
bx ""
bx !"
bx ~
bx }
bx |
bx {
xz
bx y
bx x
bx d
bx c
bx b
bx a
bx `
bx _
bx ^
bx ]
bx \
bx [
bx Z
0K
xJ
0I
bx H
xG
xF
0E
0D
0C
0B
bx A
bx @
bx ?
bx >
bx =
bx <
bx ;
bx :
bx 9
x8
x7
x6
x5
bx 4
bx 3
bx 2
bx 1
00
bx /
b0 .
0-
x,
b0 +
b0 *
x)
0(
0'
0&
b0 %
b0 $
b0 #
0"
bx !
$end
#5000
0,
0)
0,"
b0 H
b0 -"
b0 6"
0G
0F
08
0m"
07
0}"
06
0/#
05
0?#
0z
0J
1'
#10000
0'
#15000
1'
#20000
0'
#25000
1'
#30000
0'
#35000
1'
#40000
0'
#45000
1'
#50000
1(
0'
#55000
1'
#60000
b111 $
b111 +
b1010 #
b1010 *
b100000101000100010001000101111100110001001100000101111100110111 L#
b10001 K#
b111 J#
b1010 I#
b0 M#
0'
#65000
1'
#70000
10
b1 5"
1&
0'
#75000
1D
b10 5"
00
b0 _
b111 ]
b1010 [
b1 H
b1 -"
b1 6"
1'
#80000
b10 5"
0&
0'
#85000
1E
0D
b11 u"
b11 r"
bx o"
bx q"
bx p"
b101 '#
b101 $#
bx !#
bx ##
bx "#
b111 7#
b111 4#
bx 1#
bx 3#
bx 2#
b1011 G#
b1011 D#
bx A#
bx C#
bx B#
b10 H
b10 -"
b10 6"
b0 ^
b0 i"
b0 y"
b0 +#
b0 ;#
b111 \
b111 O"
b1010 Z
b1010 7"
1'
#90000
0'
#95000
b11 5"
1,
b11111111111111111111111111111011 E#
b11111111111111111111111111111011 H#
b11111111111111111111111111111011 F#
b1011 A#
b11111111111111111111111111111011 C#
b11111111111111111111111111111011 B#
b11 5#
b11 8#
b11 6#
b11 1#
b11 3#
b11 2#
b10 %#
b10 (#
b10 &#
b10 !#
b10 ##
b10 "#
b11111111111111111111111111111111 s"
b10 v"
b10 t"
b11 o"
b11111111111111111111111111111111 q"
b10 p"
1F
b1100 9
b1100 ]"
b1100 :#
b0 :
b0 \"
b0 *#
b10 ;
b10 ["
b10 x"
b1 <
b1 Z"
b1 h"
1G
b1111 =
b1111 E"
b1111 9#
b11 >
b11 D"
b11 )#
b0 ?
b0 C"
b0 w"
b1 @
b1 B"
b1 g"
b11111111111111111111111111111100 a"
b0 `"
b10 _"
b1 ^"
b11111111111111111111111111111100 c"
b111 f"
b1011 e"
b111 d"
b1011 b"
b11111111111111111111111111111111 I"
b11 H"
b0 G"
b1 F"
b11111111111111111111111111111111 K"
b1010 N"
b1011 M"
b1010 L"
b1011 J"
1'
#100000
0'
#105000
1K
0E
b11 H
b11 -"
b11 6"
1G
1F
b11111111111111111111111111111111 K"
b1011 M"
b1011 J"
b11111111111111111111111111111100 c"
b1011 e"
b1011 b"
1'
#110000
0'
#115000
b10001 x
b10001 ""
b10001 #"
b110110011010 !"
b10011101100 ~
b1111011110 }
b111001110 |
b1100000010 {
b110 '"
b11 &"
b10 %"
b10 $"
b10001 )"
b110110011010 *"
b10010000011 ("
0,
b1011 1
b1011 a
b1011 @#
1?#
b11 2
b11 b
b11 0#
1/#
b10 3
b10 c
b10 ~"
1}"
b11 4
b11 d
b11 n"
1m"
0F
0G
1'
#120000
0'
#125000
b100 5"
1)
18
17
16
15
1'
#130000
0'
#135000
1I
0K
b100 H
b100 -"
b100 6"
1'
#140000
0'
#145000
0m"
0}"
0/#
0?#
b10001 A
b10001 y
1z
1'
#150000
0'
#155000
b101 5"
1,"
0)
1J
05
06
07
08
1'
#160000
0'
#165000
1B
0I
b110 5"
b101 H
b101 -"
b101 6"
1'
#170000
0'
#175000
1"
0B
b0 5"
b10001 !
b10001 /
b10001 `
0z
b110 H
b110 -"
b110 6"
1'
#180000
b100101100 $
b100101100 +
b1111101000 #
b1111101000 *
b100000101000100010001000101111101010111010100100100000101010000 L#
b10010001 K#
b100101100 J#
b1111101000 I#
0'
#185000
0"
0,"
b0 H
b0 -"
b0 6"
0J
1'
#190000
10
b1 5"
1&
0'
#195000
1D
b10 5"
00
b100101100 ]
b1111101000 [
b1 H
b1 -"
b1 6"
1'
#200000
b10 5"
0&
0'
#205000
1E
0D
b10 H
b10 -"
b10 6"
b100101100 \
b100101100 O"
b1111101000 Z
b1111101000 7"
1'
#210000
0'
#215000
b11 5"
b10 E#
b10 H#
b10 F#
b10 A#
b10 C#
b10 B#
b0 %#
b0 (#
b0 &#
b0 !#
b0 ##
b0 "#
b1 s"
b1 v"
b1 t"
b1 o"
b1 q"
b1 p"
1,
b11111111111111111111111111111110 5#
b11111111111111111111111111111110 8#
b11111111111111111111111111111110 6#
b110 1#
b11111111111111111111111111111110 3#
b11111111111111111111111111111110 2#
1F
b11 9
b11 ]"
b11 :#
b111 :
b111 \"
b111 *#
b0 ;
b0 ["
b0 x"
b0 <
b0 Z"
b0 h"
1G
b111 >
b111 D"
b111 )#
b11 a"
b11111111111111111111111111111111 `"
b0 _"
b0 ^"
b11 c"
b100101100 f"
b1011 e"
b100101100 d"
b1011 b"
b11111111111111111111111111111111 H"
b11111111111111111111111111111111 K"
b1111101000 N"
b1011 M"
b1111101000 L"
b1011 J"
1'
#220000
0'
#225000
1K
0E
b11 H
b11 -"
b11 6"
1G
1F
b11111111111111111111111111111111 K"
b1011 M"
b1011 J"
b11 c"
b1011 e"
b1011 b"
1'
#230000
0'
#235000
b10010001 x
b10010001 ""
b10010001 #"
b100110010111 !"
b110100100 ~
b11001110010 }
b0 |
b110000001 {
b10 '"
b101 &"
b0 %"
b1 $"
b10010001 )"
b100110010111 *"
b10010000011 ("
0,
b10 1
b10 a
b10 @#
1?#
b110 2
b110 b
b110 0#
1/#
b0 3
b0 c
b0 ~"
1}"
b1 4
b1 d
b1 n"
1m"
0F
0G
1'
#240000
0'
#245000
b100 5"
1)
18
17
16
15
1'
#250000
0'
#255000
1I
0K
b100 H
b100 -"
b100 6"
1'
#260000
0'
#265000
0m"
0}"
0/#
0?#
b10010001 A
b10010001 y
1z
1'
#270000
0'
#275000
b101 5"
1,"
0)
1J
05
06
07
08
1'
#280000
0'
#285000
1B
0I
b110 5"
b101 H
b101 -"
b101 6"
1'
#290000
0'
#295000
1"
0B
b0 5"
b10010001 !
b10010001 /
b10010001 `
0z
b110 H
b110 -"
b110 6"
1'
#300000
b110010 $
b110010 +
b11001000 #
b11001000 *
b1 %
b1 .
b1010011010101010100001001011111001100100011000000110000010111110011010100110000 L#
b10010110 K#
b110010 J#
b11001000 I#
b1 M#
0'
#305000
0"
0,"
b0 H
b0 -"
b0 6"
0J
1'
#310000
10
b1 5"
1&
0'
#315000
1D
b10 5"
00
b1 _
b110010 ]
b11001000 [
b1 H
b1 -"
b1 6"
1'
#320000
b10 5"
0&
0'
#325000
1E
0D
b1 o"
b1 q"
b1 p"
b0 5#
b0 8#
b0 6#
b0 1#
b0 3#
b0 2#
b11111111111111111111111111111100 E#
b11111111111111111111111111111100 H#
b11111111111111111111111111111100 F#
b1100 A#
b11111111111111111111111111111100 C#
b11111111111111111111111111111100 B#
b10 H
b10 -"
b10 6"
b1 ^
b1 i"
b1 y"
b1 +#
b1 ;#
b110010 \
b110010 O"
b11001000 Z
b11001000 7"
1'
#330000
0'
#335000
b11 5"
1,
b11111111111111111111111111111100 E#
b111 H#
b111 F#
b1100 A#
b11111111111111111111111111111100 C#
b111 B#
b11 1#
b11 3#
b11 5#
b11111111111111111111111111111100 8#
b11111111111111111111111111111100 6#
b11111111111111111111111111111100 2#
b0 s"
b0 v"
b0 t"
b0 o"
b0 q"
b0 p"
1F
b1011 9
b1011 ]"
b1011 :#
b1 :
b1 \"
b1 *#
b11 <
b11 Z"
b11 h"
1G
b10 =
b10 E"
b10 9#
b101 >
b101 D"
b101 )#
b11 @
b11 B"
b11 g"
b11111111111111111111111111111011 a"
b1 `"
b11111111111111111111111111111111 ^"
b11111111111111111111111111111011 c"
b110010 f"
b1011 e"
b110010 d"
b1011 b"
b10 I"
b11111111111111111111111111111101 H"
b11111111111111111111111111111111 F"
b10 K"
b11001000 N"
b1011 M"
b11001000 L"
b1011 J"
1'
#340000
0'
#345000
1K
0E
b11 H
b11 -"
b11 6"
1G
1F
b10 K"
b1011 M"
b1011 J"
b11111111111111111111111111111011 c"
b1011 e"
b1011 b"
1'
#350000
0'
#355000
b10010110 x
b10010110 ""
b10010110 #"
b100110011100 !"
b10110111110 ~
b1111011110 }
b0 {
b111 '"
b11 &"
b0 $"
b10010110 )"
b100110011100 *"
b10010000011 ("
0,
b1100 1
b1100 a
b1100 @#
1?#
b11 2
b11 b
b11 0#
1/#
1}"
b0 4
b0 d
b0 n"
1m"
0F
0G
1'
#360000
0'
#365000
b100 5"
1)
18
17
16
15
1'
#370000
0'
#375000
1I
0K
b100 H
b100 -"
b100 6"
1'
#380000
0'
#385000
0m"
0}"
0/#
0?#
b10010110 A
b10010110 y
1z
1'
#390000
0'
#395000
b101 5"
1,"
0)
1J
05
06
07
08
1'
#400000
0'
#405000
1B
0I
b110 5"
b101 H
b101 -"
b101 6"
1'
#410000
0'
#415000
1"
0B
b0 5"
b10010110 !
b10010110 /
b10010110 `
0z
b110 H
b110 -"
b110 6"
1'
#420000
b11001000 $
b11001000 +
b110010 #
b110010 *
b101001101010101010000100101111101010111010100100100000101010000 L#
b1111111101101010 K#
b11001000 J#
b110010 I#
0'
#425000
0"
0,"
b0 H
b0 -"
b0 6"
0J
1'
#430000
10
b1 5"
1&
0'
#435000
1D
b10 5"
00
b11001000 ]
b110010 [
b1 H
b1 -"
b1 6"
1'
#440000
b10 5"
0&
0'
#445000
1E
0D
b10 H
b10 -"
b10 6"
b11001000 \
b11001000 O"
b110010 Z
b110010 7"
1'
#450000
0'
#455000
b11 5"
1,
b100 E#
b11111111111111111111111111111001 H#
b11111111111111111111111111111001 F#
b100 A#
b100 C#
b11111111111111111111111111111001 B#
b11111111111111111111111111111101 5#
b100 8#
b100 6#
b101 1#
b11111111111111111111111111111101 3#
b100 2#
1F
b10 9
b10 ]"
b10 :#
b101 :
b101 \"
b101 *#
1G
b1011 =
b1011 E"
b1011 9#
b1 >
b1 D"
b1 )#
b10 a"
b11111111111111111111111111111101 `"
b10 c"
b11001000 f"
b1011 e"
b11001000 d"
b1011 b"
b11111111111111111111111111111011 I"
b1 H"
b11111111111111111111111111111011 K"
b110010 N"
b1011 M"
b110010 L"
b1011 J"
1'
#460000
0'
#465000
1K
0E
b11 H
b11 -"
b11 6"
1G
1F
b11111111111111111111111111111011 K"
b1011 M"
b1011 J"
b10 c"
b1011 e"
b1011 b"
1'
#470000
0'
#475000
b1111111101101010 x
b11101101010 ""
b1111101101 #"
b100001110000 !"
b1101001000 ~
b10100101000 }
b100 '"
b100 &"
b1111101101 )"
b100001110000 *"
b10010000011 ("
0,
b100 1
b100 a
b100 @#
1?#
b101 2
b101 b
b101 0#
1/#
1}"
1m"
0F
0G
1'
#480000
0'
#485000
b100 5"
1)
18
17
16
15
1'
#490000
0'
#495000
1I
0K
b100 H
b100 -"
b100 6"
1'
#500000
0'
#505000
0m"
0}"
0/#
0?#
b1111111101101010 A
b1111111101101010 y
1z
1'
#510000
0'
#515000
b101 5"
1,"
0)
1J
05
06
07
08
1'
#520000
0'
#525000
1B
0I
b110 5"
b101 H
b101 -"
b101 6"
1'
#530000
0'
#535000
1"
0B
b0 5"
b1111111101101010 !
b1111111101101010 /
b1111111101101010 `
0z
b110 H
b110 -"
b110 6"
1'
#540000
b10001 $
b10001 +
b1011 #
b1011 *
b10 %
b10 .
b10011010101010101001100010111110011000100110001010111110011000100110111 L#
b10111011 K#
b10001 J#
b1011 I#
b10 M#
0'
#545000
0"
0,"
b0 H
b0 -"
b0 6"
0J
1'
#550000
10
b1 5"
1&
0'
#555000
1D
b10 5"
00
b10 _
b10001 ]
b1011 [
b1 H
b1 -"
b1 6"
1'
#560000
b10 5"
0&
0'
#565000
1E
0D
b1 o"
b1 q"
b1 s"
b1 v"
b1 t"
b1 p"
b11111111111111111111111111111101 5#
b11111111111111111111111111111101 8#
b11111111111111111111111111111101 6#
b101 1#
b11111111111111111111111111111101 3#
b11111111111111111111111111111101 2#
b1 E#
b11111111111111111111111111110110 H#
b11111111111111111111111111110110 F#
b1 A#
b1 C#
b11111111111111111111111111110110 B#
b10 H
b10 -"
b10 6"
b10 ^
b10 i"
b10 y"
b10 +#
b10 ;#
b10001 \
b10001 O"
b1011 Z
b1011 7"
1'
#570000
0'
#575000
b11 5"
1,
b0 E#
b0 H#
b0 F#
b0 A#
b0 C#
b0 B#
b11111111111111111111111111111110 5#
b11111111111111111111111111110111 8#
b11111111111111111111111111110111 6#
b110 1#
b11111111111111111111111111111110 3#
b11111111111111111111111111110111 2#
b10 !#
b10 ##
b10 %#
b10 (#
b10 &#
b10 "#
1F
b1011 9
b1011 ]"
b1011 :#
b11 :
b11 \"
b11 *#
b10 ;
b10 ["
b10 x"
1G
b0 =
b0 E"
b0 9#
b101 >
b101 D"
b101 )#
b1 ?
b1 C"
b1 w"
b11111111111111111111111111111011 a"
b11 `"
b10 _"
b11111111111111111111111111111011 c"
b10001 f"
b1011 e"
b10001 d"
b1011 b"
b0 I"
b11111111111111111111111111111101 H"
b1 G"
b0 K"
b1011 N"
b1011 M"
b1011 L"
b1011 J"
1'
#580000
0'
#585000
1K
0E
b11 H
b11 -"
b11 6"
1G
1F
b0 K"
b1011 M"
b1011 J"
b11111111111111111111111111111011 c"
b1011 e"
b1011 b"
1'
#590000
0'
#595000
b10111011 x
b10111011 ""
b10111011 #"
b100111000001 !"
b0 ~
b11001110010 }
b111001110 |
b110000001 {
b0 '"
b101 &"
b10 %"
b1 $"
b10111011 )"
b100111000001 *"
b10010000011 ("
0,
b0 1
b0 a
b0 @#
1?#
b110 2
b110 b
b110 0#
1/#
b10 3
b10 c
b10 ~"
1}"
b1 4
b1 d
b1 n"
1m"
0F
0G
1'
#600000
0'
#605000
b100 5"
1)
18
17
16
15
1'
#610000
0'
#615000
1I
0K
b100 H
b100 -"
b100 6"
1'
#620000
0'
#625000
0m"
0}"
0/#
0?#
b10111011 A
b10111011 y
1z
1'
#630000
0'
#635000
b101 5"
1,"
0)
1J
05
06
07
08
1'
#640000
0'
#645000
1B
0I
b110 5"
b101 H
b101 -"
b101 6"
1'
#650000
0'
#655000
1"
0B
b0 5"
b10111011 !
b10111011 /
b10111011 `
0z
b110 H
b110 -"
b110 6"
1'
#660000
b101000 $
b101000 +
b101000 #
b101000 *
b100110101010101010011000101111101010111010100100100000101010000 L#
b110111101 K#
b101000 J#
b101000 I#
0'
#665000
0"
0,"
b0 H
b0 -"
b0 6"
0J
1'
#670000
10
b1 5"
1&
0'
#675000
1D
b10 5"
00
b101000 ]
b101000 [
b1 H
b1 -"
b1 6"
1'
#680000
b10 5"
0&
0'
#685000
1E
0D
b10 H
b10 -"
b10 6"
b101000 \
b101000 O"
b101000 Z
b101000 7"
1'
#690000
0'
#695000
b11 5"
1,
b101 A#
b101 C#
b101 E#
b10000 H#
b10000 F#
b10000 B#
b11111111111111111111111111111101 5#
b100 8#
b100 6#
b101 1#
b11111111111111111111111111111101 3#
b100 2#
b0 %#
b0 (#
b0 &#
b0 !#
b0 ##
b0 "#
b1 o"
b1 q"
b1 p"
1F
b1100 9
b1100 ]"
b1100 :#
b110 :
b110 \"
b110 *#
b0 ;
b0 ["
b0 x"
b1 <
b1 Z"
b1 h"
1G
b1100 =
b1100 E"
b1100 9#
b110 >
b110 D"
b110 )#
b0 ?
b0 C"
b0 w"
b1 @
b1 B"
b1 g"
b11111111111111111111111111111100 a"
b11111111111111111111111111111110 `"
b0 _"
b1 ^"
b11111111111111111111111111111100 c"
b101000 f"
b1011 e"
b101000 d"
b1011 b"
b11111111111111111111111111111100 I"
b11111111111111111111111111111110 H"
b0 G"
b1 F"
b11111111111111111111111111111100 K"
b101000 N"
b1011 M"
b101000 L"
b1011 J"
1'
#700000
0'
#705000
1K
0E
b11 H
b11 -"
b11 6"
1G
1F
b11111111111111111111111111111100 K"
b1011 M"
b1011 J"
b11111111111111111111111111111100 c"
b1011 e"
b1011 b"
1'
#710000
0'
#715000
b110111101 x
b110111101 ""
b110111101 #"
b101011000011 !"
b10000011010 ~
b10100101000 }
b0 |
b101 '"
b100 &"
b0 %"
b110111101 )"
b101011000011 *"
b10010000011 ("
0,
b101 1
b101 a
b101 @#
1?#
b101 2
b101 b
b101 0#
1/#
b0 3
b0 c
b0 ~"
1}"
1m"
0F
0G
1'
#720000
0'
#725000
b100 5"
1)
18
17
16
15
1'
#730000
0'
#735000
1I
0K
b100 H
b100 -"
b100 6"
1'
#740000
0'
#745000
0m"
0}"
0/#
0?#
b110111101 A
b110111101 y
1z
1'
