runs/24291397092/precheck/rtl/rtl_precheck.vcd
$date
	Sat Apr 11 20:59:02 2026
$end
$version
	Icarus Verilog
$end
$timescale
	1ps
$end
$scope module tb_crns_top_crt $end
$var wire 16 ! X_out [15:0] $end
$var wire 1 " Done $end
$var reg 16 # A_in [15:0] $end
$var reg 16 $ B_in [15:0] $end
$var reg 2 % Op_Sel [1:0] $end
$var reg 1 & Start $end
$var reg 1 ' clk $end
$var reg 1 ( rst_n $end
$scope module dut $end
$var wire 1 ) ALU_Done_all $end
$var wire 16 * A_in [15:0] $end
$var wire 16 + B_in [15:0] $end
$var wire 1 , Encode_Done_all $end
$var wire 1 - MRC_Done $end
$var wire 2 . Op_Sel [1:0] $end
$var wire 1 & Start $end
$var wire 16 / X_out [15:0] $end
$var wire 1 ' clk $end
$var wire 1 ( rst_n $end
$var wire 4 0 z_r3 [3:0] $end
$var wire 3 1 z_r2 [2:0] $end
$var wire 3 2 z_r1 [2:0] $end
$var wire 2 3 z_r0 [1:0] $end
$var wire 1 4 slice3_done $end
$var wire 1 5 slice2_done $end
$var wire 1 6 slice1_done $end
$var wire 1 7 slice0_done $end
$var wire 4 8 b_r3 [3:0] $end
$var wire 3 9 b_r2 [2:0] $end
$var wire 3 : b_r1 [2:0] $end
$var wire 2 ; b_r0 [1:0] $end
$var wire 4 < a_r3 [3:0] $end
$var wire 3 = a_r2 [2:0] $end
$var wire 3 > a_r1 [2:0] $end
$var wire 2 ? a_r0 [1:0] $end
$var wire 16 @ X_crt [15:0] $end
$var wire 1 A Out_EN $end
$var wire 1 B MRC_Start $end
$var wire 1 C Load_IN $end
$var wire 1 D Encode_EN $end
$var wire 1 E Encode_Done_B $end
$var wire 1 F Encode_Done_A $end
$var wire 1 " Done $end
$var wire 3 G CU_state_dbg [2:0] $end
$var wire 1 H CRT_Start $end
$var wire 1 I CRT_Done $end
$var wire 1 J ALU_EN $end
$var parameter 32 K CENTERED_OUT_EN $end
$var parameter 32 L CRNS_EN $end
$var parameter 32 M HALF_M_TOTAL $end
$var parameter 32 N M0 $end
$var parameter 32 O M1 $end
$var parameter 32 P M2 $end
$var parameter 32 Q M3 $end
$var parameter 32 R M_TOTAL $end
$var parameter 32 S W0 $end
$var parameter 32 T W1 $end
$var parameter 32 U W2 $end
$var parameter 32 V W3 $end
$var parameter 32 W WIDTH_IN $end
$var reg 16 X A_reg [15:0] $end
$var reg 16 Y B_reg [15:0] $end
$var reg 2 Z OpSel_reg [1:0] $end
$var reg 16 [ X_reg [15:0] $end
$scope module u_crt $end
$var wire 1 ' clk $end
$var wire 1 ( rst_n $end
$var wire 4 \ r3 [3:0] $end
$var wire 3 ] r2 [2:0] $end
$var wire 3 ^ r1 [2:0] $end
$var wire 2 _ r0 [1:0] $end
$var wire 1 H CRT_Start $end
$var parameter 32 ` HALF_M $end
$var parameter 32 a INV0 $end
$var parameter 32 b INV1 $end
$var parameter 32 c INV2 $end
$var parameter 32 d INV3 $end
$var parameter 32 e M $end
$var parameter 32 f M0 $end
$var parameter 32 g M1 $end
$var parameter 32 h M2 $end
$var parameter 32 i M3 $end
$var parameter 32 j MOD0 $end
$var parameter 32 k MOD1 $end
$var parameter 32 l MOD2 $end
$var parameter 32 m MOD3 $end
$var parameter 32 n OUT_WIDTH $end
$var parameter 32 o W0 $end
$var parameter 32 p W1 $end
$var parameter 32 q W2 $end
$var parameter 32 r W3 $end
$var reg 1 I CRT_Done $end
$var reg 16 s X_next [15:0] $end
$var reg 16 t X_out [15:0] $end
$var reg 1 u start_d $end
$var reg 10 v term0 [9:0] $end
$var reg 10 w term1 [9:0] $end
$var reg 11 x term2 [10:0] $end
$var reg 12 y term3 [11:0] $end
$var reg 13 z total [12:0] $end
$var reg 11 { total_centered [10:0] $end
$var reg 11 | total_mod [10:0] $end
$var reg 2 } x0_mod [1:0] $end
$var reg 3 ~ x1_mod [2:0] $end
$var reg 3 !" x2_mod [2:0] $end
$var reg 4 "" x3_mod [3:0] $end
$scope function norm_mod $end
$var integer 32 #" m [31:0] $end
$var integer 32 $" t [31:0] $end
$var integer 32 %" x [31:0] $end
$upscope $end
$upscope $end
$scope module u_cu $end
$var wire 1 ) ALU_Done $end
$var wire 1 I CRT_Done $end
$var wire 3 &" CU_state_dbg [2:0] $end
$var wire 1 , Encode_Done $end
$var wire 1 - MRC_Done $end
$var wire 1 '" Recon_Mode $end
$var wire 1 & Start $end
$var wire 1 ' clk $end
$var wire 1 ( rst_n $end
$var wire 1 (" recon_done_sel $end
$var parameter 3 )" S_ALU $end
$var parameter 3 *" S_DONE $end
$var parameter 3 +" S_ENCODE $end
$var parameter 3 ," S_IDLE $end
$var parameter 3 -" S_LOAD $end
$var parameter 3 ." S_OUT $end
$var parameter 3 /" S_RECON $end
$var reg 1 J ALU_EN $end
$var reg 1 H CRT_Start $end
$var reg 1 " Done $end
$var reg 1 D Encode_EN $end
$var reg 1 C Load_IN $end
$var reg 1 B MRC_Start $end
$var reg 1 A Out_EN $end
$var reg 3 0" next_state [2:0] $end
$var reg 3 1" state [2:0] $end
$upscope $end
$scope module u_enc_a $end
$var wire 1 D Encode_EN $end
$var wire 1 ' clk $end
$var wire 1 ( rst_n $end
$var wire 16 2" x [15:0] $end
$var parameter 32 3" CRNS_EN $end
$var parameter 32 4" M0 $end
$var parameter 32 5" M1 $end
$var parameter 32 6" M2 $end
$var parameter 32 7" M3 $end
$var parameter 32 8" W0 $end
$var parameter 32 9" W1 $end
$var parameter 32 :" W2 $end
$var parameter 32 ;" W3 $end
$var parameter 32 <" WIDTH_IN $end
$var reg 1 F Encode_Done $end
$var reg 2 =" r0 [1:0] $end
$var reg 3 >" r1 [2:0] $end
$var reg 3 ?" r2 [2:0] $end
$var reg 4 @" r3 [3:0] $end
$var integer 32 A" tmp0 [31:0] $end
$var integer 32 B" tmp1 [31:0] $end
$var integer 32 C" tmp2 [31:0] $end
$var integer 32 D" tmp3 [31:0] $end
$scope function norm_bal $end
$var integer 32 E" m [31:0] $end
$var integer 32 F" r [31:0] $end
$var integer 32 G" val [31:0] $end
$upscope $end
$scope function norm_std $end
$var integer 32 H" m [31:0] $end
$var integer 32 I" val [31:0] $end
$upscope $end
$upscope $end
$scope module u_enc_b $end
$var wire 1 D Encode_EN $end
$var wire 1 ' clk $end
$var wire 1 ( rst_n $end
$var wire 16 J" x [15:0] $end
$var parameter 32 K" CRNS_EN $end
$var parameter 32 L" M0 $end
$var parameter 32 M" M1 $end
$var parameter 32 N" M2 $end
$var parameter 32 O" M3 $end
$var parameter 32 P" W0 $end
$var parameter 32 Q" W1 $end
$var parameter 32 R" W2 $end
$var parameter 32 S" W3 $end
$var parameter 32 T" WIDTH_IN $end
$var reg 1 E Encode_Done $end
$var reg 2 U" r0 [1:0] $end
$var reg 3 V" r1 [2:0] $end
$var reg 3 W" r2 [2:0] $end
$var reg 4 X" r3 [3:0] $end
$var integer 32 Y" tmp0 [31:0] $end
$var integer 32 Z" tmp1 [31:0] $end
$var integer 32 [" tmp2 [31:0] $end
$var integer 32 \" tmp3 [31:0] $end
$scope function norm_bal $end
$var integer 32 ]" m [31:0] $end
$var integer 32 ^" r [31:0] $end
$var integer 32 _" val [31:0] $end
$upscope $end
$scope function norm_std $end
$var integer 32 `" m [31:0] $end
$var integer 32 a" val [31:0] $end
$upscope $end
$upscope $end
$scope module u_slice0 $end
$var wire 1 J ALU_EN $end
$var wire 2 b" a [1:0] $end
$var wire 2 c" b [1:0] $end
$var wire 1 ' clk $end
$var wire 2 d" op_sel [1:0] $end
$var wire 1 ( rst_n $end
$var parameter 32 e" CRNS_EN $end
$var parameter 32 f" MODULUS $end
$var parameter 32 g" WIDTH $end
$var reg 1 7 ALU_Done $end
$var reg 1 h" start_d $end
$var reg 2 i" y [1:0] $end
$var reg 2 j" y_next [1:0] $end
$var integer 32 k" raw [31:0] $end
$var integer 32 l" tmp [31:0] $end
$scope function norm_bal $end
$var integer 32 m" m [31:0] $end
$var integer 32 n" r [31:0] $end
$var integer 32 o" val [31:0] $end
$upscope $end
$scope function norm_std $end
$var integer 32 p" m [31:0] $end
$var integer 32 q" val [31:0] $end
$upscope $end
$upscope $end
$scope module u_slice1 $end
$var wire 1 J ALU_EN $end
$var wire 3 r" a [2:0] $end
$var wire 3 s" b [2:0] $end
$var wire 1 ' clk $end
$var wire 2 t" op_sel [1:0] $end
$var wire 1 ( rst_n $end
$var parameter 32 u" CRNS_EN $end
$var parameter 32 v" MODULUS $end
$var parameter 32 w" WIDTH $end
$var reg 1 6 ALU_Done $end
$var reg 1 x" start_d $end
$var reg 3 y" y [2:0] $end
$var reg 3 z" y_next [2:0] $end
$var integer 32 {" raw [31:0] $end
$var integer 32 |" tmp [31:0] $end
$scope function norm_bal $end
$var integer 32 }" m [31:0] $end
$var integer 32 ~" r [31:0] $end
$var integer 32 !# val [31:0] $end
$upscope $end
$scope function norm_std $end
$var integer 32 "# m [31:0] $end
$var integer 32 ## val [31:0] $end
$upscope $end
$upscope $end
$scope module u_slice2 $end
$var wire 1 J ALU_EN $end
$var wire 3 $# a [2:0] $end
$var wire 3 %# b [2:0] $end
$var wire 1 ' clk $end
$var wire 2 &# op_sel [1:0] $end
$var wire 1 ( rst_n $end
$var parameter 32 '# CRNS_EN $end
$var parameter 32 (# MODULUS $end
$var parameter 32 )# WIDTH $end
$var reg 1 5 ALU_Done $end
$var reg 1 *# start_d $end
$var reg 3 +# y [2:0] $end
$var reg 3 ,# y_next [2:0] $end
$var integer 32 -# raw [31:0] $end
$var integer 32 .# tmp [31:0] $end
$scope function norm_bal $end
$var integer 32 /# m [31:0] $end
$var integer 32 0# r [31:0] $end
$var integer 32 1# val [31:0] $end
$upscope $end
$scope function norm_std $end
$var integer 32 2# m [31:0] $end
$var integer 32 3# val [31:0] $end
$upscope $end
$upscope $end
$scope module u_slice3 $end
$var wire 1 J ALU_EN $end
$var wire 4 4# a [3:0] $end
$var wire 4 5# b [3:0] $end
$var wire 1 ' clk $end
$var wire 2 6# op_sel [1:0] $end
$var wire 1 ( rst_n $end
$var parameter 32 7# CRNS_EN $end
$var parameter 32 8# MODULUS $end
$var parameter 32 9# WIDTH $end
$var reg 1 4 ALU_Done $end
$var reg 1 :# start_d $end
$var reg 4 ;# y [3:0] $end
$var reg 4 <# y_next [3:0] $end
$var integer 32 =# raw [31:0] $end
$var integer 32 ># tmp [31:0] $end
$scope function norm_bal $end
$var integer 32 ?# m [31:0] $end
$var integer 32 @# r [31:0] $end
$var integer 32 A# val [31:0] $end
$upscope $end
$scope function norm_std $end
$var integer 32 B# m [31:0] $end
$var integer 32 C# val [31:0] $end
$upscope $end
$upscope $end
$upscope $end
$scope task run_test $end
$var reg 16 D# a [15:0] $end
$var reg 16 E# b [15:0] $end
$var reg 16 F# expected [15:0] $end
$var reg 128 G# name [127:0] $end
$var reg 2 H# op [1:0] $end
$upscope $end
$upscope $end
$enddefinitions $end
$comment Show the parameter values. $end
$dumpall
b100 9#
b1011 8#
b1 7#
b11 )#
b111 (#
b1 '#
b11 w"
b101 v"
b1 u"
b10 g"
b11 f"
b1 e"
b10000 T"
b100 S"
b11 R"
b11 Q"
b10 P"
b1011 O"
b111 N"
b101 M"
b11 L"
b1 K"
b10000 <"
b100 ;"
b11 :"
b11 9"
b10 8"
b1011 7"
b111 6"
b101 5"
b11 4"
b1 3"
b100 /"
b101 ."
b1 -"
b0 ,"
b10 +"
b110 *"
b11 )"
b100 r
b11 q
b11 p
b10 o
b10000 n
b1011 m
b111 l
b101 k
b11 j
b1101001 i
b10100101 h
b11100111 g
b110000001 f
b10010000011 e
b10 d
b10 c
b1 b
b1 a
b1001000001 `
b10000 W
b100 V
b11 U
b11 T
b10 S
b10010000011 R
b1011 Q
b111 P
b101 O
b11 N
b1001000001 M
b1 L
b1 K
$end
#0
$dumpvars
bx H#
bx G#
bx F#
bx E#
bx D#
bx C#
bx B#
bx A#
bx @#
bx ?#
bx >#
bx =#
bx <#
bx ;#
x:#
bx 6#
bx 5#
bx 4#
bx 3#
bx 2#
bx 1#
bx 0#
bx /#
bx .#
bx -#
bx ,#
bx +#
x*#
bx &#
bx %#
bx $#
bx ##
bx "#
bx !#
bx ~"
bx }"
bx |"
bx {"
bx z"
bx y"
xx"
bx t"
bx s"
bx r"
bx q"
bx p"
bx o"
bx n"
bx m"
bx l"
bx k"
bx j"
bx i"
xh"
bx d"
bx c"
bx b"
bx a"
bx `"
bx _"
bx ^"
bx ]"
bx \"
bx ["
bx Z"
bx Y"
bx X"
bx W"
bx V"
bx U"
bx J"
bx I"
bx H"
bx G"
bx F"
bx E"
bx D"
bx C"
bx B"
bx A"
bx @"
bx ?"
bx >"
bx ="
bx 2"
bx 1"
b0 0"
x("
0'"
bx &"
bx %"
bx $"
bx #"
bx ""
bx !"
bx ~
bx }
bx |
bx {
bx z
bx y
bx x
bx w
bx v
xu
bx t
bx s
bx _
bx ^
bx ]
bx \
bx [
bx Z
bx Y
bx X
0J
xI
0H
bx G
xF
xE
0D
0C
0B
0A
bx @
bx ?
bx >
bx =
bx <
bx ;
bx :
bx 9
bx 8
x7
x6
x5
x4
bx 3
bx 2
bx 1
bx 0
bx /
b0 .
0-
x,
b0 +
b0 *
x)
0(
0'
0&
b0 %
b0 $
b0 #
0"
bx !
$end
#5000
0,
0)
0("
b0 G
b0 &"
b0 1"
0F
0E
07
0h"
06
0x"
05
0*#
04
0:#
0u
0I
1'
#10000
0'
#15000
1'
#20000
0'
#25000
1'
#30000
0'
#35000
1'
#40000
0'
#45000
1'
#50000
1(
0'
#55000
1'
#60000
b111 $
b111 +
b1010 #
b1010 *
b100000101000100010001000101111100110001001100000101111100110111 G#
b10001 F#
b111 E#
b1010 D#
b0 H#
0'
#65000
1'
#70000
b1 0"
1&
0'
#75000
1C
b10 0"
b1 G
b1 &"
b1 1"
1'
#80000
b10 0"
0&
0'
#85000
1D
0C
b11 p"
b11 m"
bx j"
bx l"
bx k"
b101 "#
b101 }"
bx z"
bx |"
bx {"
b111 2#
b111 /#
bx ,#
bx .#
bx -#
b1011 B#
b1011 ?#
bx <#
bx >#
bx =#
b10 G
b10 &"
b10 1"
b0 Z
b0 d"
b0 t"
b0 &#
b0 6#
b111 Y
b111 J"
b1010 X
b1010 2"
1'
#90000
0'
#95000
b11 0"
1,
b11111111111111111111111111111011 @#
b11111111111111111111111111111011 C#
b11111111111111111111111111111011 A#
b1011 <#
b11111111111111111111111111111011 >#
b11111111111111111111111111111011 =#
b11 0#
b11 3#
b11 1#
b11 ,#
b11 .#
b11 -#
b10 ~"
b10 ##
b10 !#
b10 z"
b10 |"
b10 {"
b11111111111111111111111111111111 n"
b10 q"
b10 o"
b11 j"
b11111111111111111111111111111111 l"
b10 k"
1E
b1100 8
b1100 X"
b1100 5#
b0 9
b0 W"
b0 %#
b10 :
b10 V"
b10 s"
b1 ;
b1 U"
b1 c"
1F
b1111 <
b1111 @"
b1111 4#
b11 =
b11 ?"
b11 $#
b0 >
b0 >"
b0 r"
b1 ?
b1 ="
b1 b"
b11111111111111111111111111111100 \"
b0 ["
b10 Z"
b1 Y"
b11111111111111111111111111111100 ^"
b111 a"
b1011 `"
b111 _"
b1011 ]"
b11111111111111111111111111111111 D"
b11 C"
b0 B"
b1 A"
b11111111111111111111111111111111 F"
b1010 I"
b1011 H"
b1010 G"
b1011 E"
1'
#100000
0'
#105000
1J
0D
b11 G
b11 &"
b11 1"
1F
1E
b11111111111111111111111111111111 F"
b1011 H"
b1011 E"
b11111111111111111111111111111100 ^"
b1011 `"
b1011 ]"
1'
#110000
0'
#115000
b10001 s
b10001 {
b10001 |
b110110011010 z
b10011101100 y
b1111011110 x
b111001110 w
b1100000010 v
b110 ""
b11 !"
b10 ~
b10 }
b10001 $"
b110110011010 %"
b10010000011 #"
0,
b1011 0
b1011 \
b1011 ;#
1:#
b11 1
b11 ]
b11 +#
1*#
b10 2
b10 ^
b10 y"
1x"
b11 3
b11 _
b11 i"
1h"
0E
0F
1'
#120000
0'
#125000
b100 0"
1)
17
16
15
14
1'
#130000
0'
#135000
1H
0J
b100 G
b100 &"
b100 1"
1'
#140000
0'
#145000
0h"
0x"
0*#
0:#
b10001 @
b10001 t
1u
1'
#150000
0'
#155000
b101 0"
1("
0)
1I
04
05
06
07
1'
#160000
0'
#165000
1A
0H
b110 0"
b101 G
b101 &"
b101 1"
1'
#170000
0'
#175000
1"
0A
b0 0"
b10001 !
b10001 /
b10001 [
0u
b110 G
b110 &"
b110 1"
1'
#180000
b100101100 $
b100101100 +
b1111101000 #
b1111101000 *
b100000101000100010001000101111101010111010100100100000101010000 G#
b10010001 F#
b100101100 E#
b1111101000 D#
0'
#185000
0"
0("
b0 G
b0 &"
b0 1"
0I
1'
#190000
b1 0"
1&
0'
#195000
1C
b10 0"
b1 G
b1 &"
b1 1"
1'
#200000
b10 0"
0&
0'
#205000
1D
0C
b10 G
b10 &"
b10 1"
b100101100 Y
b100101100 J"
b1111101000 X
b1111101000 2"
1'
#210000
0'
#215000
b11 0"
b10 @#
b10 C#
b10 A#
b10 <#
b10 >#
b10 =#
b0 ~"
b0 ##
b0 !#
b0 z"
b0 |"
b0 {"
b1 n"
b1 q"
b1 o"
b1 j"
b1 l"
b1 k"
1,
b11111111111111111111111111111110 0#
b11111111111111111111111111111110 3#
b11111111111111111111111111111110 1#
b110 ,#
b11111111111111111111111111111110 .#
b11111111111111111111111111111110 -#
1E
b11 8
b11 X"
b11 5#
b111 9
b111 W"
b111 %#
b0 :
b0 V"
b0 s"
b0 ;
b0 U"
b0 c"
1F
b111 =
b111 ?"
b111 $#
b11 \"
b11111111111111111111111111111111 ["
b0 Z"
b0 Y"
b11 ^"
b100101100 a"
b1011 `"
b100101100 _"
b1011 ]"
b11111111111111111111111111111111 C"
b11111111111111111111111111111111 F"
b1111101000 I"
b1011 H"
b1111101000 G"
b1011 E"
1'
#220000
0'
#225000
1J
0D
b11 G
b11 &"
b11 1"
1F
1E
b11111111111111111111111111111111 F"
b1011 H"
b1011 E"
b11 ^"
b1011 `"
b1011 ]"
1'
#230000
0'
#235000
b10010001 s
b10010001 {
b10010001 |
b100110010111 z
b110100100 y
b11001110010 x
b0 w
b110000001 v
b10 ""
b101 !"
b0 ~
b1 }
b10010001 $"
b100110010111 %"
b10010000011 #"
0,
b10 0
b10 \
b10 ;#
1:#
b110 1
b110 ]
b110 +#
1*#
b0 2
b0 ^
b0 y"
1x"
b1 3
b1 _
b1 i"
1h"
0E
0F
1'
#240000
0'
#245000
b100 0"
1)
17
16
15
14
1'
#250000
0'
#255000
1H
0J
b100 G
b100 &"
b100 1"
1'
#260000
0'
#265000
0h"
0x"
0*#
0:#
b10010001 @
b10010001 t
1u
1'
#270000
0'
#275000
b101 0"
1("
0)
1I
04
05
06
07
1'
#280000
0'
#285000
1A
0H
b110 0"
b101 G
b101 &"
b101 1"
1'
#290000
0'
#295000
1"
0A
b0 0"
b10010001 !
b10010001 /
b10010001 [
0u
b110 G
b110 &"
b110 1"
1'
#300000
b110010 $
b110010 +
b11001000 #
b11001000 *
b1 %
b1 .
b1010011010101010100001001011111001100100011000000110000010111110011010100110000 G#
b10010110 F#
b110010 E#
b11001000 D#
b1 H#
0'
#305000
0"
0("
b0 G
b0 &"
b0 1"
0I
1'
#310000
b1 0"
1&
0'
#315000
1C
b10 0"
b1 G
b1 &"
b1 1"
1'
#320000
b10 0"
0&
0'
#325000
1D
0C
b1 j"
b1 l"
b1 k"
b0 0#
b0 3#
b0 1#
b0 ,#
b0 .#
b0 -#
b11111111111111111111111111111100 @#
b11111111111111111111111111111100 C#
b11111111111111111111111111111100 A#
b1100 <#
b11111111111111111111111111111100 >#
b11111111111111111111111111111100 =#
b10 G
b10 &"
b10 1"
b1 Z
b1 d"
b1 t"
b1 &#
b1 6#
b110010 Y
b110010 J"
b11001000 X
b11001000 2"
1'
#330000
0'
#335000
b11 0"
1,
b11111111111111111111111111111100 @#
b111 C#
b111 A#
b1100 <#
b11111111111111111111111111111100 >#
b111 =#
b11 ,#
b11 .#
b11 0#
b11111111111111111111111111111100 3#
b11111111111111111111111111111100 1#
b11111111111111111111111111111100 -#
b0 n"
b0 q"
b0 o"
b0 j"
b0 l"
b0 k"
1E
b1011 8
b1011 X"
b1011 5#
b1 9
b1 W"
b1 %#
b11 ;
b11 U"
b11 c"
1F
b10 <
b10 @"
b10 4#
b101 =
b101 ?"
b101 $#
b11 ?
b11 ="
b11 b"
b11111111111111111111111111111011 \"
b1 ["
b11111111111111111111111111111111 Y"
b11111111111111111111111111111011 ^"
b110010 a"
b1011 `"
b110010 _"
b1011 ]"
b10 D"
b11111111111111111111111111111101 C"
b11111111111111111111111111111111 A"
b10 F"
b11001000 I"
b1011 H"
b11001000 G"
b1011 E"
1'
#340000
0'
#345000
1J
0D
b11 G
b11 &"
b11 1"
1F
1E
b10 F"
b1011 H"
b1011 E"
b11111111111111111111111111111011 ^"
b1011 `"
b1011 ]"
1'
#350000
0'
#355000
b10010110 s
b10010110 {
b10010110 |
b100110011100 z
b10110111110 y
b1111011110 x
b0 v
b111 ""
b11 !"
b0 }
b10010110 $"
b100110011100 %"
b10010000011 #"
0,
b1100 0
b1100 \
b1100 ;#
1:#
b11 1
b11 ]
b11 +#
1*#
1x"
b0 3
b0 _
b0 i"
1h"
0E
0F
1'
#360000
0'
#365000
b100 0"
1)
17
16
15
14
1'
#370000
0'
#375000
1H
0J
b100 G
b100 &"
b100 1"
1'
#380000
0'
#385000
0h"
0x"
0*#
0:#
b10010110 @
b10010110 t
1u
1'
#390000
0'
#395000
b101 0"
1("
0)
1I
04
05
06
07
1'
#400000
0'
#405000
1A
0H
b110 0"
b101 G
b101 &"
b101 1"
1'
#410000
0'
#415000
1"
0A
b0 0"
b10010110 !
b10010110 /
b10010110 [
0u
b110 G
b110 &"
b110 1"
1'
#420000
b11001000 $
b11001000 +
b110010 #
b110010 *
b101001101010101010000100101111101010111010100100100000101010000 G#
b1111111101101010 F#
b11001000 E#
b110010 D#
0'
#425000
0"
0("
b0 G
b0 &"
b0 1"
0I
1'
#430000
b1 0"
1&
0'
#435000
1C
b10 0"
b1 G
b1 &"
b1 1"
1'
#440000
b10 0"
0&
0'
#445000
1D
0C
b10 G
b10 &"
b10 1"
b11001000 Y
b11001000 J"
b110010 X
b110010 2"
1'
#450000
0'
#455000
b11 0"
1,
b100 @#
b11111111111111111111111111111001 C#
b11111111111111111111111111111001 A#
b100 <#
b100 >#
b11111111111111111111111111111001 =#
b11111111111111111111111111111101 0#
b100 3#
b100 1#
b101 ,#
b11111111111111111111111111111101 .#
b100 -#
1E
b10 8
b10 X"
b10 5#
b101 9
b101 W"
b101 %#
1F
b1011 <
b1011 @"
b1011 4#
b1 =
b1 ?"
b1 $#
b10 \"
b11111111111111111111111111111101 ["
b10 ^"
b11001000 a"
b1011 `"
b11001000 _"
b1011 ]"
b11111111111111111111111111111011 D"
b1 C"
b11111111111111111111111111111011 F"
b110010 I"
b1011 H"
b110010 G"
b1011 E"
1'
#460000
0'
#465000
1J
0D
b11 G
b11 &"
b11 1"
1F
1E
b11111111111111111111111111111011 F"
b1011 H"
b1011 E"
b10 ^"
b1011 `"
b1011 ]"
1'
#470000
0'
#475000
b1111111101101010 s
b11101101010 {
b1111101101 |
b100001110000 z
b1101001000 y
b10100101000 x
b100 ""
b100 !"
b1111101101 $"
b100001110000 %"
b10010000011 #"
0,
b100 0
b100 \
b100 ;#
1:#
b101 1
b101 ]
b101 +#
1*#
1x"
1h"
0E
0F
1'
#480000
0'
#485000
b100 0"
1)
17
16
15
14
1'
#490000
0'
#495000
1H
0J
b100 G
b100 &"
b100 1"
1'
#500000
0'
#505000
0h"
0x"
0*#
0:#
b1111111101101010 @
b1111111101101010 t
1u
1'
#510000
0'
#515000
b101 0"
1("
0)
1I
04
05
06
07
1'
#520000
0'
#525000
1A
0H
b110 0"
b101 G
b101 &"
b101 1"
1'
#530000
0'
#535000
1"
0A
b0 0"
b1111111101101010 !
b1111111101101010 /
b1111111101101010 [
0u
b110 G
b110 &"
b110 1"
1'
#540000
b10001 $
b10001 +
b1011 #
b1011 *
b10 %
b10 .
b10011010101010101001100010111110011000100110001010111110011000100110111 G#
b10111011 F#
b10001 E#
b1011 D#
b10 H#
0'
#545000
0"
0("
b0 G
b0 &"
b0 1"
0I
1'
#550000
b1 0"
1&
0'
#555000
1C
b10 0"
b1 G
b1 &"
b1 1"
1'
#560000
b10 0"
0&
0'
#565000
1D
0C
b1 j"
b1 l"
b1 n"
b1 q"
b1 o"
b1 k"
b11111111111111111111111111111101 0#
b11111111111111111111111111111101 3#
b11111111111111111111111111111101 1#
b101 ,#
b11111111111111111111111111111101 .#
b11111111111111111111111111111101 -#
b1 @#
b11111111111111111111111111110110 C#
b11111111111111111111111111110110 A#
b1 <#
b1 >#
b11111111111111111111111111110110 =#
b10 G
b10 &"
b10 1"
b10 Z
b10 d"
b10 t"
b10 &#
b10 6#
b10001 Y
b10001 J"
b1011 X
b1011 2"
1'
#570000
0'
#575000
b11 0"
1,
b0 @#
b0 C#
b0 A#
b0 <#
b0 >#
b0 =#
b11111111111111111111111111111110 0#
b11111111111111111111111111110111 3#
b11111111111111111111111111110111 1#
b110 ,#
b11111111111111111111111111111110 .#
b11111111111111111111111111110111 -#
b10 z"
b10 |"
b10 ~"
b10 ##
b10 !#
b10 {"
1E
b1011 8
b1011 X"
b1011 5#
b11 9
b11 W"
b11 %#
b10 :
b10 V"
b10 s"
1F
b0 <
b0 @"
b0 4#
b101 =
b101 ?"
b101 $#
b1 >
b1 >"
b1 r"
b11111111111111111111111111111011 \"
b11 ["
b10 Z"
b11111111111111111111111111111011 ^"
b10001 a"
b1011 `"
b10001 _"
b1011 ]"
b0 D"
b11111111111111111111111111111101 C"
b1 B"
b0 F"
b1011 I"
b1011 H"
b1011 G"
b1011 E"
1'
#580000
0'
#585000
1J
0D
b11 G
b11 &"
b11 1"
1F
1E
b0 F"
b1011 H"
b1011 E"
b11111111111111111111111111111011 ^"
b1011 `"
b1011 ]"
1'
#590000
0'
#595000
b10111011 s
b10111011 {
b10111011 |
b100111000001 z
b0 y
b11001110010 x
b111001110 w
b110000001 v
b0 ""
b101 !"
b10 ~
b1 }
b10111011 $"
b100111000001 %"
b10010000011 #"
0,
b0 0
b0 \
b0 ;#
1:#
b110 1
b110 ]
b110 +#
1*#
b10 2
b10 ^
b10 y"
1x"
b1 3
b1 _
b1 i"
1h"
0E
0F
1'
#600000
0'
#605000
b100 0"
1)
17
16
15
14
1'
#610000
0'
#615000
1H
0J
b100 G
b100 &"
b100 1"
1'
#620000
0'
#625000
0h"
0x"
0*#
0:#
b10111011 @
b10111011 t
1u
1'
#630000
0'
#635000
b101 0"
1("
0)
1I
04
05
06
07
1'
#640000
0'
#645000
1A
0H
b110 0"
b101 G
b101 &"
b101 1"
1'
#650000
0'
#655000
1"
0A
b0 0"
b10111011 !
b10111011 /
b10111011 [
0u
b110 G
b110 &"
b110 1"
1'
#660000
b101000 $
b101000 +
b101000 #
b101000 *
b100110101010101010011000101111101010111010100100100000101010000 G#
b110111101 F#
b101000 E#
b101000 D#
0'
#665000
0"
0("
b0 G
b0 &"
b0 1"
0I
1'
#670000
b1 0"
1&
0'
#675000
1C
b10 0"
b1 G
b1 &"
b1 1"
1'
#680000
b10 0"
0&
0'
#685000
1D
0C
b10 G
b10 &"
b10 1"
b101000 Y
b101000 J"
b101000 X
b101000 2"
1'
#690000
0'
#695000
b11 0"
1,
b101 <#
b101 >#
b101 @#
b10000 C#
b10000 A#
b10000 =#
b11111111111111111111111111111101 0#
b100 3#
b100 1#
b101 ,#
b11111111111111111111111111111101 .#
b100 -#
b0 ~"
b0 ##
b0 !#
b0 z"
b0 |"
b0 {"
b1 j"
b1 l"
b1 k"
1E
b1100 8
b1100 X"
b1100 5#
b110 9
b110 W"
b110 %#
b0 :
b0 V"
b0 s"
b1 ;
b1 U"
b1 c"
1F
b1100 <
b1100 @"
b1100 4#
b110 =
b110 ?"
b110 $#
b0 >
b0 >"
b0 r"
b1 ?
b1 ="
b1 b"
b11111111111111111111111111111100 \"
b11111111111111111111111111111110 ["
b0 Z"
b1 Y"
b11111111111111111111111111111100 ^"
b101000 a"
b1011 `"
b101000 _"
b1011 ]"
b11111111111111111111111111111100 D"
b11111111111111111111111111111110 C"
b0 B"
b1 A"
b11111111111111111111111111111100 F"
b101000 I"
b1011 H"
b101000 G"
b1011 E"
1'
#700000
0'
#705000
1J
0D
b11 G
b11 &"
b11 1"
1F
1E
b11111111111111111111111111111100 F"
b1011 H"
b1011 E"
b11111111111111111111111111111100 ^"
b1011 `"
b1011 ]"
1'
#710000
0'
#715000
b110111101 s
b110111101 {
b110111101 |
b101011000011 z
b10000011010 y
b10100101000 x
b0 w
b101 ""
b100 !"
b0 ~
b110111101 $"
b101011000011 %"
b10010000011 #"
0,
b101 0
b101 \
b101 ;#
1:#
b101 1
b101 ]
b101 +#
1*#
b0 2
b0 ^
b0 y"
1x"
1h"
0E
0F
1'
#720000
0'
#725000
b100 0"
1)
17
16
15
14
1'
#730000
0'
#735000
1H
0J
b100 G
b100 &"
b100 1"
1'
#740000
0'
#745000
0h"
0x"
0*#
0:#
b110111101 @
b110111101 t
1u
1'
#750000
0'
#755000
b101 0"
1("
0)
1I
04
05
06
07
1'
#760000
0'
#765000
1A
0H
b110 0"
b101 G
b101 &"
b101 1"
1'
#770000
0'
#775000
1"
0A
b0 0"
b110111101 !
b110111101 /
b110111101 [
0u
b110 G
b110 &"
b110 1"
1'
#780000
0'
#785000
0"
0("
b0 G
b0 &"
b0 1"
0I
1'
