rns_crt/latest/precheck/rtl/rtl_precheck.vcd
$date
	Sun Apr 12 13:50:19 2026
$end
$version
	Icarus Verilog
$end
$timescale
	1ps
$end
$scope module tb_rns_top_crt $end
$var wire 16 ! X_out [15:0] $end
$var wire 1 " Done $end
$var reg 16 # A_in [15:0] $end
$var reg 16 $ B_in [15:0] $end
$var reg 2 % Op_Sel [1:0] $end
$var reg 1 & Start $end
$var reg 1 ' clk $end
$var reg 1 ( rst_n $end
$scope module dut $end
$var wire 1 ) ALU_Done_all $end
$var wire 16 * A_in [15:0] $end
$var wire 16 + B_in [15:0] $end
$var wire 1 , Encode_Done_all $end
$var wire 1 - MRC_Done $end
$var wire 2 . Op_Sel [1:0] $end
$var wire 1 & Start $end
$var wire 16 / X_out [15:0] $end
$var wire 1 ' clk $end
$var wire 1 ( rst_n $end
$var wire 4 0 z_r3 [3:0] $end
$var wire 3 1 z_r2 [2:0] $end
$var wire 3 2 z_r1 [2:0] $end
$var wire 2 3 z_r0 [1:0] $end
$var wire 1 4 slice3_done $end
$var wire 1 5 slice2_done $end
$var wire 1 6 slice1_done $end
$var wire 1 7 slice0_done $end
$var wire 4 8 b_r3 [3:0] $end
$var wire 3 9 b_r2 [2:0] $end
$var wire 3 : b_r1 [2:0] $end
$var wire 2 ; b_r0 [1:0] $end
$var wire 4 < a_r3 [3:0] $end
$var wire 3 = a_r2 [2:0] $end
$var wire 3 > a_r1 [2:0] $end
$var wire 2 ? a_r0 [1:0] $end
$var wire 16 @ X_crt [15:0] $end
$var wire 1 A Out_EN $end
$var wire 1 B MRC_Start $end
$var wire 1 C Load_IN $end
$var wire 1 D Encode_EN $end
$var wire 1 E Encode_Done_B $end
$var wire 1 F Encode_Done_A $end
$var wire 1 " Done $end
$var wire 3 G CU_state_dbg [2:0] $end
$var wire 1 H CRT_Start $end
$var wire 1 I CRT_Done $end
$var wire 1 J ALU_EN $end
$var parameter 32 K M0 $end
$var parameter 32 L M1 $end
$var parameter 32 M M2 $end
$var parameter 32 N M3 $end
$var parameter 32 O W0 $end
$var parameter 32 P W1 $end
$var parameter 32 Q W2 $end
$var parameter 32 R W3 $end
$var parameter 32 S WIDTH_IN $end
$var reg 16 T A_reg [15:0] $end
$var reg 16 U B_reg [15:0] $end
$var reg 2 V OpSel_reg [1:0] $end
$var reg 16 W X_reg [15:0] $end
$scope module u_crt $end
$var wire 1 ' clk $end
$var wire 1 ( rst_n $end
$var wire 4 X r3 [3:0] $end
$var wire 3 Y r2 [2:0] $end
$var wire 3 Z r1 [2:0] $end
$var wire 2 [ r0 [1:0] $end
$var wire 1 H CRT_Start $end
$var parameter 32 \ INV0 $end
$var parameter 32 ] INV1 $end
$var parameter 32 ^ INV2 $end
$var parameter 32 _ INV3 $end
$var parameter 32 ` M $end
$var parameter 32 a M0 $end
$var parameter 32 b M1 $end
$var parameter 32 c M2 $end
$var parameter 32 d M3 $end
$var parameter 32 e OUT_WIDTH $end
$var parameter 32 f W0 $end
$var parameter 32 g W1 $end
$var parameter 32 h W2 $end
$var parameter 32 i W3 $end
$var reg 1 I CRT_Done $end
$var reg 16 j X_next [15:0] $end
$var reg 16 k X_out [15:0] $end
$var reg 1 l start_d $end
$var reg 10 m term0 [9:0] $end
$var reg 10 n term1 [9:0] $end
$var reg 11 o term2 [10:0] $end
$var reg 12 p term3 [11:0] $end
$var reg 13 q total [12:0] $end
$var reg 11 r total_mod [10:0] $end
$var reg 2 s x0_mod [1:0] $end
$var reg 3 t x1_mod [2:0] $end
$var reg 3 u x2_mod [2:0] $end
$var reg 4 v x3_mod [3:0] $end
$scope function norm_mod $end
$var integer 32 w m [31:0] $end
$var integer 32 x t [31:0] $end
$var integer 32 y x [31:0] $end
$upscope $end
$upscope $end
$scope module u_cu $end
$var wire 1 ) ALU_Done $end
$var wire 1 I CRT_Done $end
$var wire 3 z CU_state_dbg [2:0] $end
$var wire 1 , Encode_Done $end
$var wire 1 - MRC_Done $end
$var wire 1 { Recon_Mode $end
$var wire 1 & Start $end
$var wire 1 ' clk $end
$var wire 1 ( rst_n $end
$var wire 1 | recon_done_sel $end
$var parameter 3 } S_ALU $end
$var parameter 3 ~ S_DONE $end
$var parameter 3 !" S_ENCODE $end
$var parameter 3 "" S_IDLE $end
$var parameter 3 #" S_LOAD $end
$var parameter 3 $" S_OUT $end
$var parameter 3 %" S_RECON $end
$var reg 1 J ALU_EN $end
$var reg 1 H CRT_Start $end
$var reg 1 " Done $end
$var reg 1 D Encode_EN $end
$var reg 1 C Load_IN $end
$var reg 1 B MRC_Start $end
$var reg 1 A Out_EN $end
$var reg 3 &" next_state [2:0] $end
$var reg 3 '" state [2:0] $end
$upscope $end
$scope module u_enc_a $end
$var wire 1 D Encode_EN $end
$var wire 1 ' clk $end
$var wire 1 ( rst_n $end
$var wire 16 (" x [15:0] $end
$var wire 4 )" r3_next [3:0] $end
$var wire 3 *" r2_next [2:0] $end
$var wire 3 +" r1_next [2:0] $end
$var wire 2 ," r0_next [1:0] $end
$var parameter 32 -" M0 $end
$var parameter 32 ." M1 $end
$var parameter 32 /" M2 $end
$var parameter 32 0" M3 $end
$var parameter 32 1" W0 $end
$var parameter 32 2" W1 $end
$var parameter 32 3" W2 $end
$var parameter 32 4" W3 $end
$var parameter 32 5" WIDTH_IN $end
$var reg 1 F Encode_Done $end
$var reg 2 6" r0 [1:0] $end
$var reg 3 7" r1 [2:0] $end
$var reg 3 8" r2 [2:0] $end
$var reg 4 9" r3 [3:0] $end
$upscope $end
$scope module u_enc_b $end
$var wire 1 D Encode_EN $end
$var wire 1 ' clk $end
$var wire 1 ( rst_n $end
$var wire 16 :" x [15:0] $end
$var wire 4 ;" r3_next [3:0] $end
$var wire 3 <" r2_next [2:0] $end
$var wire 3 =" r1_next [2:0] $end
$var wire 2 >" r0_next [1:0] $end
$var parameter 32 ?" M0 $end
$var parameter 32 @" M1 $end
$var parameter 32 A" M2 $end
$var parameter 32 B" M3 $end
$var parameter 32 C" W0 $end
$var parameter 32 D" W1 $end
$var parameter 32 E" W2 $end
$var parameter 32 F" W3 $end
$var parameter 32 G" WIDTH_IN $end
$var reg 1 E Encode_Done $end
$var reg 2 H" r0 [1:0] $end
$var reg 3 I" r1 [2:0] $end
$var reg 3 J" r2 [2:0] $end
$var reg 4 K" r3 [3:0] $end
$upscope $end
$scope module u_slice0 $end
$var wire 1 J ALU_EN $end
$var wire 2 L" a [1:0] $end
$var wire 2 M" b [1:0] $end
$var wire 1 ' clk $end
$var wire 2 N" op_sel [1:0] $end
$var wire 1 ( rst_n $end
$var parameter 32 O" MODULUS $end
$var parameter 32 P" WIDTH $end
$var reg 1 7 ALU_Done $end
$var reg 1 Q" start_d $end
$var reg 2 R" y [1:0] $end
$var reg 2 S" y_next [1:0] $end
$var integer 32 T" tmp [31:0] $end
$upscope $end
$scope module u_slice1 $end
$var wire 1 J ALU_EN $end
$var wire 3 U" a [2:0] $end
$var wire 3 V" b [2:0] $end
$var wire 1 ' clk $end
$var wire 2 W" op_sel [1:0] $end
$var wire 1 ( rst_n $end
$var parameter 32 X" MODULUS $end
$var parameter 32 Y" WIDTH $end
$var reg 1 6 ALU_Done $end
$var reg 1 Z" start_d $end
$var reg 3 [" y [2:0] $end
$var reg 3 \" y_next [2:0] $end
$var integer 32 ]" tmp [31:0] $end
$upscope $end
$scope module u_slice2 $end
$var wire 1 J ALU_EN $end
$var wire 3 ^" a [2:0] $end
$var wire 3 _" b [2:0] $end
$var wire 1 ' clk $end
$var wire 2 `" op_sel [1:0] $end
$var wire 1 ( rst_n $end
$var parameter 32 a" MODULUS $end
$var parameter 32 b" WIDTH $end
$var reg 1 5 ALU_Done $end
$var reg 1 c" start_d $end
$var reg 3 d" y [2:0] $end
$var reg 3 e" y_next [2:0] $end
$var integer 32 f" tmp [31:0] $end
$upscope $end
$scope module u_slice3 $end
$var wire 1 J ALU_EN $end
$var wire 4 g" a [3:0] $end
$var wire 4 h" b [3:0] $end
$var wire 1 ' clk $end
$var wire 2 i" op_sel [1:0] $end
$var wire 1 ( rst_n $end
$var parameter 32 j" MODULUS $end
$var parameter 32 k" WIDTH $end
$var reg 1 4 ALU_Done $end
$var reg 1 l" start_d $end
$var reg 4 m" y [3:0] $end
$var reg 4 n" y_next [3:0] $end
$var integer 32 o" tmp [31:0] $end
$upscope $end
$upscope $end
$scope task run_test $end
$var reg 16 p" a [15:0] $end
$var reg 16 q" b [15:0] $end
$var reg 16 r" expected [15:0] $end
$var reg 128 s" name [127:0] $end
$var reg 2 t" op [1:0] $end
$upscope $end
$upscope $end
$enddefinitions $end
$comment Show the parameter values. $end
$dumpall
b100 k"
b1011 j"
b11 b"
b111 a"
b11 Y"
b101 X"
b10 P"
b11 O"
b10000 G"
b100 F"
b11 E"
b11 D"
b10 C"
b1011 B"
b111 A"
b101 @"
b11 ?"
b10000 5"
b100 4"
b11 3"
b11 2"
b10 1"
b1011 0"
b111 /"
b101 ."
b11 -"
b100 %"
b101 $"
b1 #"
b0 ""
b10 !"
b110 ~
b11 }
b100 i
b11 h
b11 g
b10 f
b10000 e
b1101001 d
b10100101 c
b11100111 b
b110000001 a
b10010000011 `
b10 _
b10 ^
b1 ]
b1 \
b10000 S
b100 R
b11 Q
b11 P
b10 O
b1011 N
b111 M
b101 L
b11 K
$end
#0
$dumpvars
bx t"
bx s"
bx r"
bx q"
bx p"
bx o"
bx n"
bx m"
xl"
bx i"
bx h"
bx g"
bx f"
bx e"
bx d"
xc"
bx `"
bx _"
bx ^"
bx ]"
bx \"
bx ["
xZ"
bx W"
bx V"
bx U"
bx T"
bx S"
bx R"
xQ"
bx N"
bx M"
bx L"
bx K"
bx J"
bx I"
bx H"
bx >"
bx ="
bx <"
bx ;"
bx :"
bx 9"
bx 8"
bx 7"
bx 6"
bx ,"
bx +"
bx *"
bx )"
bx ("
bx '"
b0 &"
x|
0{
bx z
bx y
bx x
bx w
bx v
bx u
bx t
bx s
bx r
bx q
bx p
bx o
bx n
bx m
xl
bx k
bx j
bx [
bx Z
bx Y
bx X
bx W
bx V
bx U
bx T
0J
xI
0H
bx G
xF
xE
0D
0C
0B
0A
bx @
bx ?
bx >
bx =
bx <
bx ;
bx :
bx 9
bx 8
x7
x6
x5
x4
bx 3
bx 2
bx 1
bx 0
bx /
b0 .
0-
x,
b0 +
b0 *
x)
0(
0'
0&
b0 %
b0 $
b0 #
0"
bx !
$end
#5000
0,
0)
0|
b0 G
b0 z
b0 '"
0F
0E
07
0Q"
06
0Z"
05
0c"
04
0l"
0l
0I
1'
#10000
0'
#15000
1'
#20000
0'
#25000
1'
#30000
0'
#35000
1'
#40000
0'
#45000
1'
#50000
1(
0'
#55000
1'
#60000
b111 $
b111 +
b1010 #
b1010 *
b100000101000100010001000101111100110001001100000101111100110111 s"
b10001 r"
b111 q"
b1010 p"
b0 t"
0'
#65000
1'
#70000
b1 &"
1&
0'
#75000
1C
b10 &"
b1 G
b1 z
b1 '"
1'
#80000
b10 &"
0&
0'
#85000
1D
0C
bx T"
bx S"
bx ]"
bx \"
bx f"
bx e"
bx o"
bx n"
b1 >"
b10 ="
b0 <"
b111 ;"
b1 ,"
b0 +"
b11 *"
b1010 )"
b10 G
b10 z
b10 '"
b0 V
b0 N"
b0 W"
b0 `"
b0 i"
b111 U
b111 :"
b1010 T
b1010 ("
1'
#90000
0'
#95000
b11 &"
1,
b110 o"
b110 n"
b11 f"
b11 e"
b10 ]"
b10 \"
b10 T"
b10 S"
1E
b111 8
b111 K"
b111 h"
b0 9
b0 J"
b0 _"
b10 :
b10 I"
b10 V"
b1 ;
b1 H"
b1 M"
1F
b1010 <
b1010 9"
b1010 g"
b11 =
b11 8"
b11 ^"
b0 >
b0 7"
b0 U"
b1 ?
b1 6"
b1 L"
1'
#100000
0'
#105000
1J
0D
b11 G
b11 z
b11 '"
1F
1E
1'
#110000
0'
#115000
b10001 j
b10001 r
b110110011010 q
b10011101100 p
b1111011110 o
b111001110 n
b1100000010 m
b110 v
b11 u
b10 t
b10 s
b10001 x
b110110011010 y
b10010000011 w
0,
b110 0
b110 X
b110 m"
1l"
b11 1
b11 Y
b11 d"
1c"
b10 2
b10 Z
b10 ["
1Z"
b10 3
b10 [
b10 R"
1Q"
0E
0F
1'
#120000
0'
#125000
b100 &"
1)
17
16
15
14
1'
#130000
0'
#135000
1H
0J
b100 G
b100 z
b100 '"
1'
#140000
0'
#145000
0Q"
0Z"
0c"
0l"
b10001 @
b10001 k
1l
1'
#150000
0'
#155000
b101 &"
1|
0)
1I
04
05
06
07
1'
#160000
0'
#165000
1A
0H
b110 &"
b101 G
b101 z
b101 '"
1'
#170000
0'
#175000
1"
0A
b0 &"
b10001 !
b10001 /
b10001 W
0l
b110 G
b110 z
b110 '"
1'
#180000
b100101100 $
b100101100 +
b1111101000 #
b1111101000 *
b100000101000100010001000101111101010111010100100100000101010000 s"
b10010001 r"
b100101100 q"
b1111101000 p"
0'
#185000
0"
0|
b0 G
b0 z
b0 '"
0I
1'
#190000
b1 &"
1&
0'
#195000
1C
b10 &"
b1 G
b1 z
b1 '"
1'
#200000
b10 &"
0&
0'
#205000
1D
0C
b0 >"
b0 ="
b110 <"
b11 ;"
b110 *"
b10 G
b10 z
b10 '"
b100101100 U
b100101100 :"
b1111101000 T
b1111101000 ("
1'
#210000
0'
#215000
b11 &"
b10 o"
b10 n"
b0 ]"
b0 \"
b1 T"
b1 S"
1,
b101 f"
b101 e"
1E
b11 8
b11 K"
b11 h"
b110 9
b110 J"
b110 _"
b0 :
b0 I"
b0 V"
b0 ;
b0 H"
b0 M"
1F
b110 =
b110 8"
b110 ^"
1'
#220000
0'
#225000
1J
0D
b11 G
b11 z
b11 '"
1F
1E
1'
#230000
0'
#235000
b10010001 j
b10010001 r
b100110010111 q
b110100100 p
b11001110010 o
b0 n
b110000001 m
b10 v
b101 u
b0 t
b1 s
b10010001 x
b100110010111 y
b10010000011 w
0,
b10 0
b10 X
b10 m"
1l"
b101 1
b101 Y
b101 d"
1c"
b0 2
b0 Z
b0 ["
1Z"
b1 3
b1 [
b1 R"
1Q"
0E
0F
1'
#240000
0'
#245000
b100 &"
1)
17
16
15
14
1'
#250000
0'
#255000
1H
0J
b100 G
b100 z
b100 '"
1'
#260000
0'
#265000
0Q"
0Z"
0c"
0l"
b10010001 @
b10010001 k
1l
1'
#270000
0'
#275000
b101 &"
1|
0)
1I
04
05
06
07
1'
#280000
0'
#285000
1A
0H
b110 &"
b101 G
b101 z
b101 '"
1'
#290000
0'
#295000
1"
0A
b0 &"
b10010001 !
b10010001 /
b10010001 W
0l
b110 G
b110 z
b110 '"
1'
#300000
b110010 $
b110010 +
b11001000 #
b11001000 *
b1 %
b1 .
b1010011010101010100001001011111001100100011000000110000010111110011010100110000 s"
b10010110 r"
b110010 q"
b11001000 p"
b1 t"
0'
#305000
0"
0|
b0 G
b0 z
b0 '"
0I
1'
#310000
b1 &"
1&
0'
#315000
1C
b10 &"
b1 G
b1 z
b1 '"
1'
#320000
b10 &"
0&
0'
#325000
1D
0C
b1 T"
b1 S"
b0 ]"
b0 f"
b0 e"
b111 o"
b111 n"
b10 >"
b1 <"
b110 ;"
b10 ,"
b100 *"
b10 )"
b10 G
b10 z
b10 '"
b1 V
b1 N"
b1 W"
b1 `"
b1 i"
b110010 U
b110010 :"
b11001000 T
b11001000 ("
1'
#330000
0'
#335000
b11 &"
1,
b111 o"
b111 n"
b11 e"
b11 f"
b0 T"
b0 S"
1E
b110 8
b110 K"
b110 h"
b1 9
b1 J"
b1 _"
b10 ;
b10 H"
b10 M"
1F
b10 <
b10 9"
b10 g"
b100 =
b100 8"
b100 ^"
b10 ?
b10 6"
b10 L"
1'
#340000
0'
#345000
1J
0D
b11 G
b11 z
b11 '"
1F
1E
1'
#350000
0'
#355000
b10010110 j
b10010110 r
b100110011100 q
b10110111110 p
b1111011110 o
b0 m
b111 v
b11 u
b0 s
b10010110 x
b100110011100 y
b10010000011 w
0,
b111 0
b111 X
b111 m"
1l"
b11 1
b11 Y
b11 d"
1c"
1Z"
b0 3
b0 [
b0 R"
1Q"
0E
0F
1'
#360000
0'
#365000
b100 &"
1)
17
16
15
14
1'
#370000
0'
#375000
1H
0J
b100 G
b100 z
b100 '"
1'
#380000
0'
#385000
0Q"
0Z"
0c"
0l"
b10010110 @
b10010110 k
1l
1'
#390000
0'
#395000
b101 &"
1|
0)
1I
04
05
06
07
1'
#400000
0'
#405000
1A
0H
b110 &"
b101 G
b101 z
b101 '"
1'
#410000
0'
#415000
1"
0A
b0 &"
b10010110 !
b10010110 /
b10010110 W
0l
b110 G
b110 z
b110 '"
1'
#420000
b11001000 $
b11001000 +
b110010 #
b110010 *
b101001101010101010000100101111101010111010100100100000101010000 s"
b1111101101 r"
b11001000 q"
b110010 p"
0'
#425000
0"
0|
b0 G
b0 z
b0 '"
0I
1'
#430000
b1 &"
1&
0'
#435000
1C
b10 &"
b1 G
b1 z
b1 '"
1'
#440000
b10 &"
0&
0'
#445000
1D
0C
b100 <"
b10 ;"
b1 *"
b110 )"
b10 G
b10 z
b10 '"
b11001000 U
b11001000 :"
b110010 T
b110010 ("
1'
#450000
0'
#455000
b11 &"
1,
b100 o"
b100 n"
b100 f"
b100 e"
1E
b10 8
b10 K"
b10 h"
b100 9
b100 J"
b100 _"
1F
b110 <
b110 9"
b110 g"
b1 =
b1 8"
b1 ^"
1'
#460000
0'
#465000
1J
0D
b11 G
b11 z
b11 '"
1F
1E
1'
#470000
0'
#475000
b1111101101 j
b1111101101 r
b100001110000 q
b1101001000 p
b10100101000 o
b100 v
b100 u
b1111101101 x
b100001110000 y
b10010000011 w
0,
b100 0
b100 X
b100 m"
1l"
b100 1
b100 Y
b100 d"
1c"
1Z"
1Q"
0E
0F
1'
#480000
0'
#485000
b100 &"
1)
17
16
15
14
1'
#490000
0'
#495000
1H
0J
b100 G
b100 z
b100 '"
1'
#500000
0'
#505000
0Q"
0Z"
0c"
0l"
b1111101101 @
b1111101101 k
1l
1'
#510000
0'
#515000
b101 &"
1|
0)
1I
04
05
06
07
1'
#520000
0'
#525000
1A
0H
b110 &"
b101 G
b101 z
b101 '"
1'
#530000
0'
#535000
1"
0A
b0 &"
b1111101101 !
b1111101101 /
b1111101101 W
0l
b110 G
b110 z
b110 '"
1'
#540000
b10001 $
b10001 +
b1011 #
b1011 *
b10 %
b10 .
b10011010101010101001100010111110011000100110001010111110011000100110111 s"
b10111011 r"
b10001 q"
b1011 p"
b10 t"
0'
#545000
0"
0|
b0 G
b0 z
b0 '"
0I
1'
#550000
b1 &"
1&
0'
#555000
1C
b10 &"
b1 G
b1 z
b1 '"
1'
#560000
b10 &"
0&
0'
#565000
1D
0C
b1 S"
b1 T"
b100 f"
b100 e"
b1 o"
b1 n"
b10 ="
b11 <"
b110 ;"
b1 +"
b100 *"
b0 )"
b10 G
b10 z
b10 '"
b10 V
b10 N"
b10 W"
b10 `"
b10 i"
b10001 U
b10001 :"
b1011 T
b1011 ("
1'
#570000
0'
#575000
b11 &"
1,
b0 o"
b0 n"
b101 f"
b101 e"
b10 \"
b10 ]"
1E
b110 8
b110 K"
b110 h"
b11 9
b11 J"
b11 _"
b10 :
b10 I"
b10 V"
1F
b0 <
b0 9"
b0 g"
b100 =
b100 8"
b100 ^"
b1 >
b1 7"
b1 U"
1'
#580000
0'
#585000
1J
0D
b11 G
b11 z
b11 '"
1F
1E
1'
#590000
0'
#595000
b10111011 j
b10111011 r
b100111000001 q
b0 p
b11001110010 o
b111001110 n
b110000001 m
b0 v
b101 u
b10 t
b1 s
b10111011 x
b100111000001 y
b10010000011 w
0,
b0 0
b0 X
b0 m"
1l"
b101 1
b101 Y
b101 d"
1c"
b10 2
b10 Z
b10 ["
1Z"
b1 3
b1 [
b1 R"
1Q"
0E
0F
1'
#600000
0'
#605000
b100 &"
1)
17
16
15
14
1'
#610000
0'
#615000
1H
0J
b100 G
b100 z
b100 '"
1'
#620000
0'
#625000
0Q"
0Z"
0c"
0l"
b10111011 @
b10111011 k
1l
1'
#630000
0'
#635000
b101 &"
1|
0)
1I
04
05
06
07
1'
#640000
0'
#645000
1A
0H
b110 &"
b101 G
b101 z
b101 '"
1'
#650000
0'
#655000
1"
0A
b0 &"
b10111011 !
b10111011 /
b10111011 W
0l
b110 G
b110 z
b110 '"
1'
#660000
b101000 $
b101000 +
b101000 #
b101000 *
b100110101010101010011000101111101010111010100100100000101010000 s"
b110111101 r"
b101000 q"
b101000 p"
0'
#665000
0"
0|
b0 G
b0 z
b0 '"
0I
1'
#670000
b1 &"
1&
0'
#675000
1C
b10 &"
b1 G
b1 z
b1 '"
1'
#680000
b10 &"
0&
0'
#685000
1D
0C
b1 >"
b0 ="
b101 <"
b111 ;"
b1 ,"
b0 +"
b101 *"
b111 )"
b10 G
b10 z
b10 '"
b101000 U
b101000 :"
b101000 T
b101000 ("
1'
#690000
0'
#695000
b11 &"
1,
b101 n"
b101 o"
b100 f"
b100 e"
b0 ]"
b0 \"
b1 T"
b1 S"
1E
b111 8
b111 K"
b111 h"
b101 9
b101 J"
b101 _"
b0 :
b0 I"
b0 V"
b1 ;
b1 H"
b1 M"
1F
b111 <
b111 9"
b111 g"
b101 =
b101 8"
b101 ^"
b0 >
b0 7"
b0 U"
b1 ?
b1 6"
b1 L"
1'
#700000
0'
#705000
1J
0D
b11 G
b11 z
b11 '"
1F
1E
1'
#710000
0'
#715000
b110111101 j
b110111101 r
b101011000011 q
b10000011010 p
b10100101000 o
b0 n
b101 v
b100 u
b0 t
b110111101 x
b101011000011 y
b10010000011 w
0,
b101 0
b101 X
b101 m"
1l"
b100 1
b100 Y
b100 d"
1c"
b0 2
b0 Z
b0 ["
1Z"
1Q"
0E
0F
1'
#720000
0'
#725000
b100 &"
1)
17
16
15
14
1'
#730000
0'
#735000
1H
0J
b100 G
b100 z
b100 '"
1'
#740000
0'
#745000
0Q"
0Z"
0c"
0l"
b110111101 @
b110111101 k
1l
1'
#750000
0'
#755000
b101 &"
1|
0)
1I
04
05
06
07
1'
#760000
0'
#765000
1A
0H
b110 &"
b101 G
b101 z
b101 '"
1'
#770000
0'
#775000
1"
0A
b0 &"
b110111101 !
b110111101 /
b110111101 W
0l
b110 G
b110 z
b110 '"
1'
#780000
0'
#785000
0"
0|
b0 G
b0 z
b0 '"
0I
1'
