rrns_mrc/runs/24607012803/precheck/rtl/mrc_rtl_precheck.vcd
$date
	Sat Apr 18 14:43:01 2026
$end
$version
	Icarus Verilog
$end
$timescale
	1ps
$end
$scope module tb_rrns_top_mrc $end
$var wire 16 ! X_out [15:0] $end
$var wire 1 " Valid $end
$var wire 1 # Error_Detected $end
$var wire 1 $ Done $end
$var wire 1 % Corrected $end
$var reg 16 & A_in [15:0] $end
$var reg 16 ' B_in [15:0] $end
$var reg 2 ( Op_Sel [1:0] $end
$var reg 1 ) Start $end
$var reg 1 * clk $end
$var reg 1 + rst_n $end
$scope module dut $end
$var wire 1 , ALU_Done_all $end
$var wire 16 - A_in [15:0] $end
$var wire 16 . B_in [15:0] $end
$var wire 1 / CRT_Done $end
$var wire 1 % Corrected $end
$var wire 1 0 Encode_Done_all $end
$var wire 1 # Error_Detected $end
$var wire 2 1 Op_Sel [1:0] $end
$var wire 1 ) Start $end
$var wire 1 " Valid $end
$var wire 16 2 X_out [15:0] $end
$var wire 1 * clk $end
$var wire 1 + rst_n $end
$var wire 5 3 z_r5 [4:0] $end
$var wire 4 4 z_r4 [3:0] $end
$var wire 4 5 z_r3 [3:0] $end
$var wire 3 6 z_r2 [2:0] $end
$var wire 3 7 z_r1 [2:0] $end
$var wire 2 8 z_r0 [1:0] $end
$var wire 1 9 slice5_done $end
$var wire 1 : slice4_done $end
$var wire 1 ; slice3_done $end
$var wire 1 < slice2_done $end
$var wire 1 = slice1_done $end
$var wire 1 > slice0_done $end
$var wire 5 ? b_r5 [4:0] $end
$var wire 4 @ b_r4 [3:0] $end
$var wire 4 A b_r3 [3:0] $end
$var wire 3 B b_r2 [2:0] $end
$var wire 3 C b_r1 [2:0] $end
$var wire 2 D b_r0 [1:0] $end
$var wire 5 E a_r5 [4:0] $end
$var wire 4 F a_r4 [3:0] $end
$var wire 4 G a_r3 [3:0] $end
$var wire 3 H a_r2 [2:0] $end
$var wire 3 I a_r1 [2:0] $end
$var wire 2 J a_r0 [1:0] $end
$var wire 16 K X_corr_now [15:0] $end
$var wire 16 L X_base [15:0] $end
$var wire 1 M Valid_now $end
$var wire 1 N Out_EN $end
$var wire 1 O MRC_Start $end
$var wire 1 P MRC_Done $end
$var wire 1 Q Load_IN $end
$var wire 1 R Error_now $end
$var wire 1 S Encode_EN $end
$var wire 1 T Encode_Done_B $end
$var wire 1 U Encode_Done_A $end
$var wire 1 $ Done $end
$var wire 1 V Corrected_now $end
$var wire 3 W CU_state_dbg [2:0] $end
$var wire 1 X CRT_Start $end
$var wire 1 Y ALU_EN $end
$var parameter 32 Z CENTERED_OUT_EN $end
$var parameter 32 [ CRNS_EN $end
$var parameter 32 \ M0 $end
$var parameter 32 ] M1 $end
$var parameter 32 ^ M2 $end
$var parameter 32 _ M3 $end
$var parameter 32 ` M4 $end
$var parameter 32 a M5 $end
$var parameter 32 b W0 $end
$var parameter 32 c W1 $end
$var parameter 32 d W2 $end
$var parameter 32 e W3 $end
$var parameter 32 f W4 $end
$var parameter 32 g W5 $end
$var parameter 32 h WIDTH_IN $end
$var reg 16 i A_reg [15:0] $end
$var reg 16 j A_req [15:0] $end
$var reg 16 k B_reg [15:0] $end
$var reg 16 l B_req [15:0] $end
$var reg 1 m Corrected_reg $end
$var reg 1 n Error_reg $end
$var reg 2 o OpSel_reg [1:0] $end
$var reg 2 p OpSel_req [1:0] $end
$var reg 1 q Valid_reg $end
$var reg 16 r X_reg [15:0] $end
$scope module u_corrector $end
$var wire 5 s r5 [4:0] $end
$var wire 4 t r4 [3:0] $end
$var wire 4 u r3 [3:0] $end
$var wire 3 v r2 [2:0] $end
$var wire 3 w r1 [2:0] $end
$var wire 2 x r0 [1:0] $end
$var wire 16 y X_base [15:0] $end
$var parameter 32 z HALF_BASE $end
$var parameter 32 { M_BASE $end
$var parameter 32 | OUT_WIDTH $end
$var parameter 32 } W0 $end
$var parameter 32 ~ W1 $end
$var parameter 32 !" W2 $end
$var parameter 32 "" W3 $end
$var parameter 32 #" W4 $end
$var parameter 32 $" W5 $end
$var reg 1 V Corrected $end
$var reg 1 R Error_Detected $end
$var reg 1 M Valid $end
$var reg 16 %" X_corr [15:0] $end
$var reg 1 &" chk13 $end
$var reg 1 '" chk17 $end
$var reg 1 (" ok3_13 $end
$var reg 1 )" ok3_17 $end
$var integer 32 *" cand3_13 [31:0] $end
$var integer 32 +" cand3_17 [31:0] $end
$var integer 32 ," n0 [31:0] $end
$var integer 32 -" n1 [31:0] $end
$var integer 32 ." n2 [31:0] $end
$var integer 32 /" n3 [31:0] $end
$var integer 32 0" n4 [31:0] $end
$var integer 32 1" n5 [31:0] $end
$var integer 32 2" x_base_int [31:0] $end
$scope function center_with_modulus $end
$var integer 32 3" p [31:0] $end
$var integer 32 4" t [31:0] $end
$var integer 32 5" x [31:0] $end
$upscope $end
$scope function in_base_range $end
$var integer 32 6" x [31:0] $end
$upscope $end
$scope function norm_mod $end
$var integer 32 7" m [31:0] $end
$var integer 32 8" t [31:0] $end
$var integer 32 9" x [31:0] $end
$upscope $end
$scope function red_ok $end
$var integer 32 :" m [31:0] $end
$var integer 32 ;" r [31:0] $end
$var integer 32 <" x [31:0] $end
$upscope $end
$upscope $end
$scope module u_cu $end
$var wire 1 , ALU_Done $end
$var wire 1 / CRT_Done $end
$var wire 3 =" CU_state_dbg [2:0] $end
$var wire 1 0 Encode_Done $end
$var wire 1 >" Recon_Mode $end
$var wire 1 ) Start $end
$var wire 1 * clk $end
$var wire 1 + rst_n $end
$var wire 1 ?" recon_done_sel $end
$var wire 1 P MRC_Done $end
$var parameter 3 @" S_ALU $end
$var parameter 3 A" S_DONE $end
$var parameter 3 B" S_ENCODE $end
$var parameter 3 C" S_IDLE $end
$var parameter 3 D" S_LOAD $end
$var parameter 3 E" S_OUT $end
$var parameter 3 F" S_RECON $end
$var reg 1 Y ALU_EN $end
$var reg 1 X CRT_Start $end
$var reg 1 $ Done $end
$var reg 1 S Encode_EN $end
$var reg 1 Q Load_IN $end
$var reg 1 O MRC_Start $end
$var reg 1 N Out_EN $end
$var reg 3 G" next_state [2:0] $end
$var reg 3 H" state [2:0] $end
$upscope $end
$scope module u_enc_a $end
$var wire 1 S Encode_EN $end
$var wire 1 * clk $end
$var wire 1 + rst_n $end
$var wire 16 I" x [15:0] $end
$var parameter 32 J" CRNS_EN $end
$var parameter 32 K" M0 $end
$var parameter 32 L" M1 $end
$var parameter 32 M" M2 $end
$var parameter 32 N" M3 $end
$var parameter 32 O" M4 $end
$var parameter 32 P" M5 $end
$var parameter 32 Q" W0 $end
$var parameter 32 R" W1 $end
$var parameter 32 S" W2 $end
$var parameter 32 T" W3 $end
$var parameter 32 U" W4 $end
$var parameter 32 V" W5 $end
$var parameter 32 W" WIDTH_IN $end
$var reg 1 U Encode_Done $end
$var reg 2 X" r0 [1:0] $end
$var reg 3 Y" r1 [2:0] $end
$var reg 3 Z" r2 [2:0] $end
$var reg 4 [" r3 [3:0] $end
$var reg 4 \" r4 [3:0] $end
$var reg 5 ]" r5 [4:0] $end
$var integer 32 ^" tmp0 [31:0] $end
$var integer 32 _" tmp1 [31:0] $end
$var integer 32 `" tmp2 [31:0] $end
$var integer 32 a" tmp3 [31:0] $end
$var integer 32 b" tmp4 [31:0] $end
$var integer 32 c" tmp5 [31:0] $end
$scope function norm_bal $end
$var integer 32 d" m [31:0] $end
$var integer 32 e" r [31:0] $end
$var integer 32 f" val [31:0] $end
$upscope $end
$scope function norm_std $end
$var integer 32 g" m [31:0] $end
$var integer 32 h" val [31:0] $end
$upscope $end
$upscope $end
$scope module u_enc_b $end
$var wire 1 S Encode_EN $end
$var wire 1 * clk $end
$var wire 1 + rst_n $end
$var wire 16 i" x [15:0] $end
$var parameter 32 j" CRNS_EN $end
$var parameter 32 k" M0 $end
$var parameter 32 l" M1 $end
$var parameter 32 m" M2 $end
$var parameter 32 n" M3 $end
$var parameter 32 o" M4 $end
$var parameter 32 p" M5 $end
$var parameter 32 q" W0 $end
$var parameter 32 r" W1 $end
$var parameter 32 s" W2 $end
$var parameter 32 t" W3 $end
$var parameter 32 u" W4 $end
$var parameter 32 v" W5 $end
$var parameter 32 w" WIDTH_IN $end
$var reg 1 T Encode_Done $end
$var reg 2 x" r0 [1:0] $end
$var reg 3 y" r1 [2:0] $end
$var reg 3 z" r2 [2:0] $end
$var reg 4 {" r3 [3:0] $end
$var reg 4 |" r4 [3:0] $end
$var reg 5 }" r5 [4:0] $end
$var integer 32 ~" tmp0 [31:0] $end
$var integer 32 !# tmp1 [31:0] $end
$var integer 32 "# tmp2 [31:0] $end
$var integer 32 ## tmp3 [31:0] $end
$var integer 32 $# tmp4 [31:0] $end
$var integer 32 %# tmp5 [31:0] $end
$scope function norm_bal $end
$var integer 32 &# m [31:0] $end
$var integer 32 '# r [31:0] $end
$var integer 32 (# val [31:0] $end
$upscope $end
$scope function norm_std $end
$var integer 32 )# m [31:0] $end
$var integer 32 *# val [31:0] $end
$upscope $end
$upscope $end
$scope module u_mrc $end
$var wire 1 O MRC_Start $end
$var wire 1 * clk $end
$var wire 1 + rst_n $end
$var wire 1 +# start_pulse $end
$var wire 11 ,# total_mod_w [10:0] $end
$var wire 11 -# total_centered_w [10:0] $end
$var wire 4 .# t4_w [3:0] $end
$var wire 3 /# t3_w [2:0] $end
$var wire 3 0# t2_w [2:0] $end
$var wire 4 1# r3 [3:0] $end
$var wire 3 2# r2 [2:0] $end
$var wire 3 3# r1 [2:0] $end
$var wire 2 4# r0 [1:0] $end
$var wire 11 5# X4_w [10:0] $end
$var wire 7 6# X3_next_w [6:0] $end
$var wire 4 7# X2_next_w [3:0] $end
$var parameter 32 8# HALF_M $end
$var parameter 32 9# INV_12 $end
$var parameter 32 :# INV_123 $end
$var parameter 32 ;# INV_1234 $end
$var parameter 32 <# MOD0 $end
$var parameter 32 =# MOD1 $end
$var parameter 32 ># MOD2 $end
$var parameter 32 ?# MOD3 $end
$var parameter 32 @# MPREV1 $end
$var parameter 32 A# MPREV2 $end
$var parameter 32 B# MPREV3 $end
$var parameter 32 C# M_TOTAL $end
$var parameter 32 D# OUT_WIDTH $end
$var parameter 3 E# S_DONE $end
$var parameter 3 F# S_IDLE $end
$var parameter 3 G# S_S1 $end
$var parameter 3 H# S_S2 $end
$var parameter 3 I# S_S3 $end
$var parameter 3 J# S_S4 $end
$var parameter 32 K# W0 $end
$var parameter 32 L# W1 $end
$var parameter 32 M# W2 $end
$var parameter 32 N# W3 $end
$var reg 1 P MRC_Done $end
$var reg 2 O# X1_r [1:0] $end
$var reg 4 P# X2_r [3:0] $end
$var reg 7 Q# X3_r [6:0] $end
$var reg 16 R# X_out [15:0] $end
$var reg 2 S# r0_mod_r [1:0] $end
$var reg 3 T# r1_mod_r [2:0] $end
$var reg 3 U# r2_mod_r [2:0] $end
$var reg 4 V# r3_mod_r [3:0] $end
$var reg 1 W# start_d $end
$var reg 3 X# state [2:0] $end
$scope function norm_mod $end
$var integer 32 Y# m [31:0] $end
$var integer 32 Z# t [31:0] $end
$var integer 32 [# x [31:0] $end
$upscope $end
$upscope $end
$scope module u_slice0 $end
$var wire 1 Y ALU_EN $end
$var wire 2 \# a [1:0] $end
$var wire 2 ]# b [1:0] $end
$var wire 1 * clk $end
$var wire 2 ^# op_sel [1:0] $end
$var wire 1 + rst_n $end
$var parameter 32 _# CRNS_EN $end
$var parameter 32 `# MODULUS $end
$var parameter 32 a# WIDTH $end
$var reg 1 > ALU_Done $end
$var reg 1 b# start_d $end
$var reg 2 c# y [1:0] $end
$var reg 2 d# y_next [1:0] $end
$var integer 32 e# raw [31:0] $end
$var integer 32 f# tmp [31:0] $end
$scope function norm_bal $end
$var integer 32 g# m [31:0] $end
$var integer 32 h# r [31:0] $end
$var integer 32 i# val [31:0] $end
$upscope $end
$scope function norm_std $end
$var integer 32 j# m [31:0] $end
$var integer 32 k# val [31:0] $end
$upscope $end
$upscope $end
$scope module u_slice1 $end
$var wire 1 Y ALU_EN $end
$var wire 3 l# a [2:0] $end
$var wire 3 m# b [2:0] $end
$var wire 1 * clk $end
$var wire 2 n# op_sel [1:0] $end
$var wire 1 + rst_n $end
$var parameter 32 o# CRNS_EN $end
$var parameter 32 p# MODULUS $end
$var parameter 32 q# WIDTH $end
$var reg 1 = ALU_Done $end
$var reg 1 r# start_d $end
$var reg 3 s# y [2:0] $end
$var reg 3 t# y_next [2:0] $end
$var integer 32 u# raw [31:0] $end
$var integer 32 v# tmp [31:0] $end
$scope function norm_bal $end
$var integer 32 w# m [31:0] $end
$var integer 32 x# r [31:0] $end
$var integer 32 y# val [31:0] $end
$upscope $end
$scope function norm_std $end
$var integer 32 z# m [31:0] $end
$var integer 32 {# val [31:0] $end
$upscope $end
$upscope $end
$scope module u_slice2 $end
$var wire 1 Y ALU_EN $end
$var wire 3 |# a [2:0] $end
$var wire 3 }# b [2:0] $end
$var wire 1 * clk $end
$var wire 2 ~# op_sel [1:0] $end
$var wire 1 + rst_n $end
$var parameter 32 !$ CRNS_EN $end
$var parameter 32 "$ MODULUS $end
$var parameter 32 #$ WIDTH $end
$var reg 1 < ALU_Done $end
$var reg 1 $$ start_d $end
$var reg 3 %$ y [2:0] $end
$var reg 3 &$ y_next [2:0] $end
$var integer 32 '$ raw [31:0] $end
$var integer 32 ($ tmp [31:0] $end
$scope function norm_bal $end
$var integer 32 )$ m [31:0] $end
$var integer 32 *$ r [31:0] $end
$var integer 32 +$ val [31:0] $end
$upscope $end
$scope function norm_std $end
$var integer 32 ,$ m [31:0] $end
$var integer 32 -$ val [31:0] $end
$upscope $end
$upscope $end
$scope module u_slice3 $end
$var wire 1 Y ALU_EN $end
$var wire 4 .$ a [3:0] $end
$var wire 4 /$ b [3:0] $end
$var wire 1 * clk $end
$var wire 2 0$ op_sel [1:0] $end
$var wire 1 + rst_n $end
$var parameter 32 1$ CRNS_EN $end
$var parameter 32 2$ MODULUS $end
$var parameter 32 3$ WIDTH $end
$var reg 1 ; ALU_Done $end
$var reg 1 4$ start_d $end
$var reg 4 5$ y [3:0] $end
$var reg 4 6$ y_next [3:0] $end
$var integer 32 7$ raw [31:0] $end
$var integer 32 8$ tmp [31:0] $end
$scope function norm_bal $end
$var integer 32 9$ m [31:0] $end
$var integer 32 :$ r [31:0] $end
$var integer 32 ;$ val [31:0] $end
$upscope $end
$scope function norm_std $end
$var integer 32 <$ m [31:0] $end
$var integer 32 =$ val [31:0] $end
$upscope $end
$upscope $end
$scope module u_slice4 $end
$var wire 1 Y ALU_EN $end
$var wire 4 >$ a [3:0] $end
$var wire 4 ?$ b [3:0] $end
$var wire 1 * clk $end
$var wire 2 @$ op_sel [1:0] $end
$var wire 1 + rst_n $end
$var parameter 32 A$ CRNS_EN $end
$var parameter 32 B$ MODULUS $end
$var parameter 32 C$ WIDTH $end
$var reg 1 : ALU_Done $end
$var reg 1 D$ start_d $end
$var reg 4 E$ y [3:0] $end
$var reg 4 F$ y_next [3:0] $end
$var integer 32 G$ raw [31:0] $end
$var integer 32 H$ tmp [31:0] $end
$scope function norm_bal $end
$var integer 32 I$ m [31:0] $end
$var integer 32 J$ r [31:0] $end
$var integer 32 K$ val [31:0] $end
$upscope $end
$scope function norm_std $end
$var integer 32 L$ m [31:0] $end
$var integer 32 M$ val [31:0] $end
$upscope $end
$upscope $end
$scope module u_slice5 $end
$var wire 1 Y ALU_EN $end
$var wire 5 N$ a [4:0] $end
$var wire 5 O$ b [4:0] $end
$var wire 1 * clk $end
$var wire 2 P$ op_sel [1:0] $end
$var wire 1 + rst_n $end
$var parameter 32 Q$ CRNS_EN $end
$var parameter 32 R$ MODULUS $end
$var parameter 32 S$ WIDTH $end
$var reg 1 9 ALU_Done $end
$var reg 1 T$ start_d $end
$var reg 5 U$ y [4:0] $end
$var reg 5 V$ y_next [4:0] $end
$var integer 32 W$ raw [31:0] $end
$var integer 32 X$ tmp [31:0] $end
$scope function norm_bal $end
$var integer 32 Y$ m [31:0] $end
$var integer 32 Z$ r [31:0] $end
$var integer 32 [$ val [31:0] $end
$upscope $end
$scope function norm_std $end
$var integer 32 \$ m [31:0] $end
$var integer 32 ]$ val [31:0] $end
$upscope $end
$upscope $end
$upscope $end
$scope task run_fault_test_base_lane $end
$var reg 16 ^$ a [15:0] $end
$var reg 16 _$ b [15:0] $end
$var reg 4 `$ corrupted_r3 [3:0] $end
$var reg 16 a$ expected_x [15:0] $end
$var reg 256 b$ name [255:0] $end
$var reg 2 c$ op [1:0] $end
$var reg 4 d$ original_r3 [3:0] $end
$upscope $end
$scope task run_fault_test_red13 $end
$var reg 16 e$ a [15:0] $end
$var reg 16 f$ b [15:0] $end
$var reg 4 g$ corrupted_r4 [3:0] $end
$var reg 16 h$ expected_x [15:0] $end
$var reg 256 i$ name [255:0] $end
$var reg 2 j$ op [1:0] $end
$upscope $end
$scope task run_fault_test_red17 $end
$var reg 16 k$ a [15:0] $end
$var reg 16 l$ b [15:0] $end
$var reg 5 m$ corrupted_r5 [4:0] $end
$var reg 16 n$ expected_x [15:0] $end
$var reg 256 o$ name [255:0] $end
$var reg 2 p$ op [1:0] $end
$upscope $end
$scope task run_test $end
$var reg 16 q$ a [15:0] $end
$var reg 16 r$ b [15:0] $end
$var reg 1 s$ expected_corr $end
$var reg 1 t$ expected_err $end
$var reg 1 u$ expected_valid $end
$var reg 16 v$ expected_x [15:0] $end
$var reg 256 w$ name [255:0] $end
$var reg 2 x$ op [1:0] $end
$upscope $end
$upscope $end
$enddefinitions $end
$comment Show the parameter values. $end
$dumpall
b101 S$
b10001 R$
b1 Q$
b100 C$
b1101 B$
b1 A$
b100 3$
b1011 2$
b1 1$
b11 #$
b111 "$
b1 !$
b11 q#
b101 p#
b1 o#
b10 a#
b11 `#
b1 _#
b100 N#
b11 M#
b11 L#
b10 K#
b100 J#
b11 I#
b10 H#
b1 G#
b0 F#
b101 E#
b10000 D#
b10010000011 C#
b1101001 B#
b1111 A#
b11 @#
b1011 ?#
b111 >#
b101 =#
b11 <#
b10 ;#
b1 :#
b10 9#
b1001000001 8#
b10000 w"
b101 v"
b100 u"
b100 t"
b11 s"
b11 r"
b10 q"
b10001 p"
b1101 o"
b1011 n"
b111 m"
b101 l"
b11 k"
b1 j"
b10000 W"
b101 V"
b100 U"
b100 T"
b11 S"
b11 R"
b10 Q"
b10001 P"
b1101 O"
b1011 N"
b111 M"
b101 L"
b11 K"
b1 J"
b100 F"
b101 E"
b1 D"
b0 C"
b10 B"
b110 A"
b11 @"
b101 $"
b100 #"
b100 ""
b11 !"
b11 ~
b10 }
b10000 |
b10010000011 {
b1001000001 z
b10000 h
b101 g
b100 f
b100 e
b11 d
b11 c
b10 b
b10001 a
b1101 `
b1011 _
b111 ^
b101 ]
b11 \
b1 [
b1 Z
$end
#0
$dumpvars
bx x$
bx w$
bx v$
xu$
xt$
xs$
bx r$
bx q$
bx p$
bx o$
bx n$
bx m$
bx l$
bx k$
bx j$
bx i$
bx h$
bx g$
bx f$
bx e$
bx d$
bx c$
bx b$
bx a$
bx `$
bx _$
bx ^$
bx ]$
bx \$
bx [$
bx Z$
bx Y$
bx X$
bx W$
bx V$
bx U$
xT$
bx P$
bx O$
bx N$
bx M$
bx L$
bx K$
bx J$
bx I$
bx H$
bx G$
bx F$
bx E$
xD$
bx @$
bx ?$
bx >$
bx =$
bx <$
bx ;$
bx :$
bx 9$
bx 8$
bx 7$
bx 6$
bx 5$
x4$
bx 0$
bx /$
bx .$
bx -$
bx ,$
bx +$
bx *$
bx )$
bx ($
bx '$
bx &$
bx %$
x$$
bx ~#
bx }#
bx |#
bx {#
bx z#
bx y#
bx x#
bx w#
bx v#
bx u#
bx t#
bx s#
xr#
bx n#
bx m#
bx l#
bx k#
bx j#
bx i#
bx h#
bx g#
bx f#
bx e#
bx d#
bx c#
xb#
bx ^#
bx ]#
bx \#
bx [#
bx Z#
b111 Y#
bx X#
xW#
bx V#
bx U#
bx T#
bx S#
bx R#
bx Q#
bx P#
bx O#
bx 7#
bx 6#
bx 5#
bx 4#
bx 3#
bx 2#
bx 1#
bx 0#
bx /#
bx .#
bx -#
bx ,#
0+#
bx *#
bx )#
bx (#
bx '#
bx &#
bx %#
bx $#
bx ##
bx "#
bx !#
bx ~"
bx }"
bx |"
bx {"
bx z"
bx y"
bx x"
bx i"
bx h"
bx g"
bx f"
bx e"
bx d"
bx c"
bx b"
bx a"
bx `"
bx _"
bx ^"
bx ]"
bx \"
bx ["
bx Z"
bx Y"
bx X"
bx I"
bx H"
b0 G"
x?"
1>"
bx ="
bx <"
bx ;"
bx :"
bx 9"
bx 8"
bx 7"
bx 6"
bx 5"
bx 4"
bx 3"
bx 2"
bx 1"
bx 0"
bx /"
bx ."
bx -"
bx ,"
bx +"
bx *"
x)"
x("
x'"
x&"
bx %"
bx y
bx x
bx w
bx v
bx u
bx t
bx s
bx r
xq
bx p
bx o
xn
xm
bx l
bx k
bx j
bx i
0Y
0X
bx W
xV
xU
xT
0S
xR
0Q
xP
0O
0N
xM
bx L
bx K
bx J
bx I
bx H
bx G
bx F
bx E
bx D
bx C
bx B
bx A
bx @
bx ?
x>
x=
x<
x;
x:
x9
bx 8
bx 7
bx 6
bx 5
bx 4
bx 3
bx 2
b0 1
x0
0/
b0 .
b0 -
x,
0+
0*
0)
b0 (
b0 '
b0 &
x%
0$
x#
x"
bx !
$end
#5000
00
0,
0?"
b0 W
b0 ="
b0 H"
0U
0T
0>
0b#
0=
0r#
0<
0$$
0;
04$
0:
0D$
09
0T$
0P
0W#
b0 X#
b0 p
b0 l
b0 j
0"
0q
0%
0m
0#
0n
b0 !
b0 2
b0 r
1*
#10000
0*
#15000
1*
#20000
0*
#25000
1*
#30000
0*
#35000
1*
#40000
0*
#45000
1*
#50000
1+
0*
#55000
1*
#60000
b111 '
b111 .
b1010 &
b1010 -
b10011010101001001000011010111110100000101000100010001000101111100110001001100000101111100110111 w$
1u$
0s$
0t$
b10001 v$
b111 r$
b1010 q$
b0 x$
0*
#65000
b111 l
b1010 j
1*
#70000
b1 G"
1)
0*
#75000
1Q
b10 G"
b1 W
b1 ="
b1 H"
1*
#80000
b10 G"
0)
0*
#85000
1S
0Q
b11 j#
b11 g#
bx d#
bx f#
bx e#
b101 z#
b101 w#
bx t#
bx v#
bx u#
b111 ,$
b111 )$
bx &$
bx ($
bx '$
b1011 <$
b1011 9$
bx 6$
bx 8$
bx 7$
b1101 L$
b1101 I$
bx F$
bx H$
bx G$
b10001 \$
b10001 Y$
bx V$
bx X$
bx W$
b10 W
b10 ="
b10 H"
b0 o
b0 ^#
b0 n#
b0 ~#
b0 0$
b0 @$
b0 P$
b111 k
b111 i"
b1010 i
b1010 I"
1*
#90000
0*
#95000
b11 G"
10
b0 Z$
b0 ]$
b0 [$
b0 V$
b0 X$
b0 W$
b100 J$
b11111111111111111111111111110111 M$
b11111111111111111111111111110111 K$
b100 F$
b100 H$
b11111111111111111111111111110111 G$
b11111111111111111111111111111011 :$
b11111111111111111111111111111011 =$
b11111111111111111111111111111011 ;$
b1011 6$
b11111111111111111111111111111011 8$
b11111111111111111111111111111011 7$
b11 *$
b11 -$
b11 +$
b11 &$
b11 ($
b11 '$
b10 x#
b10 {#
b10 y#
b10 t#
b10 v#
b10 u#
b11111111111111111111111111111111 h#
b10 k#
b10 i#
b11 d#
b11111111111111111111111111111111 f#
b10 e#
1T
b111 ?
b111 }"
b111 O$
b1010 @
b1010 |"
b1010 ?$
b1100 A
b1100 {"
b1100 /$
b0 B
b0 z"
b0 }#
b10 C
b10 y"
b10 m#
b1 D
b1 x"
b1 ]#
1U
b11001 E
b11001 ]"
b11001 N$
b1101 F
b1101 \"
b1101 >$
b1111 G
b1111 ["
b1111 .$
b11 H
b11 Z"
b11 |#
b0 I
b0 Y"
b0 l#
b1 J
b1 X"
b1 \#
b111 %#
b11111111111111111111111111111010 $#
b11111111111111111111111111111100 ##
b0 "#
b10 !#
b1 ~"
b111 '#
b111 *#
b10001 )#
b111 (#
b10001 &#
b11111111111111111111111111111001 c"
b11111111111111111111111111111101 b"
b11111111111111111111111111111111 a"
b11 `"
b0 _"
b1 ^"
b11111111111111111111111111111001 e"
b1010 h"
b10001 g"
b1010 f"
b10001 d"
1*
#100000
0*
#105000
1Y
0S
b11 W
b11 ="
b11 H"
1U
1T
b11111111111111111111111111111001 e"
b10001 g"
b10001 d"
b111 '#
b10001 )#
b10001 &#
1*
#110000
0*
#115000
b10001 K
b10001 %"
1M
1V
1R
1)"
1("
b10001 6"
b10001 <"
b10001 +"
b10001 *"
b10001 4"
b1101111110101 5"
b11011111001 3"
b100 ;"
b1101 :"
b0 1"
b100 0"
b110 /"
b11 ."
b10 -"
b10 ,"
b100 8"
b100 9"
b1101 7"
00
b0 3
b0 s
b0 U$
1T$
b100 4
b100 t
b100 E$
1D$
b1011 5
b1011 u
b1011 1#
b1011 5$
14$
b11 6
b11 v
b11 2#
b11 %$
1$$
b10 7
b10 w
b10 3#
b10 s#
1r#
b11 8
b11 x
b11 4#
b11 c#
1b#
0T
0U
1*
#120000
0*
#125000
b100 G"
1,
1>
1=
1<
1;
1:
19
1*
#130000
0*
#135000
1+#
1O
0Y
b100 W
b100 ="
b100 H"
1*
#140000
0*
#145000
0+#
0b#
0r#
0$$
04$
0D$
0T$
b1 X#
b110 V#
b11 U#
b10 T#
b10 S#
1W#
b110 Z#
b11111111111111111111111111111011 [#
b1011 Y#
1*
#150000
0*
#155000
b10 7#
b0 0#
b0 Z#
b101 Y#
b0 [#
0,
b10 X#
b10 O#
09
0:
0;
0<
0=
0>
1*
#160000
0*
#165000
b10001 6#
b1 /#
b1 Z#
b111 Y#
b1 [#
b11 X#
b10 P#
1*
#170000
0*
#175000
b10001 -#
b10001 ,#
b10001 5#
b0 .#
b10001 Z#
b10010000011 Y#
b10001 [#
b100 X#
b10001 Q#
1*
#180000
0*
#185000
0V
0R
b1101111110101 5"
b11011111001 3"
1'"
b100 ;"
b1101 :"
1&"
b10001 2"
b100 8"
b100 9"
b1101 7"
b101 X#
b10001 L
b10001 y
b10001 R#
1*
#190000
0*
#195000
b101 G"
1?"
b0 X#
1P
1*
#200000
0*
#205000
1N
0O
b110 G"
0?"
b101 W
b101 ="
b101 H"
0P
1*
#210000
0*
#215000
1$
0N
b0 G"
1"
1q
b10001 !
b10001 2
b10001 r
0W#
b110 W
b110 ="
b110 H"
1*
#220000
b101000001 '
b101000001 .
b1111011 &
b1111011 -
b10011010101001001000011010111110100000101000100010001000101111100110001001100100011001101011111001100110011001000110001 w$
b110111100 v$
b101000001 r$
b1111011 q$
0*
#225000
0$
b0 W
b0 ="
b0 H"
b101000001 l
b1111011 j
1*
#230000
b1 G"
1)
0*
#235000
1Q
b10 G"
b1 W
b1 ="
b1 H"
1*
#240000
b10 G"
0)
0*
#245000
1S
0Q
b10 W
b10 ="
b10 H"
b101000001 k
b101000001 i"
b1111011 i
b1111011 I"
1*
#250000
0*
#255000
b11 G"
10
b10 V$
b10 X$
b10 Z$
b10 ]$
b10 [$
b10 W$
b10 J$
b10 M$
b10 K$
b10 F$
b10 H$
b10 G$
b100 :$
b100 =$
b100 ;$
b100 6$
b100 8$
b100 7$
b11111111111111111111111111111100 -$
b11111111111111111111111111111100 +$
b11 &$
b11 ($
b11111111111111111111111111111100 '$
b11111111111111111111111111111111 x#
b11111111111111111111111111111111 {#
b11111111111111111111111111111111 y#
b111 t#
b11111111111111111111111111111111 v#
b11111111111111111111111111111111 u#
b0 h#
b0 k#
b0 i#
b0 d#
b0 f#
b0 e#
1T
b11110 ?
b11110 }"
b11110 O$
b1100 @
b1100 |"
b1100 ?$
b10 A
b10 {"
b10 /$
b111 B
b111 z"
b111 }#
b1 C
b1 y"
b1 m#
b0 D
b0 x"
b0 ]#
1U
b100 E
b100 ]"
b100 N$
b110 F
b110 \"
b110 >$
b10 G
b10 ["
b10 .$
b101 H
b101 Z"
b101 |#
b110 I
b110 Y"
b110 l#
b0 J
b0 X"
b0 \#
b11111111111111111111111111111110 %#
b11111111111111111111111111111100 $#
b10 ##
b11111111111111111111111111111111 "#
b1 !#
b0 ~"
b11111111111111111111111111111110 '#
b101000001 *#
b10001 )#
b101000001 (#
b10001 &#
b100 c"
b110 b"
b10 a"
b11111111111111111111111111111101 `"
b11111111111111111111111111111110 _"
b0 ^"
b100 e"
b1111011 h"
b10001 g"
b1111011 f"
b10001 d"
1*
#260000
0*
#265000
1Y
0S
b11 W
b11 ="
b11 H"
1U
1T
b100 e"
b10001 g"
b10001 d"
b11111111111111111111111111111110 '#
b10001 )#
b10001 &#
1*
#270000
0*
#275000
1V
b110111100 K
b110111100 %"
1R
b110111100 6"
b110111100 <"
b110111100 +"
b110111100 *"
b110111100 4"
b10010010011001 5"
b11011111001 3"
0'"
b1101 :"
0&"
b10 ;"
b10 1"
b10 0"
b100 /"
b100 -"
b0 ,"
b10 8"
b10 9"
b1101 7"
00
b10 3
b10 s
b10 U$
1T$
b10 4
b10 t
b10 E$
1D$
b100 5
b100 u
b100 1#
b100 5$
14$
1$$
b111 7
b111 w
b111 3#
b111 s#
1r#
b0 8
b0 x
b0 4#
b0 c#
1b#
0T
0U
1*
#280000
0*
#285000
b100 G"
1,
1>
1=
1<
1;
1:
19
1*
#290000
0*
#295000
1+#
1O
0Y
b100 W
b100 ="
b100 H"
1*
#300000
0*
#305000
b11001101101 -#
b1011110000 ,#
b1011110000 5#
b1110 7#
b111 .#
b100 0#
0+#
0b#
0r#
0$$
04$
0D$
0T$
b1 X#
b100 V#
b100 T#
b0 S#
1W#
b1011110000 Z#
b1011110000 [#
b10010000011 Y#
1*
#310000
0*
