runs/23446706333/precheck/rtl/rtl_precheck.vcd
$date
	Mon Mar 23 15:56:39 2026
$end
$version
	Icarus Verilog
$end
$timescale
	1ps
$end
$scope module tb_rns_top_crt $end
$var wire 16 ! X_out [15:0] $end
$var wire 1 " Done $end
$var reg 16 # A_in [15:0] $end
$var reg 16 $ B_in [15:0] $end
$var reg 2 % Op_Sel [1:0] $end
$var reg 1 & Start $end
$var reg 1 ' clk $end
$var reg 1 ( rst_n $end
$scope module dut $end
$var wire 1 ) ALU_Done_all $end
$var wire 16 * A_in [15:0] $end
$var wire 16 + B_in [15:0] $end
$var wire 1 , Encode_Done_all $end
$var wire 1 - MRC_Done $end
$var wire 2 . Op_Sel [1:0] $end
$var wire 1 & Start $end
$var wire 16 / X_out [15:0] $end
$var wire 1 ' clk $end
$var wire 1 ( rst_n $end
$var wire 4 0 z_r3 [3:0] $end
$var wire 3 1 z_r2 [2:0] $end
$var wire 3 2 z_r1 [2:0] $end
$var wire 2 3 z_r0 [1:0] $end
$var wire 1 4 slice3_done $end
$var wire 1 5 slice2_done $end
$var wire 1 6 slice1_done $end
$var wire 1 7 slice0_done $end
$var wire 4 8 b_r3 [3:0] $end
$var wire 3 9 b_r2 [2:0] $end
$var wire 3 : b_r1 [2:0] $end
$var wire 2 ; b_r0 [1:0] $end
$var wire 4 < a_r3 [3:0] $end
$var wire 3 = a_r2 [2:0] $end
$var wire 3 > a_r1 [2:0] $end
$var wire 2 ? a_r0 [1:0] $end
$var wire 16 @ X_crt [15:0] $end
$var wire 1 A Out_EN $end
$var wire 1 B MRC_Start $end
$var wire 1 C Load_IN $end
$var wire 1 D Encode_EN $end
$var wire 1 E Encode_Done_B $end
$var wire 1 F Encode_Done_A $end
$var wire 1 " Done $end
$var wire 3 G CU_state_dbg [2:0] $end
$var wire 1 H CRT_Start $end
$var wire 1 I CRT_Done $end
$var wire 1 J ALU_EN $end
$var parameter 32 K M0 $end
$var parameter 32 L M1 $end
$var parameter 32 M M2 $end
$var parameter 32 N M3 $end
$var parameter 32 O W0 $end
$var parameter 32 P W1 $end
$var parameter 32 Q W2 $end
$var parameter 32 R W3 $end
$var parameter 32 S WIDTH_IN $end
$var reg 16 T A_reg [15:0] $end
$var reg 16 U B_reg [15:0] $end
$var reg 2 V OpSel_reg [1:0] $end
$var reg 16 W X_reg [15:0] $end
$scope module u_crt $end
$var wire 1 ' clk $end
$var wire 1 ( rst_n $end
$var wire 4 X r3 [3:0] $end
$var wire 3 Y r2 [2:0] $end
$var wire 3 Z r1 [2:0] $end
$var wire 2 [ r0 [1:0] $end
$var wire 1 H CRT_Start $end
$var parameter 32 \ INV0 $end
$var parameter 32 ] INV1 $end
$var parameter 32 ^ INV2 $end
$var parameter 32 _ INV3 $end
$var parameter 32 ` M $end
$var parameter 32 a M0 $end
$var parameter 32 b M1 $end
$var parameter 32 c M2 $end
$var parameter 32 d M3 $end
$var parameter 32 e OUT_WIDTH $end
$var parameter 32 f W0 $end
$var parameter 32 g W1 $end
$var parameter 32 h W2 $end
$var parameter 32 i W3 $end
$var reg 1 I CRT_Done $end
$var reg 16 j X_next [15:0] $end
$var reg 16 k X_out [15:0] $end
$var reg 1 l start_d $end
$var integer 32 m term0 [31:0] $end
$var integer 32 n term1 [31:0] $end
$var integer 32 o term2 [31:0] $end
$var integer 32 p term3 [31:0] $end
$var integer 32 q total [31:0] $end
$upscope $end
$scope module u_cu $end
$var wire 1 ) ALU_Done $end
$var wire 1 I CRT_Done $end
$var wire 3 r CU_state_dbg [2:0] $end
$var wire 1 , Encode_Done $end
$var wire 1 - MRC_Done $end
$var wire 1 s Recon_Mode $end
$var wire 1 & Start $end
$var wire 1 ' clk $end
$var wire 1 ( rst_n $end
$var wire 1 t recon_done_sel $end
$var parameter 3 u S_ALU $end
$var parameter 3 v S_DONE $end
$var parameter 3 w S_ENCODE $end
$var parameter 3 x S_IDLE $end
$var parameter 3 y S_LOAD $end
$var parameter 3 z S_OUT $end
$var parameter 3 { S_RECON $end
$var reg 1 J ALU_EN $end
$var reg 1 H CRT_Start $end
$var reg 1 " Done $end
$var reg 1 D Encode_EN $end
$var reg 1 C Load_IN $end
$var reg 1 B MRC_Start $end
$var reg 1 A Out_EN $end
$var reg 3 | next_state [2:0] $end
$var reg 3 } state [2:0] $end
$upscope $end
$scope module u_enc_a $end
$var wire 1 D Encode_EN $end
$var wire 1 ' clk $end
$var wire 1 ( rst_n $end
$var wire 16 ~ x [15:0] $end
$var parameter 32 !" M0 $end
$var parameter 32 "" M1 $end
$var parameter 32 #" M2 $end
$var parameter 32 $" M3 $end
$var parameter 32 %" W0 $end
$var parameter 32 &" W1 $end
$var parameter 32 '" W2 $end
$var parameter 32 (" W3 $end
$var parameter 32 )" WIDTH_IN $end
$var reg 1 F Encode_Done $end
$var reg 2 *" r0 [1:0] $end
$var reg 3 +" r1 [2:0] $end
$var reg 3 ," r2 [2:0] $end
$var reg 4 -" r3 [3:0] $end
$var integer 32 ." tmp0 [31:0] $end
$var integer 32 /" tmp1 [31:0] $end
$var integer 32 0" tmp2 [31:0] $end
$var integer 32 1" tmp3 [31:0] $end
$upscope $end
$scope module u_enc_b $end
$var wire 1 D Encode_EN $end
$var wire 1 ' clk $end
$var wire 1 ( rst_n $end
$var wire 16 2" x [15:0] $end
$var parameter 32 3" M0 $end
$var parameter 32 4" M1 $end
$var parameter 32 5" M2 $end
$var parameter 32 6" M3 $end
$var parameter 32 7" W0 $end
$var parameter 32 8" W1 $end
$var parameter 32 9" W2 $end
$var parameter 32 :" W3 $end
$var parameter 32 ;" WIDTH_IN $end
$var reg 1 E Encode_Done $end
$var reg 2 <" r0 [1:0] $end
$var reg 3 =" r1 [2:0] $end
$var reg 3 >" r2 [2:0] $end
$var reg 4 ?" r3 [3:0] $end
$var integer 32 @" tmp0 [31:0] $end
$var integer 32 A" tmp1 [31:0] $end
$var integer 32 B" tmp2 [31:0] $end
$var integer 32 C" tmp3 [31:0] $end
$upscope $end
$scope module u_slice0 $end
$var wire 1 J ALU_EN $end
$var wire 2 D" a [1:0] $end
$var wire 2 E" b [1:0] $end
$var wire 1 ' clk $end
$var wire 2 F" op_sel [1:0] $end
$var wire 1 ( rst_n $end
$var parameter 32 G" MODULUS $end
$var parameter 32 H" WIDTH $end
$var reg 1 7 ALU_Done $end
$var reg 1 I" start_d $end
$var reg 2 J" y [1:0] $end
$var reg 2 K" y_next [1:0] $end
$var integer 32 L" tmp [31:0] $end
$upscope $end
$scope module u_slice1 $end
$var wire 1 J ALU_EN $end
$var wire 3 M" a [2:0] $end
$var wire 3 N" b [2:0] $end
$var wire 1 ' clk $end
$var wire 2 O" op_sel [1:0] $end
$var wire 1 ( rst_n $end
$var parameter 32 P" MODULUS $end
$var parameter 32 Q" WIDTH $end
$var reg 1 6 ALU_Done $end
$var reg 1 R" start_d $end
$var reg 3 S" y [2:0] $end
$var reg 3 T" y_next [2:0] $end
$var integer 32 U" tmp [31:0] $end
$upscope $end
$scope module u_slice2 $end
$var wire 1 J ALU_EN $end
$var wire 3 V" a [2:0] $end
$var wire 3 W" b [2:0] $end
$var wire 1 ' clk $end
$var wire 2 X" op_sel [1:0] $end
$var wire 1 ( rst_n $end
$var parameter 32 Y" MODULUS $end
$var parameter 32 Z" WIDTH $end
$var reg 1 5 ALU_Done $end
$var reg 1 [" start_d $end
$var reg 3 \" y [2:0] $end
$var reg 3 ]" y_next [2:0] $end
$var integer 32 ^" tmp [31:0] $end
$upscope $end
$scope module u_slice3 $end
$var wire 1 J ALU_EN $end
$var wire 4 _" a [3:0] $end
$var wire 4 `" b [3:0] $end
$var wire 1 ' clk $end
$var wire 2 a" op_sel [1:0] $end
$var wire 1 ( rst_n $end
$var parameter 32 b" MODULUS $end
$var parameter 32 c" WIDTH $end
$var reg 1 4 ALU_Done $end
$var reg 1 d" start_d $end
$var reg 4 e" y [3:0] $end
$var reg 4 f" y_next [3:0] $end
$var integer 32 g" tmp [31:0] $end
$upscope $end
$upscope $end
$scope task run_test $end
$var reg 16 h" a [15:0] $end
$var reg 16 i" b [15:0] $end
$var reg 16 j" expected [15:0] $end
$var reg 128 k" name [127:0] $end
$var reg 2 l" op [1:0] $end
$upscope $end
$upscope $end
$enddefinitions $end
$comment Show the parameter values. $end
$dumpall
b100 c"
b1011 b"
b11 Z"
b111 Y"
b11 Q"
b101 P"
b10 H"
b11 G"
b10000 ;"
b100 :"
b11 9"
b11 8"
b10 7"
b1011 6"
b111 5"
b101 4"
b11 3"
b10000 )"
b100 ("
b11 '"
b11 &"
b10 %"
b1011 $"
b111 #"
b101 ""
b11 !"
b100 {
b101 z
b1 y
b0 x
b10 w
b110 v
b11 u
b100 i
b11 h
b11 g
b10 f
b10000 e
b1101001 d
b10100101 c
b11100111 b
b110000001 a
b10010000011 `
b10 _
b10 ^
b1 ]
b1 \
b10000 S
b100 R
b11 Q
b11 P
b10 O
b1011 N
b111 M
b101 L
b11 K
$end
#0
$dumpvars
bx l"
bx k"
bx j"
bx i"
bx h"
b0 g"
b0 f"
b0 e"
0d"
b0 a"
b0 `"
b0 _"
b0 ^"
b0 ]"
b0 \"
0["
b0 X"
b0 W"
b0 V"
b0 U"
b0 T"
b0 S"
0R"
b0 O"
b0 N"
b0 M"
b0 L"
b0 K"
b0 J"
0I"
b0 F"
b0 E"
b0 D"
bx C"
bx B"
bx A"
bx @"
b0 ?"
b0 >"
b0 ="
b0 <"
b0 2"
bx 1"
bx 0"
bx /"
bx ."
b0 -"
b0 ,"
b0 +"
b0 *"
b0 ~
b0 }
b0 |
0t
0s
b0 r
b0 q
b0 p
b0 o
b0 n
b0 m
0l
b0 k
b0 j
b0 [
b0 Z
b0 Y
b0 X
b0 W
b0 V
b0 U
b0 T
0J
0I
0H
b0 G
0F
0E
0D
0C
0B
0A
b0 @
b0 ?
b0 >
b0 =
b0 <
b0 ;
b0 :
b0 9
b0 8
07
06
05
04
b0 3
b0 2
b0 1
b0 0
b0 /
b0 .
0-
0,
b0 +
b0 *
0)
0(
0'
0&
b0 %
b0 $
b0 #
0"
b0 !
$end
#5000
1'
#10000
0'
#15000
1'
#20000
0'
#25000
1'
#30000
0'
#35000
1'
#40000
0'
#45000
1'
#50000
1(
0'
#55000
1'
#60000
b111 $
b111 +
b1010 #
b1010 *
b100000101000100010001000101111100110001001100000101111100110111 k"
b10001 j"
b111 i"
b1010 h"
b0 l"
0'
#65000
1'
#70000
b1 |
1&
0'
#75000
1C
b10 |
b1 G
b1 r
b1 }
1'
#80000
b10 |
0&
0'
#85000
1D
0C
b111 U
b111 2"
b1010 T
b1010 ~
b10 G
b10 r
b10 }
1'
#90000
0'
#95000
b11 |
b11 ]"
b11 ^"
1,
b110 f"
b110 g"
b10 T"
b10 U"
b10 K"
b10 L"
1F
b1010 <
b1010 -"
b1010 _"
b11 =
b11 ,"
b11 V"
b1 ?
b1 *"
b1 D"
1E
b111 8
b111 ?"
b111 `"
b10 :
b10 ="
b10 N"
b1 ;
b1 <"
b1 E"
b1010 1"
b11 0"
b0 /"
b1 ."
b111 C"
b0 B"
b10 A"
b1 @"
1'
#100000
0'
#105000
1J
0D
1E
1F
b11 G
b11 r
b11 }
1'
#110000
0'
#115000
0,
b10001 j
b10001 q
b10011101100 p
b1111011110 o
b111001110 n
b1100000010 m
0F
0E
b10 3
b10 [
b10 J"
1I"
b10 2
b10 Z
b10 S"
1R"
b11 1
b11 Y
b11 \"
1["
b110 0
b110 X
b110 e"
1d"
1'
#120000
0'
#125000
b100 |
1)
14
15
16
17
1'
#130000
0'
#135000
1H
0J
b100 G
b100 r
b100 }
1'
#140000
0'
#145000
b10001 @
b10001 k
1l
0d"
0["
0R"
0I"
1'
#150000
0'
#155000
b101 |
0)
1t
07
06
05
04
1I
1'
#160000
0'
#165000
1A
0H
b110 |
b101 G
b101 r
b101 }
1'
#170000
0'
#175000
1"
0A
b0 |
b110 G
b110 r
b110 }
0l
b10001 !
b10001 /
b10001 W
1'
#180000
b100101100 $
b100101100 +
b1111101000 #
b1111101000 *
b100000101000100010001000101111101010111010100100100000101010000 k"
b10010001 j"
b100101100 i"
b1111101000 h"
0'
#185000
0t
0"
0I
b0 G
b0 r
b0 }
1'
#190000
b1 |
1&
0'
#195000
1C
b10 |
b1 G
b1 r
b1 }
1'
#200000
b10 |
0&
0'
#205000
1D
0C
b100101100 U
b100101100 2"
b1111101000 T
b1111101000 ~
b10 G
b10 r
b10 }
1'
#210000
0'
#215000
b11 |
1,
b10 g"
b10 f"
b101 ^"
b101 ]"
b0 U"
b0 T"
b1 L"
b1 K"
1F
b110 =
b110 ,"
b110 V"
1E
b11 8
b11 ?"
b11 `"
b110 9
b110 >"
b110 W"
b0 :
b0 ="
b0 N"
b0 ;
b0 <"
b0 E"
b110 0"
b11 C"
b110 B"
b0 A"
b0 @"
1'
#220000
0'
#225000
1J
0D
1E
1F
b11 G
b11 r
b11 }
1'
#230000
0'
#235000
0,
b10010001 j
b10010001 q
b110100100 p
b11001110010 o
b0 n
b110000001 m
0F
0E
b1 3
b1 [
b1 J"
1I"
b0 2
b0 Z
b0 S"
1R"
b101 1
b101 Y
b101 \"
1["
b10 0
b10 X
b10 e"
1d"
1'
#240000
0'
#245000
b100 |
1)
14
15
16
17
1'
#250000
0'
#255000
1H
0J
b100 G
b100 r
b100 }
1'
#260000
0'
#265000
b10010001 @
b10010001 k
1l
0d"
0["
0R"
0I"
1'
#270000
0'
#275000
b101 |
0)
1t
07
06
05
04
1I
1'
#280000
0'
#285000
1A
0H
b110 |
b101 G
b101 r
b101 }
1'
#290000
0'
#295000
1"
0A
b0 |
b110 G
b110 r
b110 }
0l
b10010001 !
b10010001 /
b10010001 W
1'
#300000
b110010 $
b110010 +
b11001000 #
b11001000 *
b1 %
b1 .
b1010011010101010100001001011111001100100011000000110000010111110011010100110000 k"
b10010110 j"
b110010 i"
b11001000 h"
b1 l"
0'
#305000
0t
0"
0I
b0 G
b0 r
b0 }
1'
#310000
b1 |
1&
0'
#315000
1C
b10 |
b1 G
b1 r
b1 }
1'
#320000
b10 |
0&
0'
#325000
b1 L"
b1 K"
b0 U"
b0 ^"
b0 ]"
b111 g"
b111 f"
1D
0C
b1 V
b1 F"
b1 O"
b1 X"
b1 a"
b110010 U
b110010 2"
b11001000 T
b11001000 ~
b10 G
b10 r
b10 }
1'
#330000
0'
#335000
b11 |
1,
b111 g"
b111 f"
b11 ]"
b11 ^"
b0 L"
b0 K"
1F
b10 <
b10 -"
b10 _"
b100 =
b100 ,"
b100 V"
b10 ?
b10 *"
b10 D"
1E
b110 8
b110 ?"
b110 `"
b1 9
b1 >"
b1 W"
b10 ;
b10 <"
b10 E"
b10 1"
b100 0"
b10 ."
b110 C"
b1 B"
b10 @"
1'
#340000
0'
#345000
1J
0D
1E
1F
b11 G
b11 r
b11 }
1'
#350000
0'
#355000
0,
b10010110 j
b10010110 q
b10110111110 p
b1111011110 o
b0 m
0F
0E
b0 3
b0 [
b0 J"
1I"
1R"
b11 1
b11 Y
b11 \"
1["
b111 0
b111 X
b111 e"
1d"
1'
#360000
0'
#365000
b100 |
1)
14
15
16
17
1'
#370000
0'
#375000
1H
0J
b100 G
b100 r
b100 }
1'
#380000
0'
#385000
b10010110 @
b10010110 k
1l
0d"
0["
0R"
0I"
1'
#390000
0'
#395000
b101 |
0)
1t
07
06
05
04
1I
1'
#400000
0'
#405000
1A
0H
b110 |
b101 G
b101 r
b101 }
1'
#410000
0'
#415000
1"
0A
b0 |
b110 G
b110 r
b110 }
0l
b10010110 !
b10010110 /
b10010110 W
1'
#420000
b11001000 $
b11001000 +
b110010 #
b110010 *
b101001101010101010000100101111101010111010100100100000101010000 k"
b1111101101 j"
b11001000 i"
b110010 h"
0'
#425000
0t
0"
0I
b0 G
b0 r
b0 }
1'
#430000
b1 |
1&
0'
#435000
1C
b10 |
b1 G
b1 r
b1 }
1'
#440000
b10 |
0&
0'
#445000
1D
0C
b11001000 U
b11001000 2"
b110010 T
b110010 ~
b10 G
b10 r
b10 }
1'
#450000
0'
#455000
b11 |
1,
b100 g"
b100 f"
b100 ^"
b100 ]"
1F
b110 <
b110 -"
b110 _"
b1 =
b1 ,"
b1 V"
1E
b10 8
b10 ?"
b10 `"
b100 9
b100 >"
b100 W"
b110 1"
b1 0"
b10 C"
b100 B"
1'
#460000
0'
#465000
1J
0D
1E
1F
b11 G
b11 r
b11 }
1'
#470000
0'
#475000
0,
b1111101101 j
b1111101101 q
b1101001000 p
b10100101000 o
0F
0E
1I"
1R"
b100 1
b100 Y
b100 \"
1["
b100 0
b100 X
b100 e"
1d"
1'
#480000
0'
#485000
b100 |
1)
14
15
16
17
1'
#490000
0'
#495000
1H
0J
b100 G
b100 r
b100 }
1'
#500000
0'
#505000
b1111101101 @
b1111101101 k
1l
0d"
0["
0R"
0I"
1'
#510000
0'
#515000
b101 |
0)
1t
07
06
05
04
1I
1'
#520000
0'
#525000
1A
0H
b110 |
b101 G
b101 r
b101 }
1'
#530000
0'
#535000
1"
0A
b0 |
b110 G
b110 r
b110 }
0l
b1111101101 !
b1111101101 /
b1111101101 W
1'
#540000
b10001 $
b10001 +
b1011 #
b1011 *
b10 %
b10 .
b10011010101010101001100010111110011000100110001010111110011000100110111 k"
b10111011 j"
b10001 i"
b1011 h"
b10 l"
0'
#545000
0t
0"
0I
b0 G
b0 r
b0 }
1'
#550000
b1 |
1&
0'
#555000
1C
b10 |
b1 G
b1 r
b1 }
1'
#560000
b10 |
0&
0'
#565000
b1 K"
b1 L"
b100 ^"
b100 ]"
b1 g"
b1 f"
1D
0C
b10 V
b10 F"
b10 O"
b10 X"
b10 a"
b10001 U
b10001 2"
b1011 T
b1011 ~
b10 G
b10 r
b10 }
1'
#570000
0'
#575000
b11 |
1,
b0 g"
b0 f"
b101 ^"
b101 ]"
b10 T"
b10 U"
1F
b0 <
b0 -"
b0 _"
b100 =
b100 ,"
b100 V"
b1 >
b1 +"
b1 M"
1E
b110 8
b110 ?"
b110 `"
b11 9
b11 >"
b11 W"
b10 :
b10 ="
b10 N"
b0 1"
b100 0"
b1 /"
b110 C"
b11 B"
b10 A"
1'
#580000
0'
#585000
1J
0D
1E
1F
b11 G
b11 r
b11 }
1'
#590000
0'
#595000
0,
b111001110 n
b110000001 m
b10111011 j
b10111011 q
b0 p
b11001110010 o
0F
0E
b1 3
b1 [
b1 J"
1I"
b10 2
b10 Z
b10 S"
1R"
b101 1
b101 Y
b101 \"
1["
b0 0
b0 X
b0 e"
1d"
1'
#600000
0'
#605000
b100 |
1)
14
15
16
17
1'
#610000
0'
#615000
1H
0J
b100 G
b100 r
b100 }
1'
#620000
0'
#625000
b10111011 @
b10111011 k
1l
0d"
0["
0R"
0I"
1'
#630000
0'
#635000
b101 |
0)
1t
07
06
05
04
1I
1'
#640000
0'
#645000
1A
0H
b110 |
b101 G
b101 r
b101 }
1'
#650000
0'
#655000
1"
0A
b0 |
b110 G
b110 r
b110 }
0l
b10111011 !
b10111011 /
b10111011 W
1'
#660000
b101000 $
b101000 +
b101000 #
b101000 *
b100110101010101010011000101111101010111010100100100000101010000 k"
b110111101 j"
b101000 i"
b101000 h"
0'
#665000
0t
0"
0I
b0 G
b0 r
b0 }
1'
#670000
b1 |
1&
0'
#675000
1C
b10 |
b1 G
b1 r
b1 }
1'
#680000
b10 |
0&
0'
#685000
1D
0C
b101000 U
b101000 2"
b101000 T
b101000 ~
b10 G
b10 r
b10 }
1'
#690000
0'
#695000
b11 |
1,
b101 f"
b101 g"
b100 ^"
b100 ]"
b0 U"
b0 T"
b1 L"
b1 K"
1F
b111 <
b111 -"
b111 _"
b101 =
b101 ,"
b101 V"
b0 >
b0 +"
b0 M"
b1 ?
b1 *"
b1 D"
1E
b111 8
b111 ?"
b111 `"
b101 9
b101 >"
b101 W"
b0 :
b0 ="
b0 N"
b1 ;
b1 <"
b1 E"
b111 1"
b101 0"
b0 /"
b1 ."
b111 C"
b101 B"
b0 A"
b1 @"
1'
#700000
0'
#705000
1J
0D
1E
1F
b11 G
b11 r
b11 }
1'
#710000
0'
#715000
0,
b10000011010 p
b110111101 j
b110111101 q
b10100101000 o
b0 n
b110000001 m
0F
0E
1I"
b0 2
b0 Z
b0 S"
1R"
b100 1
b100 Y
b100 \"
1["
b101 0
b101 X
b101 e"
1d"
1'
#720000
0'
#725000
b100 |
1)
14
15
16
17
1'
#730000
0'
#735000
1H
0J
b100 G
b100 r
b100 }
1'
#740000
0'
#745000
b110111101 @
b110111101 k
1l
0d"
0["
0R"
0I"
1'
#750000
0'
#755000
b101 |
0)
1t
07
06
05
04
1I
1'
#760000
0'
#765000
1A
0H
b110 |
b101 G
b101 r
b101 }
1'
#770000
0'
#775000
1"
0A
b0 |
b110 G
b110 r
b110 }
0l
b110111101 !
b110111101 /
b110111101 W
1'
#780000
0'
#785000
0t
0"
0I
b0 G
b0 r
b0 }
1'
