runs/23662787643/precheck/rtl/rtl_precheck.vcd
$date
	Fri Mar 27 19:01:51 2026
$end
$version
	Icarus Verilog
$end
$timescale
	1ps
$end
$scope module tb_crns_top_mrc $end
$var wire 16 ! X_out [15:0] $end
$var wire 1 " Done $end
$var reg 16 # A_in [15:0] $end
$var reg 16 $ B_in [15:0] $end
$var reg 2 % Op_Sel [1:0] $end
$var reg 1 & Start $end
$var reg 1 ' clk $end
$var reg 1 ( rst_n $end
$scope module dut $end
$var wire 1 ) ALU_Done_all $end
$var wire 16 * A_in [15:0] $end
$var wire 16 + B_in [15:0] $end
$var wire 1 , CRT_Done $end
$var wire 1 - Encode_Done_all $end
$var wire 2 . Op_Sel [1:0] $end
$var wire 1 & Start $end
$var wire 16 / X_out [15:0] $end
$var wire 1 ' clk $end
$var wire 1 ( rst_n $end
$var wire 4 0 z_r3 [3:0] $end
$var wire 3 1 z_r2 [2:0] $end
$var wire 3 2 z_r1 [2:0] $end
$var wire 2 3 z_r0 [1:0] $end
$var wire 1 4 slice3_done $end
$var wire 1 5 slice2_done $end
$var wire 1 6 slice1_done $end
$var wire 1 7 slice0_done $end
$var wire 4 8 b_r3 [3:0] $end
$var wire 3 9 b_r2 [2:0] $end
$var wire 3 : b_r1 [2:0] $end
$var wire 2 ; b_r0 [1:0] $end
$var wire 4 < a_r3 [3:0] $end
$var wire 3 = a_r2 [2:0] $end
$var wire 3 > a_r1 [2:0] $end
$var wire 2 ? a_r0 [1:0] $end
$var wire 16 @ X_mrc [15:0] $end
$var wire 1 A Out_EN $end
$var wire 1 B MRC_Start $end
$var wire 1 C MRC_Done $end
$var wire 1 D Load_IN $end
$var wire 1 E Encode_EN $end
$var wire 1 F Encode_Done_B $end
$var wire 1 G Encode_Done_A $end
$var wire 1 " Done $end
$var wire 3 H CU_state_dbg [2:0] $end
$var wire 1 I CRT_Start $end
$var wire 1 J ALU_EN $end
$var parameter 32 K CENTERED_OUT_EN $end
$var parameter 32 L CRNS_EN $end
$var parameter 32 M M0 $end
$var parameter 32 N M1 $end
$var parameter 32 O M2 $end
$var parameter 32 P M3 $end
$var parameter 32 Q W0 $end
$var parameter 32 R W1 $end
$var parameter 32 S W2 $end
$var parameter 32 T W3 $end
$var parameter 32 U WIDTH_IN $end
$var reg 16 V A_reg [15:0] $end
$var reg 16 W B_reg [15:0] $end
$var reg 2 X OpSel_reg [1:0] $end
$var reg 16 Y X_reg [15:0] $end
$scope module u_cu $end
$var wire 1 ) ALU_Done $end
$var wire 1 , CRT_Done $end
$var wire 3 Z CU_state_dbg [2:0] $end
$var wire 1 - Encode_Done $end
$var wire 1 [ Recon_Mode $end
$var wire 1 & Start $end
$var wire 1 ' clk $end
$var wire 1 ( rst_n $end
$var wire 1 \ recon_done_sel $end
$var wire 1 C MRC_Done $end
$var parameter 3 ] S_ALU $end
$var parameter 3 ^ S_DONE $end
$var parameter 3 _ S_ENCODE $end
$var parameter 3 ` S_IDLE $end
$var parameter 3 a S_LOAD $end
$var parameter 3 b S_OUT $end
$var parameter 3 c S_RECON $end
$var reg 1 J ALU_EN $end
$var reg 1 I CRT_Start $end
$var reg 1 " Done $end
$var reg 1 E Encode_EN $end
$var reg 1 D Load_IN $end
$var reg 1 B MRC_Start $end
$var reg 1 A Out_EN $end
$var reg 3 d next_state [2:0] $end
$var reg 3 e state [2:0] $end
$upscope $end
$scope module u_enc_a $end
$var wire 1 E Encode_EN $end
$var wire 1 ' clk $end
$var wire 1 ( rst_n $end
$var wire 16 f x [15:0] $end
$var parameter 32 g CRNS_EN $end
$var parameter 32 h M0 $end
$var parameter 32 i M1 $end
$var parameter 32 j M2 $end
$var parameter 32 k M3 $end
$var parameter 32 l W0 $end
$var parameter 32 m W1 $end
$var parameter 32 n W2 $end
$var parameter 32 o W3 $end
$var parameter 32 p WIDTH_IN $end
$var reg 1 G Encode_Done $end
$var reg 2 q r0 [1:0] $end
$var reg 3 r r1 [2:0] $end
$var reg 3 s r2 [2:0] $end
$var reg 4 t r3 [3:0] $end
$var integer 32 u tmp0 [31:0] $end
$var integer 32 v tmp1 [31:0] $end
$var integer 32 w tmp2 [31:0] $end
$var integer 32 x tmp3 [31:0] $end
$scope function norm_bal $end
$var integer 32 y m [31:0] $end
$var integer 32 z r [31:0] $end
$var integer 32 { val [31:0] $end
$upscope $end
$scope function norm_std $end
$var integer 32 | m [31:0] $end
$var integer 32 } val [31:0] $end
$upscope $end
$upscope $end
$scope module u_enc_b $end
$var wire 1 E Encode_EN $end
$var wire 1 ' clk $end
$var wire 1 ( rst_n $end
$var wire 16 ~ x [15:0] $end
$var parameter 32 !" CRNS_EN $end
$var parameter 32 "" M0 $end
$var parameter 32 #" M1 $end
$var parameter 32 $" M2 $end
$var parameter 32 %" M3 $end
$var parameter 32 &" W0 $end
$var parameter 32 '" W1 $end
$var parameter 32 (" W2 $end
$var parameter 32 )" W3 $end
$var parameter 32 *" WIDTH_IN $end
$var reg 1 F Encode_Done $end
$var reg 2 +" r0 [1:0] $end
$var reg 3 ," r1 [2:0] $end
$var reg 3 -" r2 [2:0] $end
$var reg 4 ." r3 [3:0] $end
$var integer 32 /" tmp0 [31:0] $end
$var integer 32 0" tmp1 [31:0] $end
$var integer 32 1" tmp2 [31:0] $end
$var integer 32 2" tmp3 [31:0] $end
$scope function norm_bal $end
$var integer 32 3" m [31:0] $end
$var integer 32 4" r [31:0] $end
$var integer 32 5" val [31:0] $end
$upscope $end
$scope function norm_std $end
$var integer 32 6" m [31:0] $end
$var integer 32 7" val [31:0] $end
$upscope $end
$upscope $end
$scope module u_mrc $end
$var wire 1 B MRC_Start $end
$var wire 1 ' clk $end
$var wire 1 ( rst_n $end
$var wire 1 8" start_pulse $end
$var wire 4 9" r3 [3:0] $end
$var wire 3 :" r2 [2:0] $end
$var wire 3 ;" r1 [2:0] $end
$var wire 2 <" r0 [1:0] $end
$var parameter 32 =" HALF_M $end
$var parameter 32 >" INV_12 $end
$var parameter 32 ?" INV_123 $end
$var parameter 32 @" INV_1234 $end
$var parameter 32 A" MOD0 $end
$var parameter 32 B" MOD1 $end
$var parameter 32 C" MOD2 $end
$var parameter 32 D" MOD3 $end
$var parameter 32 E" MPREV1 $end
$var parameter 32 F" MPREV2 $end
$var parameter 32 G" MPREV3 $end
$var parameter 32 H" M_TOTAL $end
$var parameter 32 I" OUT_WIDTH $end
$var parameter 3 J" S_DONE $end
$var parameter 3 K" S_IDLE $end
$var parameter 3 L" S_S1 $end
$var parameter 3 M" S_S2 $end
$var parameter 3 N" S_S3 $end
$var parameter 3 O" S_S4 $end
$var parameter 32 P" W0 $end
$var parameter 32 Q" W1 $end
$var parameter 32 R" W2 $end
$var parameter 32 S" W3 $end
$var reg 1 C MRC_Done $end
$var reg 16 T" X_out [15:0] $end
$var reg 1 U" start_d $end
$var reg 3 V" state [2:0] $end
$var integer 32 W" X1_r [31:0] $end
$var integer 32 X" X2_r [31:0] $end
$var integer 32 Y" X3_r [31:0] $end
$var integer 32 Z" X4 [31:0] $end
$var integer 32 [" r0_mod_r [31:0] $end
$var integer 32 \" r1_mod_r [31:0] $end
$var integer 32 ]" r2_mod_r [31:0] $end
$var integer 32 ^" r3_mod_r [31:0] $end
$var integer 32 _" t2 [31:0] $end
$var integer 32 `" t3 [31:0] $end
$var integer 32 a" t4 [31:0] $end
$var integer 32 b" total_centered [31:0] $end
$var integer 32 c" total_mod [31:0] $end
$scope function norm_mod $end
$var integer 32 d" m [31:0] $end
$var integer 32 e" t [31:0] $end
$var integer 32 f" x [31:0] $end
$upscope $end
$upscope $end
$scope module u_slice0 $end
$var wire 1 J ALU_EN $end
$var wire 2 g" a [1:0] $end
$var wire 2 h" b [1:0] $end
$var wire 1 ' clk $end
$var wire 2 i" op_sel [1:0] $end
$var wire 1 ( rst_n $end
$var parameter 32 j" CRNS_EN $end
$var parameter 32 k" MODULUS $end
$var parameter 32 l" WIDTH $end
$var reg 1 7 ALU_Done $end
$var reg 1 m" start_d $end
$var reg 2 n" y [1:0] $end
$var reg 2 o" y_next [1:0] $end
$var integer 32 p" raw [31:0] $end
$var integer 32 q" tmp [31:0] $end
$scope function norm_bal $end
$var integer 32 r" m [31:0] $end
$var integer 32 s" r [31:0] $end
$var integer 32 t" val [31:0] $end
$upscope $end
$scope function norm_std $end
$var integer 32 u" m [31:0] $end
$var integer 32 v" val [31:0] $end
$upscope $end
$upscope $end
$scope module u_slice1 $end
$var wire 1 J ALU_EN $end
$var wire 3 w" a [2:0] $end
$var wire 3 x" b [2:0] $end
$var wire 1 ' clk $end
$var wire 2 y" op_sel [1:0] $end
$var wire 1 ( rst_n $end
$var parameter 32 z" CRNS_EN $end
$var parameter 32 {" MODULUS $end
$var parameter 32 |" WIDTH $end
$var reg 1 6 ALU_Done $end
$var reg 1 }" start_d $end
$var reg 3 ~" y [2:0] $end
$var reg 3 !# y_next [2:0] $end
$var integer 32 "# raw [31:0] $end
$var integer 32 ## tmp [31:0] $end
$scope function norm_bal $end
$var integer 32 $# m [31:0] $end
$var integer 32 %# r [31:0] $end
$var integer 32 &# val [31:0] $end
$upscope $end
$scope function norm_std $end
$var integer 32 '# m [31:0] $end
$var integer 32 (# val [31:0] $end
$upscope $end
$upscope $end
$scope module u_slice2 $end
$var wire 1 J ALU_EN $end
$var wire 3 )# a [2:0] $end
$var wire 3 *# b [2:0] $end
$var wire 1 ' clk $end
$var wire 2 +# op_sel [1:0] $end
$var wire 1 ( rst_n $end
$var parameter 32 ,# CRNS_EN $end
$var parameter 32 -# MODULUS $end
$var parameter 32 .# WIDTH $end
$var reg 1 5 ALU_Done $end
$var reg 1 /# start_d $end
$var reg 3 0# y [2:0] $end
$var reg 3 1# y_next [2:0] $end
$var integer 32 2# raw [31:0] $end
$var integer 32 3# tmp [31:0] $end
$scope function norm_bal $end
$var integer 32 4# m [31:0] $end
$var integer 32 5# r [31:0] $end
$var integer 32 6# val [31:0] $end
$upscope $end
$scope function norm_std $end
$var integer 32 7# m [31:0] $end
$var integer 32 8# val [31:0] $end
$upscope $end
$upscope $end
$scope module u_slice3 $end
$var wire 1 J ALU_EN $end
$var wire 4 9# a [3:0] $end
$var wire 4 :# b [3:0] $end
$var wire 1 ' clk $end
$var wire 2 ;# op_sel [1:0] $end
$var wire 1 ( rst_n $end
$var parameter 32 <# CRNS_EN $end
$var parameter 32 =# MODULUS $end
$var parameter 32 ># WIDTH $end
$var reg 1 4 ALU_Done $end
$var reg 1 ?# start_d $end
$var reg 4 @# y [3:0] $end
$var reg 4 A# y_next [3:0] $end
$var integer 32 B# raw [31:0] $end
$var integer 32 C# tmp [31:0] $end
$scope function norm_bal $end
$var integer 32 D# m [31:0] $end
$var integer 32 E# r [31:0] $end
$var integer 32 F# val [31:0] $end
$upscope $end
$scope function norm_std $end
$var integer 32 G# m [31:0] $end
$var integer 32 H# val [31:0] $end
$upscope $end
$upscope $end
$upscope $end
$scope task run_test $end
$var reg 16 I# a [15:0] $end
$var reg 16 J# b [15:0] $end
$var reg 16 K# expected [15:0] $end
$var reg 128 L# name [127:0] $end
$var reg 2 M# op [1:0] $end
$upscope $end
$upscope $end
$enddefinitions $end
$comment Show the parameter values. $end
$dumpall
b100 >#
b1011 =#
b1 <#
b11 .#
b111 -#
b1 ,#
b11 |"
b101 {"
b1 z"
b10 l"
b11 k"
b1 j"
b100 S"
b11 R"
b11 Q"
b10 P"
b100 O"
b11 N"
b10 M"
b1 L"
b0 K"
b101 J"
b10000 I"
b10010000011 H"
b1101001 G"
b1111 F"
b11 E"
b1011 D"
b111 C"
b101 B"
b11 A"
b10 @"
b1 ?"
b10 >"
b1001000001 ="
b10000 *"
b100 )"
b11 ("
b11 '"
b10 &"
b1011 %"
b111 $"
b101 #"
b11 ""
b1 !"
b10000 p
b100 o
b11 n
b11 m
b10 l
b1011 k
b111 j
b101 i
b11 h
b1 g
b100 c
b101 b
b1 a
b0 `
b10 _
b110 ^
b11 ]
b10000 U
b100 T
b11 S
b11 R
b10 Q
b1011 P
b111 O
b101 N
b11 M
b1 L
b1 K
$end
#0
$dumpvars
bx M#
bx L#
bx K#
bx J#
bx I#
bx H#
bx G#
bx F#
bx E#
bx D#
bx C#
bx B#
bx A#
bx @#
x?#
bx ;#
bx :#
bx 9#
bx 8#
bx 7#
bx 6#
bx 5#
bx 4#
bx 3#
bx 2#
bx 1#
bx 0#
x/#
bx +#
bx *#
bx )#
bx (#
bx '#
bx &#
bx %#
bx $#
bx ##
bx "#
bx !#
bx ~"
x}"
bx y"
bx x"
bx w"
bx v"
bx u"
bx t"
bx s"
bx r"
bx q"
bx p"
bx o"
bx n"
xm"
bx i"
bx h"
bx g"
bx f"
bx e"
bx d"
bx c"
bx b"
bx a"
bx `"
bx _"
bx ^"
bx ]"
bx \"
bx ["
bx Z"
bx Y"
bx X"
bx W"
bx V"
xU"
bx T"
bx <"
bx ;"
bx :"
bx 9"
08"
bx 7"
bx 6"
bx 5"
bx 4"
bx 3"
bx 2"
bx 1"
bx 0"
bx /"
bx ."
bx -"
bx ,"
bx +"
bx ~
bx }
bx |
bx {
bx z
bx y
bx x
bx w
bx v
bx u
bx t
bx s
bx r
bx q
bx f
bx e
b0 d
x\
1[
bx Z
bx Y
bx X
bx W
bx V
0J
0I
bx H
xG
xF
0E
0D
xC
0B
0A
bx @
bx ?
bx >
bx =
bx <
bx ;
bx :
bx 9
bx 8
x7
x6
x5
x4
bx 3
bx 2
bx 1
bx 0
bx /
b0 .
x-
0,
b0 +
b0 *
x)
0(
0'
0&
b0 %
b0 $
b0 #
0"
bx !
$end
#5000
0-
0)
0\
b0 H
b0 Z
b0 e
0G
0F
07
0m"
06
0}"
05
0/#
04
0?#
0C
0U"
b0 V"
1'
#10000
0'
#15000
1'
#20000
0'
#25000
1'
#30000
0'
#35000
1'
#40000
0'
#45000
1'
#50000
1(
0'
#55000
1'
#60000
b111 $
b111 +
b1010 #
b1010 *
b100000101000100010001000101111100110001001100000101111100110111 L#
b10001 K#
b111 J#
b1010 I#
b0 M#
0'
#65000
1'
#70000
b1 d
1&
0'
#75000
1D
b10 d
b1 H
b1 Z
b1 e
1'
#80000
b10 d
0&
0'
#85000
1E
0D
b11 u"
b11 r"
bx o"
bx q"
bx p"
b101 '#
b101 $#
bx !#
bx ##
bx "#
b111 7#
b111 4#
bx 1#
bx 3#
bx 2#
b1011 G#
b1011 D#
bx A#
bx C#
bx B#
b10 H
b10 Z
b10 e
b0 X
b0 i"
b0 y"
b0 +#
b0 ;#
b111 W
b111 ~
b1010 V
b1010 f
1'
#90000
0'
#95000
b11 d
1-
b11111111111111111111111111111011 E#
b11111111111111111111111111111011 H#
b11111111111111111111111111111011 F#
b1011 A#
b11111111111111111111111111111011 C#
b11111111111111111111111111111011 B#
b11 5#
b11 8#
b11 6#
b11 1#
b11 3#
b11 2#
b10 %#
b10 (#
b10 &#
b10 !#
b10 ##
b10 "#
b11111111111111111111111111111111 s"
b10 v"
b10 t"
b11 o"
b11111111111111111111111111111111 q"
b10 p"
1F
b1100 8
b1100 ."
b1100 :#
b0 9
b0 -"
b0 *#
b10 :
b10 ,"
b10 x"
b1 ;
b1 +"
b1 h"
1G
b1111 <
b1111 t
b1111 9#
b11 =
b11 s
b11 )#
b0 >
b0 r
b0 w"
b1 ?
b1 q
b1 g"
b11111111111111111111111111111100 2"
b0 1"
b10 0"
b1 /"
b11111111111111111111111111111100 4"
b111 7"
b1011 6"
b111 5"
b1011 3"
b11111111111111111111111111111111 x
b11 w
b0 v
b1 u
b11111111111111111111111111111111 z
b1010 }
b1011 |
b1010 {
b1011 y
1'
#100000
0'
#105000
1J
0E
b11 H
b11 Z
b11 e
1G
1F
b11111111111111111111111111111111 z
b1011 |
b1011 y
b11111111111111111111111111111100 4"
b1011 6"
b1011 3"
1'
#110000
0'
#115000
0-
b1011 0
b1011 9"
b1011 @#
1?#
b11 1
b11 :"
b11 0#
1/#
b10 2
b10 ;"
b10 ~"
1}"
b11 3
b11 <"
b11 n"
1m"
0F
0G
1'
#120000
0'
#125000
b100 d
1)
17
16
15
14
1'
#130000
0'
#135000
18"
1B
0J
b100 H
b100 Z
b100 e
1'
#140000
0'
#145000
08"
0m"
0}"
0/#
0?#
b1 V"
b110 ^"
b11 ]"
b10 \"
b10 ["
1U"
b110 e"
b11111111111111111111111111111011 f"
b1011 d"
1'
#150000
0'
#155000
0)
b10 V"
b10 W"
04
05
06
07
1'
#160000
0'
#165000
b11 V"
b10 X"
b0 _"
b0 e"
b0 f"
b101 d"
1'
#170000
0'
#175000
b100 V"
b10001 Y"
b1 `"
b1 e"
b1 f"
b111 d"
1'
#180000
0'
#185000
b101 V"
b10001 @
b10001 T"
b10001 b"
b10001 c"
b10001 Z"
b0 a"
b10001 e"
b10001 f"
b10010000011 d"
1'
#190000
0'
#195000
b101 d
1\
b0 V"
1C
1'
#200000
0'
#205000
1A
0B
b110 d
0\
b101 H
b101 Z
b101 e
0C
1'
#210000
0'
#215000
1"
0A
b0 d
b10001 !
b10001 /
b10001 Y
0U"
b110 H
b110 Z
b110 e
1'
#220000
b100101100 $
b100101100 +
b1111101000 #
b1111101000 *
b100000101000100010001000101111101010111010100100100000101010000 L#
b10010001 K#
b100101100 J#
b1111101000 I#
0'
#225000
0"
b0 H
b0 Z
b0 e
1'
#230000
b1 d
1&
0'
#235000
1D
b10 d
b1 H
b1 Z
b1 e
1'
#240000
b10 d
0&
0'
#245000
1E
0D
b10 H
b10 Z
b10 e
b100101100 W
b100101100 ~
b1111101000 V
b1111101000 f
1'
#250000
0'
#255000
b11 d
b10 E#
b10 H#
b10 F#
b10 A#
b10 C#
b10 B#
b0 %#
b0 (#
b0 &#
b0 !#
b0 ##
b0 "#
b1 s"
b1 v"
b1 t"
b1 o"
b1 q"
b1 p"
1-
b11111111111111111111111111111110 5#
b11111111111111111111111111111110 8#
b11111111111111111111111111111110 6#
b110 1#
b11111111111111111111111111111110 3#
b11111111111111111111111111111110 2#
1F
b11 8
b11 ."
b11 :#
b111 9
b111 -"
b111 *#
b0 :
b0 ,"
b0 x"
b0 ;
b0 +"
b0 h"
1G
b111 =
b111 s
b111 )#
b11 2"
b11111111111111111111111111111111 1"
b0 0"
b0 /"
b11 4"
b100101100 7"
b1011 6"
b100101100 5"
b1011 3"
b11111111111111111111111111111111 w
b11111111111111111111111111111111 z
b1111101000 }
b1011 |
b1111101000 {
b1011 y
1'
#260000
0'
#265000
1J
0E
b11 H
b11 Z
b11 e
1G
1F
b11111111111111111111111111111111 z
b1011 |
b1011 y
b11 4"
b1011 6"
b1011 3"
1'
#270000
0'
#275000
0-
b10 0
b10 9"
b10 @#
1?#
b110 1
b110 :"
b110 0#
1/#
b0 2
b0 ;"
b0 ~"
1}"
b1 3
b1 <"
b1 n"
1m"
0F
0G
1'
#280000
0'
#285000
b100 d
1)
17
16
15
14
1'
#290000
0'
#295000
18"
1B
0J
b100 H
b100 Z
b100 e
1'
#300000
0'
#305000
08"
0m"
0}"
0/#
0?#
b1 V"
b10 ^"
b101 ]"
b0 \"
b1 ["
1U"
b10 e"
b10 f"
b1011 d"
1'
#310000
0'
#315000
0)
b10 V"
b1 W"
04
05
06
07
1'
#320000
0'
#325000
b11 V"
b1010 X"
b11 _"
b11 e"
b1000 f"
b101 d"
1'
#330000
0'
#335000
b100 V"
b101000 Y"
b10 e"
b10 `"
b10 f"
b111 d"
1'
#340000
0'
#345000
b101 V"
b10010001 @
b10010001 T"
b10010001 b"
b10010001 c"
b10010001 Z"
b1 a"
b10010001 e"
b10010001 f"
b10010000011 d"
1'
#350000
0'
#355000
b101 d
1\
b0 V"
1C
1'
#360000
0'
#365000
1A
0B
b110 d
0\
b101 H
b101 Z
b101 e
0C
1'
#370000
0'
#375000
1"
0A
b0 d
b10010001 !
b10010001 /
b10010001 Y
0U"
b110 H
b110 Z
b110 e
1'
#380000
b110010 $
b110010 +
b11001000 #
b11001000 *
b1 %
b1 .
b1010011010101010100001001011111001100100011000000110000010111110011010100110000 L#
b10010110 K#
b110010 J#
b11001000 I#
b1 M#
0'
#385000
0"
b0 H
b0 Z
b0 e
1'
#390000
b1 d
1&
0'
#395000
1D
b10 d
b1 H
b1 Z
b1 e
1'
#400000
b10 d
0&
0'
#405000
1E
0D
b1 o"
b1 q"
b1 p"
b0 5#
b0 8#
b0 6#
b0 1#
b0 3#
b0 2#
b11111111111111111111111111111100 E#
b11111111111111111111111111111100 H#
b11111111111111111111111111111100 F#
b1100 A#
b11111111111111111111111111111100 C#
b11111111111111111111111111111100 B#
b10 H
b10 Z
b10 e
b1 X
b1 i"
b1 y"
b1 +#
b1 ;#
b110010 W
b110010 ~
b11001000 V
b11001000 f
1'
#410000
0'
#415000
b11 d
1-
b11111111111111111111111111111100 E#
b111 H#
b111 F#
b1100 A#
b11111111111111111111111111111100 C#
b111 B#
b11 1#
b11 3#
b11 5#
b11111111111111111111111111111100 8#
b11111111111111111111111111111100 6#
b11111111111111111111111111111100 2#
b0 s"
b0 v"
b0 t"
b0 o"
b0 q"
b0 p"
1F
b1011 8
b1011 ."
b1011 :#
b1 9
b1 -"
b1 *#
b11 ;
b11 +"
b11 h"
1G
b10 <
b10 t
b10 9#
b101 =
b101 s
b101 )#
b11 ?
b11 q
b11 g"
b11111111111111111111111111111011 2"
b1 1"
b11111111111111111111111111111111 /"
b11111111111111111111111111111011 4"
b110010 7"
b1011 6"
b110010 5"
b1011 3"
b10 x
b11111111111111111111111111111101 w
b11111111111111111111111111111111 u
b10 z
b11001000 }
b1011 |
b11001000 {
b1011 y
1'
#420000
0'
#425000
1J
0E
b11 H
b11 Z
b11 e
1G
1F
b10 z
b1011 |
b1011 y
b11111111111111111111111111111011 4"
b1011 6"
b1011 3"
1'
#430000
0'
#435000
0-
b1100 0
b1100 9"
b1100 @#
1?#
b11 1
b11 :"
b11 0#
1/#
1}"
b0 3
b0 <"
b0 n"
1m"
0F
0G
1'
#440000
0'
#445000
b100 d
1)
17
16
15
14
1'
#450000
0'
#455000
18"
1B
0J
b100 H
b100 Z
b100 e
1'
#460000
0'
#465000
08"
0m"
0}"
0/#
0?#
b1 V"
b111 ^"
b11 ]"
b0 ["
1U"
b111 e"
b11111111111111111111111111111100 f"
b1011 d"
1'
#470000
0'
#475000
0)
b10 V"
b0 W"
04
05
06
07
1'
#480000
0'
#485000
b11 V"
b0 X"
b0 _"
b0 e"
b0 f"
b101 d"
1'
#490000
0'
#495000
b100 V"
b101101 Y"
b11 e"
b11 f"
b11 `"
b111 d"
1'
#500000
0'
#505000
b101 V"
b10010110 @
b10010110 T"
b10010110 b"
b10010110 c"
b10010110 Z"
b1 a"
b10010110 e"
b10010110 f"
b10010000011 d"
1'
#510000
0'
#515000
b101 d
1\
b0 V"
1C
1'
#520000
0'
#525000
1A
0B
b110 d
0\
b101 H
b101 Z
b101 e
0C
1'
#530000
0'
#535000
1"
0A
b0 d
b10010110 !
b10010110 /
b10010110 Y
0U"
b110 H
b110 Z
b110 e
1'
#540000
b11001000 $
b11001000 +
b110010 #
b110010 *
b101001101010101010000100101111101010111010100100100000101010000 L#
b1111111101101010 K#
b11001000 J#
b110010 I#
0'
#545000
0"
b0 H
b0 Z
b0 e
1'
#550000
b1 d
1&
0'
#555000
1D
b10 d
b1 H
b1 Z
b1 e
1'
#560000
b10 d
0&
0'
#565000
1E
0D
b10 H
b10 Z
b10 e
b11001000 W
b11001000 ~
b110010 V
b110010 f
1'
#570000
0'
#575000
b11 d
1-
b100 E#
b11111111111111111111111111111001 H#
b11111111111111111111111111111001 F#
b100 A#
b100 C#
b11111111111111111111111111111001 B#
b11111111111111111111111111111101 5#
b100 8#
b100 6#
b101 1#
b11111111111111111111111111111101 3#
b100 2#
1F
b10 8
b10 ."
b10 :#
b101 9
b101 -"
b101 *#
1G
b1011 <
b1011 t
b1011 9#
b1 =
b1 s
b1 )#
b10 2"
b11111111111111111111111111111101 1"
b10 4"
b11001000 7"
b1011 6"
b11001000 5"
b1011 3"
b11111111111111111111111111111011 x
b1 w
b11111111111111111111111111111011 z
b110010 }
b1011 |
b110010 {
b1011 y
1'
#580000
0'
#585000
1J
0E
b11 H
b11 Z
b11 e
1G
1F
b11111111111111111111111111111011 z
b1011 |
b1011 y
b10 4"
b1011 6"
b1011 3"
1'
#590000
0'
#595000
0-
b100 0
b100 9"
b100 @#
1?#
b101 1
b101 :"
b101 0#
1/#
1}"
1m"
0F
0G
1'
#600000
0'
#605000
b100 d
1)
17
16
15
14
1'
#610000
0'
#615000
18"
1B
0J
b100 H
b100 Z
b100 e
1'
#620000
0'
#625000
08"
0m"
0}"
0/#
0?#
b1 V"
b100 ^"
b100 ]"
1U"
b100 e"
b100 f"
b1011 d"
1'
#630000
0'
#635000
0)
b10 V"
04
05
06
07
1'
#640000
0'
#645000
b11 V"
b0 e"
b0 f"
b101 d"
1'
#650000
0'
#655000
b100 V"
b111100 Y"
b100 e"
b100 f"
b100 `"
b111 d"
1'
#660000
0'
#665000
b101 V"
b1111111101101010 @
b1111111101101010 T"
b11111111111111111111111101101010 b"
b1111101101 c"
b1111101101 Z"
b1001 a"
b1111101101 e"
b1111101101 f"
b10010000011 d"
1'
#670000
0'
#675000
b101 d
1\
b0 V"
1C
1'
#680000
0'
#685000
1A
0B
b110 d
0\
b101 H
b101 Z
b101 e
0C
1'
#690000
0'
#695000
1"
0A
b0 d
b1111111101101010 !
b1111111101101010 /
b1111111101101010 Y
0U"
b110 H
b110 Z
b110 e
1'
#700000
b10001 $
b10001 +
b1011 #
b1011 *
b10 %
b10 .
b10011010101010101001100010111110011000100110001010111110011000100110111 L#
b10111011 K#
b10001 J#
b1011 I#
b10 M#
0'
#705000
0"
b0 H
b0 Z
b0 e
1'
#710000
b1 d
1&
0'
#715000
1D
b10 d
b1 H
b1 Z
b1 e
1'
#720000
b10 d
0&
0'
#725000
1E
0D
b1 o"
b1 q"
b1 s"
b1 v"
b1 t"
b1 p"
b11111111111111111111111111111101 5#
b11111111111111111111111111111101 8#
b11111111111111111111111111111101 6#
b101 1#
b11111111111111111111111111111101 3#
b11111111111111111111111111111101 2#
b1 E#
b11111111111111111111111111110110 H#
b11111111111111111111111111110110 F#
b1 A#
b1 C#
b11111111111111111111111111110110 B#
b10 H
b10 Z
b10 e
b10 X
b10 i"
b10 y"
b10 +#
b10 ;#
b10001 W
b10001 ~
b1011 V
b1011 f
1'
#730000
0'
#735000
b11 d
1-
b0 E#
b0 H#
b0 F#
b0 A#
b0 C#
b0 B#
b11111111111111111111111111111110 5#
b11111111111111111111111111110111 8#
b11111111111111111111111111110111 6#
b110 1#
b11111111111111111111111111111110 3#
b11111111111111111111111111110111 2#
b10 !#
b10 ##
b10 %#
b10 (#
b10 &#
b10 "#
1F
b1011 8
b1011 ."
b1011 :#
b11 9
b11 -"
b11 *#
b10 :
b10 ,"
b10 x"
1G
b0 <
b0 t
b0 9#
b101 =
b101 s
b101 )#
b1 >
b1 r
b1 w"
b11111111111111111111111111111011 2"
b11 1"
b10 0"
b11111111111111111111111111111011 4"
b10001 7"
b1011 6"
b10001 5"
b1011 3"
b0 x
b11111111111111111111111111111101 w
b1 v
b0 z
b1011 }
b1011 |
b1011 {
b1011 y
1'
#740000
0'
#745000
1J
0E
b11 H
b11 Z
b11 e
1G
1F
b0 z
b1011 |
b1011 y
b11111111111111111111111111111011 4"
b1011 6"
b1011 3"
1'
#750000
0'
#755000
0-
b0 0
b0 9"
b0 @#
1?#
b110 1
b110 :"
b110 0#
1/#
b10 2
b10 ;"
b10 ~"
1}"
b1 3
b1 <"
b1 n"
1m"
0F
0G
1'
#760000
0'
#765000
b100 d
1)
17
16
15
14
1'
#770000
0'
#775000
18"
1B
0J
b100 H
b100 Z
b100 e
1'
#780000
0'
#785000
08"
0m"
0}"
0/#
0?#
b1 V"
b0 ^"
b101 ]"
b10 \"
b1 ["
1U"
b0 e"
b0 f"
b1011 d"
1'
#790000
0'
#795000
0)
b10 V"
b1 W"
04
05
06
07
1'
#800000
0'
#805000
b11 V"
b111 X"
b10 _"
b10 e"
b10 f"
b101 d"
1'
#810000
0'
#815000
b100 V"
b1010010 Y"
b101 `"
b101 e"
b101 f"
b111 d"
1'
#820000
0'
#825000
b101 V"
b10111011 @
b10111011 T"
b10111011 b"
b10111011 c"
b10111011 Z"
b10111011 e"
b1 a"
b10111011 f"
b10010000011 d"
1'
#830000
0'
#835000
b101 d
1\
b0 V"
1C
1'
#840000
0'
#845000
1A
0B
b110 d
0\
b101 H
b101 Z
b101 e
0C
1'
#850000
0'
#855000
1"
0A
b0 d
b10111011 !
b10111011 /
b10111011 Y
0U"
b110 H
b110 Z
b110 e
1'
#860000
b101000 $
b101000 +
b101000 #
b101000 *
b100110101010101010011000101111101010111010100100100000101010000 L#
b110111101 K#
b101000 J#
b101000 I#
0'
#865000
0"
b0 H
b0 Z
b0 e
1'
#870000
b1 d
1&
0'
#875000
1D
b10 d
b1 H
b1 Z
b1 e
1'
#880000
b10 d
0&
0'
#885000
1E
0D
b10 H
b10 Z
b10 e
b101000 W
b101000 ~
b101000 V
b101000 f
1'
#890000
0'
