rrns_crt_all_lane/latest/precheck/rtl/all_lane_crt_rtl_precheck.vcd
$date
	Mon Apr 20 08:46:13 2026
$end
$version
	Icarus Verilog
$end
$timescale
	1ps
$end
$scope module tb_rrns_all_lane_top_crt $end
$var wire 16 ! X_out [15:0] $end
$var wire 1 " Valid $end
$var wire 1 # Error_Detected $end
$var wire 1 $ Done $end
$var wire 1 % Corrected $end
$var reg 16 & A_in [15:0] $end
$var reg 16 ' B_in [15:0] $end
$var reg 2 ( Op_Sel [1:0] $end
$var reg 1 ) Start $end
$var reg 1 * clk $end
$var reg 4 + force_r4_hold [3:0] $end
$var reg 5 , force_r5_hold [4:0] $end
$var reg 1 - rst_n $end
$var integer 32 . force_lane_hold [31:0] $end
$var integer 32 / lane [31:0] $end
$var integer 32 0 tests_failed [31:0] $end
$var integer 32 1 tests_run [31:0] $end
$scope module dut $end
$var wire 1 2 ALU_Done_all $end
$var wire 16 3 A_in [15:0] $end
$var wire 16 4 B_in [15:0] $end
$var wire 1 % Corrected $end
$var wire 1 5 Encode_Done_all $end
$var wire 1 # Error_Detected $end
$var wire 1 6 MRC_Done $end
$var wire 2 7 Op_Sel [1:0] $end
$var wire 1 ) Start $end
$var wire 1 " Valid $end
$var wire 16 8 X_base_pre [15:0] $end
$var wire 16 9 X_out [15:0] $end
$var wire 1 * clk $end
$var wire 1 - rst_n $end
$var wire 5 : z_r5 [4:0] $end
$var wire 4 ; z_r4 [3:0] $end
$var wire 4 < z_r3 [3:0] $end
$var wire 3 = z_r2 [2:0] $end
$var wire 3 > z_r1 [2:0] $end
$var wire 2 ? z_r0 [1:0] $end
$var wire 1 @ slice5_done $end
$var wire 1 A slice4_done $end
$var wire 1 B slice3_done $end
$var wire 1 C slice2_done $end
$var wire 1 D slice1_done $end
$var wire 1 E slice0_done $end
$var wire 1 F recon_post_sel $end
$var wire 4 G corr_r3 [3:0] $end
$var wire 3 H corr_r2 [2:0] $end
$var wire 3 I corr_r1 [2:0] $end
$var wire 2 J corr_r0 [1:0] $end
$var wire 5 K b_r5 [4:0] $end
$var wire 4 L b_r4 [3:0] $end
$var wire 4 M b_r3 [3:0] $end
$var wire 3 N b_r2 [2:0] $end
$var wire 3 O b_r1 [2:0] $end
$var wire 2 P b_r0 [1:0] $end
$var wire 5 Q a_r5 [4:0] $end
$var wire 4 R a_r4 [3:0] $end
$var wire 4 S a_r3 [3:0] $end
$var wire 3 T a_r2 [2:0] $end
$var wire 3 U a_r1 [2:0] $end
$var wire 2 V a_r0 [1:0] $end
$var wire 16 W X_final_post [15:0] $end
$var wire 1 X Valid_now $end
$var wire 1 Y Out_EN $end
$var wire 1 Z MRC_Start $end
$var wire 1 [ Load_IN $end
$var wire 1 \ Error_now $end
$var wire 1 ] Encode_EN $end
$var wire 1 ^ Encode_Done_B $end
$var wire 1 _ Encode_Done_A $end
$var wire 1 $ Done $end
$var wire 1 ` Corrected_now $end
$var wire 1 a Correct_Start $end
$var wire 1 b Correct_Done $end
$var wire 4 c CU_state_dbg [3:0] $end
$var wire 1 d CRT_Start $end
$var wire 1 e CRT_Done $end
$var wire 1 f ALU_EN $end
$var parameter 32 g CENTERED_OUT_EN $end
$var parameter 32 h CRNS_EN $end
$var parameter 32 i M0 $end
$var parameter 32 j M1 $end
$var parameter 32 k M2 $end
$var parameter 32 l M3 $end
$var parameter 32 m M4 $end
$var parameter 32 n M5 $end
$var parameter 32 o W0 $end
$var parameter 32 p W1 $end
$var parameter 32 q W2 $end
$var parameter 32 r W3 $end
$var parameter 32 s W4 $end
$var parameter 32 t W5 $end
$var parameter 32 u WIDTH_IN $end
$var reg 16 v A_reg [15:0] $end
$var reg 16 w A_req [15:0] $end
$var reg 16 x B_reg [15:0] $end
$var reg 16 y B_req [15:0] $end
$var reg 1 z Corrected_reg $end
$var reg 1 { Error_reg $end
$var reg 2 | OpSel_reg [1:0] $end
$var reg 2 } OpSel_req [1:0] $end
$var reg 1 ~ Valid_reg $end
$var reg 16 !" X_reg [15:0] $end
$scope module u_corrector $end
$var wire 16 "" X_base [15:0] $end
$var wire 1 * clk $end
$var wire 1 - rst_n $end
$var wire 1 #" start_pulse $end
$var wire 5 $" r5 [4:0] $end
$var wire 4 %" r4 [3:0] $end
$var wire 4 &" r3 [3:0] $end
$var wire 3 '" r2 [2:0] $end
$var wire 3 (" r1 [2:0] $end
$var wire 2 )" r0 [1:0] $end
$var wire 1 a Correct_Start $end
$var parameter 32 *" M0 $end
$var parameter 32 +" M1 $end
$var parameter 32 ," M2 $end
$var parameter 32 -" M3 $end
$var parameter 32 ." M4 $end
$var parameter 32 /" M5 $end
$var parameter 32 0" M_BASE $end
$var parameter 32 1" OUT_WIDTH $end
$var parameter 3 2" S_DONE $end
$var parameter 3 3" S_EVAL $end
$var parameter 3 4" S_IDLE $end
$var parameter 3 5" S_PREP $end
$var parameter 3 6" S_RESOLVE $end
$var parameter 32 7" W0 $end
$var parameter 32 8" W1 $end
$var parameter 32 9" W2 $end
$var parameter 32 :" W3 $end
$var parameter 32 ;" W4 $end
$var parameter 32 <" W5 $end
$var reg 1 b Correct_Done $end
$var reg 1 ` Corrected $end
$var reg 1 \ Error_Detected $end
$var reg 1 X Valid $end
$var reg 2 =" b0_w [1:0] $end
$var reg 3 >" b1_w [2:0] $end
$var reg 3 ?" b2_w [2:0] $end
$var reg 4 @" b3_w [3:0] $end
$var reg 4 A" cand_val_r [3:0] $end
$var reg 1 B" chk13_r $end
$var reg 1 C" chk17_r $end
$var reg 1 D" conflict_found_r $end
$var reg 2 E" corr_r0 [1:0] $end
$var reg 3 F" corr_r1 [2:0] $end
$var reg 3 G" corr_r2 [2:0] $end
$var reg 4 H" corr_r3 [3:0] $end
$var reg 4 I" exp13_w [3:0] $end
$var reg 5 J" exp17_w [4:0] $end
$var reg 1 K" hit_w $end
$var reg 2 L" lane_idx_r [1:0] $end
$var reg 2 M" n0_r [1:0] $end
$var reg 3 N" n1_r [2:0] $end
$var reg 3 O" n2_r [2:0] $end
$var reg 4 P" n3_r [3:0] $end
$var reg 4 Q" n4_r [3:0] $end
$var reg 5 R" n5_r [4:0] $end
$var reg 1 S" start_d $end
$var reg 3 T" state [2:0] $end
$var reg 1 U" winner_found_r $end
$var reg 2 V" winner_lane_r [1:0] $end
$var reg 4 W" winner_res_r [3:0] $end
$scope function canon_r0 $end
$var reg 2 X" x [1:0] $end
$upscope $end
$scope function canon_r1 $end
$var reg 3 Y" x [2:0] $end
$upscope $end
$scope function canon_r2 $end
$var reg 3 Z" x [2:0] $end
$upscope $end
$scope function canon_r3 $end
$var reg 4 [" x [3:0] $end
$upscope $end
$scope function canon_r4 $end
$var reg 4 \" x [3:0] $end
$upscope $end
$scope function canon_r5 $end
$var reg 5 ]" x [4:0] $end
$upscope $end
$scope function center_with_modulus $end
$var integer 32 ^" p [31:0] $end
$var integer 32 _" t [31:0] $end
$var integer 32 `" x [31:0] $end
$upscope $end
$scope function norm_mod $end
$var integer 32 a" m [31:0] $end
$var integer 32 b" t [31:0] $end
$var integer 32 c" x [31:0] $end
$upscope $end
$scope function x_mod13_from_centered $end
$var reg 16 d" x [15:0] $end
$var integer 32 e" xs [31:0] $end
$upscope $end
$scope function x_mod17_from_centered $end
$var reg 16 f" x [15:0] $end
$var integer 32 g" xs [31:0] $end
$upscope $end
$scope begin predict_reds $end
$var integer 32 h" t2_i [31:0] $end
$var integer 32 i" t3_i [31:0] $end
$var integer 32 j" t4_i [31:0] $end
$var integer 32 k" x1_i [31:0] $end
$var integer 32 l" x2_i [31:0] $end
$var integer 32 m" x3_i [31:0] $end
$var integer 32 n" x_ctr_i [31:0] $end
$var integer 32 o" x_pos_i [31:0] $end
$upscope $end
$upscope $end
$scope module u_crt $end
$var wire 1 * clk $end
$var wire 2 p" r0 [1:0] $end
$var wire 3 q" r1 [2:0] $end
$var wire 3 r" r2 [2:0] $end
$var wire 4 s" r3 [3:0] $end
$var wire 1 - rst_n $end
$var wire 1 d CRT_Start $end
$var parameter 32 t" HALF_M $end
$var parameter 32 u" INV0 $end
$var parameter 32 v" INV1 $end
$var parameter 32 w" INV2 $end
$var parameter 32 x" INV3 $end
$var parameter 32 y" M $end
$var parameter 32 z" M0 $end
$var parameter 32 {" M1 $end
$var parameter 32 |" M2 $end
$var parameter 32 }" M3 $end
$var parameter 32 ~" MOD0 $end
$var parameter 32 !# MOD1 $end
$var parameter 32 "# MOD2 $end
$var parameter 32 ## MOD3 $end
$var parameter 32 $# OUT_WIDTH $end
$var parameter 32 %# W0 $end
$var parameter 32 &# W1 $end
$var parameter 32 '# W2 $end
$var parameter 32 (# W3 $end
$var reg 1 e CRT_Done $end
$var reg 16 )# X_next [15:0] $end
$var reg 16 *# X_out [15:0] $end
$var reg 1 +# start_d $end
$var reg 10 ,# term0 [9:0] $end
$var reg 10 -# term1 [9:0] $end
$var reg 11 .# term2 [10:0] $end
$var reg 12 /# term3 [11:0] $end
$var reg 13 0# total [12:0] $end
$var reg 11 1# total_centered [10:0] $end
$var reg 11 2# total_mod [10:0] $end
$var reg 2 3# x0_mod [1:0] $end
$var reg 3 4# x1_mod [2:0] $end
$var reg 3 5# x2_mod [2:0] $end
$var reg 4 6# x3_mod [3:0] $end
$scope function norm_mod $end
$var integer 32 7# m [31:0] $end
$var integer 32 8# t [31:0] $end
$var integer 32 9# x [31:0] $end
$upscope $end
$upscope $end
$scope module u_cu $end
$var wire 1 2 ALU_Done $end
$var wire 1 e CRT_Done $end
$var wire 1 b Correct_Done $end
$var wire 1 5 Encode_Done $end
$var wire 1 6 MRC_Done $end
$var wire 1 :# Recon_Mode $end
$var wire 1 ) Start $end
$var wire 1 * clk $end
$var wire 1 - rst_n $end
$var wire 1 ;# recon_done_sel $end
$var wire 4 <# CU_state_dbg [3:0] $end
$var parameter 4 =# S_ALU $end
$var parameter 4 ># S_CORRECT $end
$var parameter 4 ?# S_DONE $end
$var parameter 4 @# S_ENCODE $end
$var parameter 4 A# S_IDLE $end
$var parameter 4 B# S_LOAD $end
$var parameter 4 C# S_OUT $end
$var parameter 4 D# S_RECON_POST $end
$var parameter 4 E# S_RECON_PRE $end
$var reg 1 f ALU_EN $end
$var reg 1 d CRT_Start $end
$var reg 1 a Correct_Start $end
$var reg 1 $ Done $end
$var reg 1 ] Encode_EN $end
$var reg 1 [ Load_IN $end
$var reg 1 Z MRC_Start $end
$var reg 1 Y Out_EN $end
$var reg 4 F# next_state [3:0] $end
$var reg 4 G# state [3:0] $end
$upscope $end
$scope module u_enc_a $end
$var wire 1 ] Encode_EN $end
$var wire 1 * clk $end
$var wire 1 - rst_n $end
$var wire 16 H# x [15:0] $end
$var parameter 32 I# CRNS_EN $end
$var parameter 32 J# M0 $end
$var parameter 32 K# M1 $end
$var parameter 32 L# M2 $end
$var parameter 32 M# M3 $end
$var parameter 32 N# M4 $end
$var parameter 32 O# M5 $end
$var parameter 32 P# W0 $end
$var parameter 32 Q# W1 $end
$var parameter 32 R# W2 $end
$var parameter 32 S# W3 $end
$var parameter 32 T# W4 $end
$var parameter 32 U# W5 $end
$var parameter 32 V# WIDTH_IN $end
$var reg 1 _ Encode_Done $end
$var reg 2 W# r0 [1:0] $end
$var reg 3 X# r1 [2:0] $end
$var reg 3 Y# r2 [2:0] $end
$var reg 4 Z# r3 [3:0] $end
$var reg 4 [# r4 [3:0] $end
$var reg 5 \# r5 [4:0] $end
$var integer 32 ]# tmp0 [31:0] $end
$var integer 32 ^# tmp1 [31:0] $end
$var integer 32 _# tmp2 [31:0] $end
$var integer 32 `# tmp3 [31:0] $end
$var integer 32 a# tmp4 [31:0] $end
$var integer 32 b# tmp5 [31:0] $end
$scope function norm_bal $end
$var integer 32 c# m [31:0] $end
$var integer 32 d# r [31:0] $end
$var integer 32 e# val [31:0] $end
$upscope $end
$scope function norm_std $end
$var integer 32 f# m [31:0] $end
$var integer 32 g# val [31:0] $end
$upscope $end
$upscope $end
$scope module u_enc_b $end
$var wire 1 ] Encode_EN $end
$var wire 1 * clk $end
$var wire 1 - rst_n $end
$var wire 16 h# x [15:0] $end
$var parameter 32 i# CRNS_EN $end
$var parameter 32 j# M0 $end
$var parameter 32 k# M1 $end
$var parameter 32 l# M2 $end
$var parameter 32 m# M3 $end
$var parameter 32 n# M4 $end
$var parameter 32 o# M5 $end
$var parameter 32 p# W0 $end
$var parameter 32 q# W1 $end
$var parameter 32 r# W2 $end
$var parameter 32 s# W3 $end
$var parameter 32 t# W4 $end
$var parameter 32 u# W5 $end
$var parameter 32 v# WIDTH_IN $end
$var reg 1 ^ Encode_Done $end
$var reg 2 w# r0 [1:0] $end
$var reg 3 x# r1 [2:0] $end
$var reg 3 y# r2 [2:0] $end
$var reg 4 z# r3 [3:0] $end
$var reg 4 {# r4 [3:0] $end
$var reg 5 |# r5 [4:0] $end
$var integer 32 }# tmp0 [31:0] $end
$var integer 32 ~# tmp1 [31:0] $end
$var integer 32 !$ tmp2 [31:0] $end
$var integer 32 "$ tmp3 [31:0] $end
$var integer 32 #$ tmp4 [31:0] $end
$var integer 32 $$ tmp5 [31:0] $end
$scope function norm_bal $end
$var integer 32 %$ m [31:0] $end
$var integer 32 &$ r [31:0] $end
$var integer 32 '$ val [31:0] $end
$upscope $end
$scope function norm_std $end
$var integer 32 ($ m [31:0] $end
$var integer 32 )$ val [31:0] $end
$upscope $end
$upscope $end
$scope module u_slice0 $end
$var wire 1 f ALU_EN $end
$var wire 2 *$ a [1:0] $end
$var wire 2 +$ b [1:0] $end
$var wire 1 * clk $end
$var wire 2 ,$ op_sel [1:0] $end
$var wire 1 - rst_n $end
$var parameter 32 -$ CRNS_EN $end
$var parameter 32 .$ MODULUS $end
$var parameter 32 /$ WIDTH $end
$var reg 1 E ALU_Done $end
$var reg 1 0$ start_d $end
$var reg 2 1$ y [1:0] $end
$var reg 2 2$ y_next [1:0] $end
$var integer 32 3$ raw [31:0] $end
$var integer 32 4$ tmp [31:0] $end
$scope function norm_bal $end
$var integer 32 5$ m [31:0] $end
$var integer 32 6$ r [31:0] $end
$var integer 32 7$ val [31:0] $end
$upscope $end
$scope function norm_std $end
$var integer 32 8$ m [31:0] $end
$var integer 32 9$ val [31:0] $end
$upscope $end
$upscope $end
$scope module u_slice1 $end
$var wire 1 f ALU_EN $end
$var wire 3 :$ a [2:0] $end
$var wire 3 ;$ b [2:0] $end
$var wire 1 * clk $end
$var wire 2 <$ op_sel [1:0] $end
$var wire 1 - rst_n $end
$var parameter 32 =$ CRNS_EN $end
$var parameter 32 >$ MODULUS $end
$var parameter 32 ?$ WIDTH $end
$var reg 1 D ALU_Done $end
$var reg 1 @$ start_d $end
$var reg 3 A$ y [2:0] $end
$var reg 3 B$ y_next [2:0] $end
$var integer 32 C$ raw [31:0] $end
$var integer 32 D$ tmp [31:0] $end
$scope function norm_bal $end
$var integer 32 E$ m [31:0] $end
$var integer 32 F$ r [31:0] $end
$var integer 32 G$ val [31:0] $end
$upscope $end
$scope function norm_std $end
$var integer 32 H$ m [31:0] $end
$var integer 32 I$ val [31:0] $end
$upscope $end
$upscope $end
$scope module u_slice2 $end
$var wire 1 f ALU_EN $end
$var wire 3 J$ a [2:0] $end
$var wire 3 K$ b [2:0] $end
$var wire 1 * clk $end
$var wire 2 L$ op_sel [1:0] $end
$var wire 1 - rst_n $end
$var parameter 32 M$ CRNS_EN $end
$var parameter 32 N$ MODULUS $end
$var parameter 32 O$ WIDTH $end
$var reg 1 C ALU_Done $end
$var reg 1 P$ start_d $end
$var reg 3 Q$ y [2:0] $end
$var reg 3 R$ y_next [2:0] $end
$var integer 32 S$ raw [31:0] $end
$var integer 32 T$ tmp [31:0] $end
$scope function norm_bal $end
$var integer 32 U$ m [31:0] $end
$var integer 32 V$ r [31:0] $end
$var integer 32 W$ val [31:0] $end
$upscope $end
$scope function norm_std $end
$var integer 32 X$ m [31:0] $end
$var integer 32 Y$ val [31:0] $end
$upscope $end
$upscope $end
$scope module u_slice3 $end
$var wire 1 f ALU_EN $end
$var wire 4 Z$ a [3:0] $end
$var wire 4 [$ b [3:0] $end
$var wire 1 * clk $end
$var wire 2 \$ op_sel [1:0] $end
$var wire 1 - rst_n $end
$var parameter 32 ]$ CRNS_EN $end
$var parameter 32 ^$ MODULUS $end
$var parameter 32 _$ WIDTH $end
$var reg 1 B ALU_Done $end
$var reg 1 `$ start_d $end
$var reg 4 a$ y [3:0] $end
$var reg 4 b$ y_next [3:0] $end
$var integer 32 c$ raw [31:0] $end
$var integer 32 d$ tmp [31:0] $end
$scope function norm_bal $end
$var integer 32 e$ m [31:0] $end
$var integer 32 f$ r [31:0] $end
$var integer 32 g$ val [31:0] $end
$upscope $end
$scope function norm_std $end
$var integer 32 h$ m [31:0] $end
$var integer 32 i$ val [31:0] $end
$upscope $end
$upscope $end
$scope module u_slice4 $end
$var wire 1 f ALU_EN $end
$var wire 4 j$ a [3:0] $end
$var wire 4 k$ b [3:0] $end
$var wire 1 * clk $end
$var wire 2 l$ op_sel [1:0] $end
$var wire 1 - rst_n $end
$var parameter 32 m$ CRNS_EN $end
$var parameter 32 n$ MODULUS $end
$var parameter 32 o$ WIDTH $end
$var reg 1 A ALU_Done $end
$var reg 1 p$ start_d $end
$var reg 4 q$ y [3:0] $end
$var reg 4 r$ y_next [3:0] $end
$var integer 32 s$ raw [31:0] $end
$var integer 32 t$ tmp [31:0] $end
$scope function norm_bal $end
$var integer 32 u$ m [31:0] $end
$var integer 32 v$ r [31:0] $end
$var integer 32 w$ val [31:0] $end
$upscope $end
$scope function norm_std $end
$var integer 32 x$ m [31:0] $end
$var integer 32 y$ val [31:0] $end
$upscope $end
$upscope $end
$scope module u_slice5 $end
$var wire 1 f ALU_EN $end
$var wire 5 z$ a [4:0] $end
$var wire 5 {$ b [4:0] $end
$var wire 1 * clk $end
$var wire 2 |$ op_sel [1:0] $end
$var wire 1 - rst_n $end
$var parameter 32 }$ CRNS_EN $end
$var parameter 32 ~$ MODULUS $end
$var parameter 32 !% WIDTH $end
$var reg 1 @ ALU_Done $end
$var reg 1 "% start_d $end
$var reg 5 #% y [4:0] $end
$var reg 5 $% y_next [4:0] $end
$var integer 32 %% raw [31:0] $end
$var integer 32 &% tmp [31:0] $end
$scope function norm_bal $end
$var integer 32 '% m [31:0] $end
$var integer 32 (% r [31:0] $end
$var integer 32 )% val [31:0] $end
$upscope $end
$scope function norm_std $end
$var integer 32 *% m [31:0] $end
$var integer 32 +% val [31:0] $end
$upscope $end
$upscope $end
$upscope $end
$scope task finish_report $end
$upscope $end
$scope task pulse_start $end
$upscope $end
$scope task record_result $end
$upscope $end
$scope task run_fault_test_base_lane $end
$upscope $end
$scope task run_fault_test_red13 $end
$upscope $end
$scope task run_fault_test_red17 $end
$upscope $end
$scope task run_test $end
$upscope $end
$scope task wait_done_or_timeout $end
$upscope $end
$upscope $end
$enddefinitions $end
$comment Show the parameter values. $end
$dumpall
b101 !%
b10001 ~$
b1 }$
b100 o$
b1101 n$
b1 m$
b100 _$
b1011 ^$
b1 ]$
b11 O$
b111 N$
b1 M$
b11 ?$
b101 >$
b1 =$
b10 /$
b11 .$
b1 -$
b10000 v#
b101 u#
b100 t#
b100 s#
b11 r#
b11 q#
b10 p#
b10001 o#
b1101 n#
b1011 m#
b111 l#
b101 k#
b11 j#
b1 i#
b10000 V#
b101 U#
b100 T#
b100 S#
b11 R#
b11 Q#
b10 P#
b10001 O#
b1101 N#
b1011 M#
b111 L#
b101 K#
b11 J#
b1 I#
b100 E#
b110 D#
b111 C#
b1 B#
b0 A#
b10 @#
b1000 ?#
b101 >#
b11 =#
b100 (#
b11 '#
b11 &#
b10 %#
b10000 $#
b1011 ##
b111 "#
b101 !#
b11 ~"
b1101001 }"
b10100101 |"
b11100111 {"
b110000001 z"
b10010000011 y"
b10 x"
b10 w"
b1 v"
b1 u"
b1001000001 t"
b101 <"
b100 ;"
b100 :"
b11 9"
b11 8"
b10 7"
b11 6"
b1 5"
b0 4"
b10 3"
b100 2"
b10000 1"
b10010000011 0"
b10001 /"
b1101 ."
b1011 -"
b111 ,"
b101 +"
b11 *"
b10000 u
b101 t
b100 s
b100 r
b11 q
b11 p
b10 o
b10001 n
b1101 m
b1011 l
b111 k
b101 j
b11 i
b1 h
b1 g
$end
#0
$dumpvars
bx +%
bx *%
bx )%
bx (%
bx '%
bx &%
bx %%
bx $%
bx #%
x"%
bx |$
bx {$
bx z$
bx y$
bx x$
bx w$
bx v$
bx u$
bx t$
bx s$
bx r$
bx q$
xp$
bx l$
bx k$
bx j$
bx i$
bx h$
bx g$
bx f$
bx e$
bx d$
bx c$
bx b$
bx a$
x`$
bx \$
bx [$
bx Z$
bx Y$
bx X$
bx W$
bx V$
bx U$
bx T$
bx S$
bx R$
bx Q$
xP$
bx L$
bx K$
bx J$
bx I$
bx H$
bx G$
bx F$
bx E$
bx D$
bx C$
bx B$
bx A$
x@$
bx <$
bx ;$
bx :$
bx 9$
bx 8$
bx 7$
bx 6$
bx 5$
bx 4$
bx 3$
bx 2$
bx 1$
x0$
bx ,$
bx +$
bx *$
bx )$
bx ($
bx '$
bx &$
bx %$
bx $$
bx #$
bx "$
bx !$
bx ~#
bx }#
bx |#
bx {#
bx z#
bx y#
bx x#
bx w#
bx h#
bx g#
bx f#
bx e#
bx d#
bx c#
bx b#
bx a#
bx `#
bx _#
bx ^#
bx ]#
bx \#
bx [#
bx Z#
bx Y#
bx X#
bx W#
bx H#
bx G#
b0 F#
bx <#
x;#
0:#
bx 9#
bx 8#
bx 7#
bx 6#
bx 5#
bx 4#
bx 3#
bx 2#
bx 1#
bx 0#
bx /#
bx .#
bx -#
bx ,#
x+#
bx *#
bx )#
bx s"
bx r"
bx q"
bx p"
bx o"
bx n"
bx m"
bx l"
bx k"
bx j"
bx i"
bx h"
bx g"
bx f"
bx e"
bx d"
bx c"
bx b"
bx a"
bx `"
bx _"
bx ^"
bx ]"
bx \"
bx ["
bx Z"
bx Y"
bx X"
bx W"
bx V"
xU"
bx T"
xS"
bx R"
bx Q"
bx P"
bx O"
bx N"
bx M"
bx L"
xK"
bx J"
bx I"
bx H"
bx G"
bx F"
bx E"
xD"
xC"
xB"
bx A"
bx @"
bx ?"
bx >"
bx ="
bx )"
bx ("
bx '"
bx &"
bx %"
bx $"
0#"
bx ""
bx !"
x~
bx }
bx |
x{
xz
bx y
bx x
bx w
bx v
0f
xe
0d
bx c
xb
0a
x`
x_
x^
0]
x\
0[
0Z
0Y
xX
bx W
bx V
bx U
bx T
bx S
bx R
bx Q
bx P
bx O
bx N
bx M
bx L
bx K
bx J
bx I
bx H
bx G
xF
xE
xD
xC
xB
xA
x@
bx ?
bx >
bx =
bx <
bx ;
bx :
bx 9
bx 8
b0 7
06
x5
b0 4
b0 3
x2
b0 1
b0 0
bx /
bx .
0-
bx ,
bx +
0*
0)
b0 (
b0 '
b0 &
x%
0$
x#
x"
bx !
$end
#5000
05
02
0;#
1K"
b0 J"
b0 I"
b0 n"
b0 o"
b0 j"
b0 m"
b0 i"
b0 l"
b0 h"
b0 b"
b0 c"
b10001 a"
b0 k"
b0 @"
b0 ?"
b0 >"
b0 ="
0F
b0 c
b0 <#
b0 G#
0_
0^
0E
00$
0D
0@$
0C
0P$
0B
0`$
0A
0p$
0@
0"%
0+#
0e
b0 R"
b0 Q"
b0 P"
b0 O"
b0 N"
b0 M"
b0 W"
b0 V"
0D"
0U"
b0 A"
b0 L"
0C"
0B"
0X
0`
0\
b0 G
b0 H"
b0 H
b0 G"
b0 I
b0 F"
b0 J
b0 E"
0b
0S"
b0 T"
b0 }
b0 y
b0 w
0"
0~
0%
0z
0#
0{
b0 !
b0 9
b0 !"
1*
#10000
0*
#15000
1*
#20000
0*
#25000
1*
#30000
0*
#35000
1*
#40000
0*
#45000
1*
#50000
1-
0*
#55000
1*
#60000
b111 '
b111 4
b1010 &
b1010 3
0*
#65000
b111 y
b1010 w
1*
#70000
b1 F#
1)
0*
#75000
1[
b10 F#
b1 c
b1 <#
b1 G#
1*
#80000
b10 F#
0)
0*
#85000
1]
0[
b11 8$
b11 5$
bx 2$
bx 4$
bx 3$
b101 H$
b101 E$
bx B$
bx D$
bx C$
b111 X$
b111 U$
bx R$
bx T$
bx S$
b1011 h$
b1011 e$
bx b$
bx d$
bx c$
b1101 x$
b1101 u$
bx r$
bx t$
bx s$
b10001 *%
b10001 '%
bx $%
bx &%
bx %%
b10 c
b10 <#
b10 G#
b0 |
b0 ,$
b0 <$
b0 L$
b0 \$
b0 l$
b0 |$
b111 x
b111 h#
b1010 v
b1010 H#
1*
#90000
0*
#95000
b11 F#
15
b0 (%
b0 +%
b0 )%
b0 $%
b0 &%
b0 %%
b100 v$
b11111111111111111111111111110111 y$
b11111111111111111111111111110111 w$
b100 r$
b100 t$
b11111111111111111111111111110111 s$
b11111111111111111111111111111011 f$
b11111111111111111111111111111011 i$
b11111111111111111111111111111011 g$
b1011 b$
b11111111111111111111111111111011 d$
b11111111111111111111111111111011 c$
b11 V$
b11 Y$
b11 W$
b11 R$
b11 T$
b11 S$
b10 F$
b10 I$
b10 G$
b10 B$
b10 D$
b10 C$
b11111111111111111111111111111111 6$
b10 9$
b10 7$
b11 2$
b11111111111111111111111111111111 4$
b10 3$
1^
b111 K
b111 |#
b111 {$
b1010 L
b1010 {#
b1010 k$
b1100 M
b1100 z#
b1100 [$
b0 N
b0 y#
b0 K$
b10 O
b10 x#
b10 ;$
b1 P
b1 w#
b1 +$
1_
b11001 Q
b11001 \#
b11001 z$
b1101 R
b1101 [#
b1101 j$
b1111 S
b1111 Z#
b1111 Z$
b11 T
b11 Y#
b11 J$
b0 U
b0 X#
b0 :$
b1 V
b1 W#
b1 *$
b111 $$
b11111111111111111111111111111010 #$
b11111111111111111111111111111100 "$
b0 !$
b10 ~#
b1 }#
b111 &$
b111 )$
b10001 ($
b111 '$
b10001 %$
b11111111111111111111111111111001 b#
b11111111111111111111111111111101 a#
b11111111111111111111111111111111 `#
b11 _#
b0 ^#
b1 ]#
b11111111111111111111111111111001 d#
b1010 g#
b10001 f#
b1010 e#
b10001 c#
1*
#100000
0*
#105000
1f
0]
b11 c
b11 <#
b11 G#
1_
1^
b11111111111111111111111111111001 d#
b10001 f#
b10001 c#
b111 &$
b10001 ($
b10001 %$
1*
#110000
0*
#115000
b10001 )#
b10001 1#
b10001 2#
b110110011010 0#
b10011101100 /#
b1111011110 .#
b111001110 -#
b1100000010 ,#
b110 6#
b11 5#
b10 4#
b10 3#
b10001 8#
b110110011010 9#
b10010000011 7#
b1011 s"
b11 r"
b10 q"
b11 p"
05
b0 :
b0 $"
b0 #%
1"%
b100 ;
b100 %"
b100 q$
1p$
b1011 <
b1011 &"
b1011 a$
1`$
b11 =
b11 '"
b11 Q$
1P$
b10 >
b10 ("
b10 A$
1@$
b11 ?
b11 )"
b11 1$
10$
0^
0_
1*
#120000
0*
#125000
b100 F#
12
1E
1D
1C
1B
1A
1@
1*
#130000
0*
#135000
1d
0f
b100 c
b100 <#
b100 G#
1*
#140000
0*
#145000
00$
0@$
0P$
0`$
0p$
0"%
b10001 8
b10001 ""
b10001 W
b10001 *#
1+#
1*
#150000
0*
#155000
b101 F#
1;#
02
1e
0@
0A
0B
0C
0D
0E
1*
#160000
0*
#165000
1#"
1a
0d
b101 c
b101 <#
b101 G#
1*
#170000
0*
#175000
0#"
0K"
b1011 J"
b1100 I"
b110010010 n"
b110010010 o"
b11 j"
b1010111 m"
b101 i"
b1100 l"
b100 h"
b1011 b"
b110010010 c"
b10001 a"
b110 @"
b11 ?"
b10 >"
b0 ="
b1 T"
b1011 G
b1011 H"
b11 H
b11 G"
b10 I
b10 F"
b11 J
b11 E"
b100 Q"
b110 P"
b11 O"
b10 N"
b10 M"
1S"
0+#
b0 ]"
b100 \"
b1011 ["
b11 Z"
b10 Y"
b11 X"
1*
#180000
0*
#185000
0;#
0e
b100 T"
1X
1C"
1B"
b10001 g"
b10001 f"
b0 b"
b10001 c"
b10001 a"
b10001 e"
b10001 d"
1*
#190000
0*
#195000
b110 F#
b0 T"
1b
1*
#200000
0*
#205000
1d
0a
1F
b110 c
b110 <#
b110 G#
0b
1*
#210000
0*
#215000
0S"
1+#
1*
#220000
0*
#225000
b111 F#
1;#
1e
1*
#230000
0*
#235000
1Y
0d
b1000 F#
0F
b111 c
b111 <#
b111 G#
1*
#240000
0*
#245000
1$
0Y
b0 F#
b1000 c
b1000 <#
b1000 G#
0+#
1"
1~
b10001 !
b10001 9
b10001 !"
1*
#250000
0*
#255000
0;#
0$
0e
b0 c
b0 <#
b0 G#
1*
#256000
b1 1
#260000
b101000001 '
b101000001 4
b1111011 &
b1111011 3
0*
#265000
b101000001 y
b1111011 w
1*
#270000
b1 F#
1)
0*
#275000
1[
b10 F#
b1 c
b1 <#
b1 G#
1*
#280000
b10 F#
0)
0*
#285000
1]
0[
b10 c
b10 <#
b10 G#
b101000001 x
b101000001 h#
b1111011 v
b1111011 H#
1*
#290000
0*
