runs/23611085363/precheck/rtl/rtl_precheck.vcd
$date
	Thu Mar 26 18:23:09 2026
$end
$version
	Icarus Verilog
$end
$timescale
	1ps
$end
$scope module tb_crns_top_crt $end
$var wire 16 ! X_out [15:0] $end
$var wire 1 " Done $end
$var reg 16 # A_in [15:0] $end
$var reg 16 $ B_in [15:0] $end
$var reg 2 % Op_Sel [1:0] $end
$var reg 1 & Start $end
$var reg 1 ' clk $end
$var reg 1 ( rst_n $end
$scope module dut $end
$var wire 1 ) ALU_Done_all $end
$var wire 16 * A_in [15:0] $end
$var wire 16 + B_in [15:0] $end
$var wire 1 , Encode_Done_all $end
$var wire 1 - MRC_Done $end
$var wire 2 . Op_Sel [1:0] $end
$var wire 1 & Start $end
$var wire 16 / X_out [15:0] $end
$var wire 1 ' clk $end
$var wire 1 ( rst_n $end
$var wire 4 0 z_r3 [3:0] $end
$var wire 3 1 z_r2 [2:0] $end
$var wire 3 2 z_r1 [2:0] $end
$var wire 2 3 z_r0 [1:0] $end
$var wire 1 4 slice3_done $end
$var wire 1 5 slice2_done $end
$var wire 1 6 slice1_done $end
$var wire 1 7 slice0_done $end
$var wire 4 8 b_r3 [3:0] $end
$var wire 3 9 b_r2 [2:0] $end
$var wire 3 : b_r1 [2:0] $end
$var wire 2 ; b_r0 [1:0] $end
$var wire 4 < a_r3 [3:0] $end
$var wire 3 = a_r2 [2:0] $end
$var wire 3 > a_r1 [2:0] $end
$var wire 2 ? a_r0 [1:0] $end
$var wire 16 @ X_crt [15:0] $end
$var wire 1 A Out_EN $end
$var wire 1 B MRC_Start $end
$var wire 1 C Load_IN $end
$var wire 1 D Encode_EN $end
$var wire 1 E Encode_Done_B $end
$var wire 1 F Encode_Done_A $end
$var wire 1 " Done $end
$var wire 3 G CU_state_dbg [2:0] $end
$var wire 1 H CRT_Start $end
$var wire 1 I CRT_Done $end
$var wire 1 J ALU_EN $end
$var parameter 32 K CENTERED_OUT_EN $end
$var parameter 32 L CRNS_EN $end
$var parameter 32 M HALF_M_TOTAL $end
$var parameter 32 N M0 $end
$var parameter 32 O M1 $end
$var parameter 32 P M2 $end
$var parameter 32 Q M3 $end
$var parameter 32 R M_TOTAL $end
$var parameter 32 S W0 $end
$var parameter 32 T W1 $end
$var parameter 32 U W2 $end
$var parameter 32 V W3 $end
$var parameter 32 W WIDTH_IN $end
$var reg 16 X A_reg [15:0] $end
$var reg 16 Y B_reg [15:0] $end
$var reg 2 Z OpSel_reg [1:0] $end
$var reg 16 [ X_reg [15:0] $end
$scope module u_crt $end
$var wire 1 ' clk $end
$var wire 1 ( rst_n $end
$var wire 4 \ r3 [3:0] $end
$var wire 3 ] r2 [2:0] $end
$var wire 3 ^ r1 [2:0] $end
$var wire 2 _ r0 [1:0] $end
$var wire 1 H CRT_Start $end
$var parameter 32 ` HALF_M $end
$var parameter 32 a INV0 $end
$var parameter 32 b INV1 $end
$var parameter 32 c INV2 $end
$var parameter 32 d INV3 $end
$var parameter 32 e M $end
$var parameter 32 f M0 $end
$var parameter 32 g M1 $end
$var parameter 32 h M2 $end
$var parameter 32 i M3 $end
$var parameter 32 j MOD0 $end
$var parameter 32 k MOD1 $end
$var parameter 32 l MOD2 $end
$var parameter 32 m MOD3 $end
$var parameter 32 n OUT_WIDTH $end
$var parameter 32 o W0 $end
$var parameter 32 p W1 $end
$var parameter 32 q W2 $end
$var parameter 32 r W3 $end
$var reg 1 I CRT_Done $end
$var reg 16 s X_next [15:0] $end
$var reg 16 t X_out [15:0] $end
$var reg 1 u start_d $end
$var integer 32 v term0 [31:0] $end
$var integer 32 w term1 [31:0] $end
$var integer 32 x term2 [31:0] $end
$var integer 32 y term3 [31:0] $end
$var integer 32 z total [31:0] $end
$var integer 32 { total_centered [31:0] $end
$var integer 32 | total_mod [31:0] $end
$var integer 32 } x0_mod [31:0] $end
$var integer 32 ~ x1_mod [31:0] $end
$var integer 32 !" x2_mod [31:0] $end
$var integer 32 "" x3_mod [31:0] $end
$upscope $end
$scope module u_cu $end
$var wire 1 ) ALU_Done $end
$var wire 1 I CRT_Done $end
$var wire 3 #" CU_state_dbg [2:0] $end
$var wire 1 , Encode_Done $end
$var wire 1 - MRC_Done $end
$var wire 1 $" Recon_Mode $end
$var wire 1 & Start $end
$var wire 1 ' clk $end
$var wire 1 ( rst_n $end
$var wire 1 %" recon_done_sel $end
$var parameter 3 &" S_ALU $end
$var parameter 3 '" S_DONE $end
$var parameter 3 (" S_ENCODE $end
$var parameter 3 )" S_IDLE $end
$var parameter 3 *" S_LOAD $end
$var parameter 3 +" S_OUT $end
$var parameter 3 ," S_RECON $end
$var reg 1 J ALU_EN $end
$var reg 1 H CRT_Start $end
$var reg 1 " Done $end
$var reg 1 D Encode_EN $end
$var reg 1 C Load_IN $end
$var reg 1 B MRC_Start $end
$var reg 1 A Out_EN $end
$var reg 3 -" next_state [2:0] $end
$var reg 3 ." state [2:0] $end
$upscope $end
$scope module u_enc_a $end
$var wire 1 D Encode_EN $end
$var wire 1 ' clk $end
$var wire 1 ( rst_n $end
$var wire 16 /" x [15:0] $end
$var parameter 32 0" CRNS_EN $end
$var parameter 32 1" M0 $end
$var parameter 32 2" M1 $end
$var parameter 32 3" M2 $end
$var parameter 32 4" M3 $end
$var parameter 32 5" W0 $end
$var parameter 32 6" W1 $end
$var parameter 32 7" W2 $end
$var parameter 32 8" W3 $end
$var parameter 32 9" WIDTH_IN $end
$var reg 1 F Encode_Done $end
$var reg 2 :" r0 [1:0] $end
$var reg 3 ;" r1 [2:0] $end
$var reg 3 <" r2 [2:0] $end
$var reg 4 =" r3 [3:0] $end
$var integer 32 >" tmp0 [31:0] $end
$var integer 32 ?" tmp1 [31:0] $end
$var integer 32 @" tmp2 [31:0] $end
$var integer 32 A" tmp3 [31:0] $end
$scope function norm_bal $end
$var integer 32 B" m [31:0] $end
$var integer 32 C" r [31:0] $end
$var integer 32 D" val [31:0] $end
$upscope $end
$scope function norm_std $end
$var integer 32 E" m [31:0] $end
$var integer 32 F" val [31:0] $end
$upscope $end
$upscope $end
$scope module u_enc_b $end
$var wire 1 D Encode_EN $end
$var wire 1 ' clk $end
$var wire 1 ( rst_n $end
$var wire 16 G" x [15:0] $end
$var parameter 32 H" CRNS_EN $end
$var parameter 32 I" M0 $end
$var parameter 32 J" M1 $end
$var parameter 32 K" M2 $end
$var parameter 32 L" M3 $end
$var parameter 32 M" W0 $end
$var parameter 32 N" W1 $end
$var parameter 32 O" W2 $end
$var parameter 32 P" W3 $end
$var parameter 32 Q" WIDTH_IN $end
$var reg 1 E Encode_Done $end
$var reg 2 R" r0 [1:0] $end
$var reg 3 S" r1 [2:0] $end
$var reg 3 T" r2 [2:0] $end
$var reg 4 U" r3 [3:0] $end
$var integer 32 V" tmp0 [31:0] $end
$var integer 32 W" tmp1 [31:0] $end
$var integer 32 X" tmp2 [31:0] $end
$var integer 32 Y" tmp3 [31:0] $end
$scope function norm_bal $end
$var integer 32 Z" m [31:0] $end
$var integer 32 [" r [31:0] $end
$var integer 32 \" val [31:0] $end
$upscope $end
$scope function norm_std $end
$var integer 32 ]" m [31:0] $end
$var integer 32 ^" val [31:0] $end
$upscope $end
$upscope $end
$scope module u_slice0 $end
$var wire 1 J ALU_EN $end
$var wire 2 _" a [1:0] $end
$var wire 2 `" b [1:0] $end
$var wire 1 ' clk $end
$var wire 2 a" op_sel [1:0] $end
$var wire 1 ( rst_n $end
$var parameter 32 b" CRNS_EN $end
$var parameter 32 c" MODULUS $end
$var parameter 32 d" WIDTH $end
$var reg 1 7 ALU_Done $end
$var reg 1 e" start_d $end
$var reg 2 f" y [1:0] $end
$var reg 2 g" y_next [1:0] $end
$var integer 32 h" raw [31:0] $end
$var integer 32 i" tmp [31:0] $end
$scope function norm_bal $end
$var integer 32 j" m [31:0] $end
$var integer 32 k" r [31:0] $end
$var integer 32 l" val [31:0] $end
$upscope $end
$scope function norm_std $end
$var integer 32 m" m [31:0] $end
$var integer 32 n" val [31:0] $end
$upscope $end
$upscope $end
$scope module u_slice1 $end
$var wire 1 J ALU_EN $end
$var wire 3 o" a [2:0] $end
$var wire 3 p" b [2:0] $end
$var wire 1 ' clk $end
$var wire 2 q" op_sel [1:0] $end
$var wire 1 ( rst_n $end
$var parameter 32 r" CRNS_EN $end
$var parameter 32 s" MODULUS $end
$var parameter 32 t" WIDTH $end
$var reg 1 6 ALU_Done $end
$var reg 1 u" start_d $end
$var reg 3 v" y [2:0] $end
$var reg 3 w" y_next [2:0] $end
$var integer 32 x" raw [31:0] $end
$var integer 32 y" tmp [31:0] $end
$scope function norm_bal $end
$var integer 32 z" m [31:0] $end
$var integer 32 {" r [31:0] $end
$var integer 32 |" val [31:0] $end
$upscope $end
$scope function norm_std $end
$var integer 32 }" m [31:0] $end
$var integer 32 ~" val [31:0] $end
$upscope $end
$upscope $end
$scope module u_slice2 $end
$var wire 1 J ALU_EN $end
$var wire 3 !# a [2:0] $end
$var wire 3 "# b [2:0] $end
$var wire 1 ' clk $end
$var wire 2 ## op_sel [1:0] $end
$var wire 1 ( rst_n $end
$var parameter 32 $# CRNS_EN $end
$var parameter 32 %# MODULUS $end
$var parameter 32 &# WIDTH $end
$var reg 1 5 ALU_Done $end
$var reg 1 '# start_d $end
$var reg 3 (# y [2:0] $end
$var reg 3 )# y_next [2:0] $end
$var integer 32 *# raw [31:0] $end
$var integer 32 +# tmp [31:0] $end
$scope function norm_bal $end
$var integer 32 ,# m [31:0] $end
$var integer 32 -# r [31:0] $end
$var integer 32 .# val [31:0] $end
$upscope $end
$scope function norm_std $end
$var integer 32 /# m [31:0] $end
$var integer 32 0# val [31:0] $end
$upscope $end
$upscope $end
$scope module u_slice3 $end
$var wire 1 J ALU_EN $end
$var wire 4 1# a [3:0] $end
$var wire 4 2# b [3:0] $end
$var wire 1 ' clk $end
$var wire 2 3# op_sel [1:0] $end
$var wire 1 ( rst_n $end
$var parameter 32 4# CRNS_EN $end
$var parameter 32 5# MODULUS $end
$var parameter 32 6# WIDTH $end
$var reg 1 4 ALU_Done $end
$var reg 1 7# start_d $end
$var reg 4 8# y [3:0] $end
$var reg 4 9# y_next [3:0] $end
$var integer 32 :# raw [31:0] $end
$var integer 32 ;# tmp [31:0] $end
$scope function norm_bal $end
$var integer 32 <# m [31:0] $end
$var integer 32 =# r [31:0] $end
$var integer 32 ># val [31:0] $end
$upscope $end
$scope function norm_std $end
$var integer 32 ?# m [31:0] $end
$var integer 32 @# val [31:0] $end
$upscope $end
$upscope $end
$upscope $end
$scope task run_test $end
$var reg 16 A# a [15:0] $end
$var reg 16 B# b [15:0] $end
$var reg 16 C# expected [15:0] $end
$var reg 128 D# name [127:0] $end
$var reg 2 E# op [1:0] $end
$upscope $end
$upscope $end
$enddefinitions $end
$comment Show the parameter values. $end
$dumpall
b100 6#
b1011 5#
b1 4#
b11 &#
b111 %#
b1 $#
b11 t"
b101 s"
b1 r"
b10 d"
b11 c"
b1 b"
b10000 Q"
b100 P"
b11 O"
b11 N"
b10 M"
b1011 L"
b111 K"
b101 J"
b11 I"
b1 H"
b10000 9"
b100 8"
b11 7"
b11 6"
b10 5"
b1011 4"
b111 3"
b101 2"
b11 1"
b1 0"
b100 ,"
b101 +"
b1 *"
b0 )"
b10 ("
b110 '"
b11 &"
b100 r
b11 q
b11 p
b10 o
b10000 n
b1011 m
b111 l
b101 k
b11 j
b1101001 i
b10100101 h
b11100111 g
b110000001 f
b10010000011 e
b10 d
b10 c
b1 b
b1 a
b1001000001 `
b10000 W
b100 V
b11 U
b11 T
b10 S
b10010000011 R
b1011 Q
b111 P
b101 O
b11 N
b1001000001 M
b1 L
b1 K
$end
#0
$dumpvars
bx E#
bx D#
bx C#
bx B#
bx A#
b0 @#
b1011 ?#
b0 >#
b0 =#
b1011 <#
b0 ;#
b0 :#
b0 9#
b0 8#
07#
b0 3#
b0 2#
b0 1#
b0 0#
b111 /#
b0 .#
b0 -#
b111 ,#
b0 +#
b0 *#
b0 )#
b0 (#
0'#
b0 ##
b0 "#
b0 !#
b0 ~"
b101 }"
b0 |"
b0 {"
b101 z"
b0 y"
b0 x"
b0 w"
b0 v"
0u"
b0 q"
b0 p"
b0 o"
b0 n"
b11 m"
b0 l"
b0 k"
b11 j"
b0 i"
b0 h"
b0 g"
b0 f"
0e"
b0 a"
b0 `"
b0 _"
bx ^"
bx ]"
bx \"
bx ["
bx Z"
bx Y"
bx X"
bx W"
bx V"
b0 U"
b0 T"
b0 S"
b0 R"
b0 G"
bx F"
bx E"
bx D"
bx C"
bx B"
bx A"
bx @"
bx ?"
bx >"
b0 ="
b0 <"
b0 ;"
b0 :"
b0 /"
b0 ."
b0 -"
0%"
0$"
b0 #"
b0 ""
b0 !"
b0 ~
b0 }
b0 |
b0 {
b0 z
b0 y
b0 x
b0 w
b0 v
0u
b0 t
b0 s
b0 _
b0 ^
b0 ]
b0 \
b0 [
b0 Z
b0 Y
b0 X
0J
0I
0H
b0 G
0F
0E
0D
0C
0B
0A
b0 @
b0 ?
b0 >
b0 =
b0 <
b0 ;
b0 :
b0 9
b0 8
07
06
05
04
b0 3
b0 2
b0 1
b0 0
b0 /
b0 .
0-
0,
b0 +
b0 *
0)
0(
0'
0&
b0 %
b0 $
b0 #
0"
b0 !
$end
#5000
1'
#10000
0'
#15000
1'
#20000
0'
#25000
1'
#30000
0'
#35000
1'
#40000
0'
#45000
1'
#50000
1(
0'
#55000
1'
#60000
b111 $
b111 +
b1010 #
b1010 *
b100000101000100010001000101111100110001001100000101111100110111 D#
b10001 C#
b111 B#
b1010 A#
b0 E#
0'
#65000
1'
#70000
b1 -"
1&
0'
#75000
1C
b10 -"
b1 G
b1 #"
b1 ."
1'
#80000
b10 -"
0&
0'
#85000
1D
0C
b111 Y
b111 G"
b1010 X
b1010 /"
b10 G
b10 #"
b10 ."
1'
#90000
0'
#95000
b11 -"
b11 )#
b11 +#
b11 -#
b11 0#
b11 .#
b11 *#
1,
b1011 9#
b11111111111111111111111111111011 ;#
b11111111111111111111111111111011 =#
b11111111111111111111111111111011 @#
b11111111111111111111111111111011 >#
b11111111111111111111111111111011 :#
b10 w"
b10 y"
b10 {"
b10 ~"
b10 |"
b10 x"
b11 g"
b11111111111111111111111111111111 i"
b11111111111111111111111111111111 k"
b10 n"
b10 l"
b10 h"
1F
b1111 <
b1111 ="
b1111 1#
b11 =
b11 <"
b11 !#
b1 ?
b1 :"
b1 _"
1E
b1100 8
b1100 U"
b1100 2#
b10 :
b10 S"
b10 p"
b1 ;
b1 R"
b1 `"
b11111111111111111111111111111111 A"
b11 @"
b0 ?"
b1 >"
b11111111111111111111111111111111 C"
b1010 F"
b1011 E"
b1010 D"
b1011 B"
b11111111111111111111111111111100 Y"
b0 X"
b10 W"
b1 V"
b11111111111111111111111111111100 ["
b111 ^"
b1011 ]"
b111 \"
b1011 Z"
1'
#100000
0'
#105000
1J
0D
1E
1F
b11 G
b11 #"
b11 ."
b11111111111111111111111111111100 ["
b1011 ]"
b1011 Z"
b11111111111111111111111111111111 C"
b1011 E"
b1011 B"
1'
#110000
0'
#115000
0,
b10001 s
b10001 {
b10001 |
b110110011010 z
b10011101100 y
b1111011110 x
b111001110 w
b1100000010 v
b110 ""
b11 !"
b10 ~
b10 }
0F
0E
b11 3
b11 _
b11 f"
1e"
b10 2
b10 ^
b10 v"
1u"
b11 1
b11 ]
b11 (#
1'#
b1011 0
b1011 \
b1011 8#
17#
1'
#120000
0'
#125000
b100 -"
1)
14
15
16
17
1'
#130000
0'
#135000
1H
0J
b100 G
b100 #"
b100 ."
1'
#140000
0'
#145000
b10001 @
b10001 t
1u
07#
0'#
0u"
0e"
1'
#150000
0'
#155000
b101 -"
0)
1%"
07
06
05
04
1I
1'
#160000
0'
#165000
1A
0H
b110 -"
b101 G
b101 #"
b101 ."
1'
#170000
0'
#175000
1"
0A
b0 -"
b110 G
b110 #"
b110 ."
0u
b10001 !
b10001 /
b10001 [
1'
#180000
b100101100 $
b100101100 +
b1111101000 #
b1111101000 *
b100000101000100010001000101111101010111010100100100000101010000 D#
b10010001 C#
b100101100 B#
b1111101000 A#
0'
#185000
0%"
0"
0I
b0 G
b0 #"
b0 ."
1'
#190000
b1 -"
1&
0'
#195000
1C
b10 -"
b1 G
b1 #"
b1 ."
1'
#200000
b10 -"
0&
0'
#205000
1D
0C
b100101100 Y
b100101100 G"
b1111101000 X
b1111101000 /"
b10 G
b10 #"
b10 ."
1'
#210000
0'
#215000
b11 -"
1,
b10 =#
b10 @#
b10 >#
b10 9#
b10 ;#
b10 :#
b11111111111111111111111111111110 -#
b11111111111111111111111111111110 0#
b11111111111111111111111111111110 .#
b110 )#
b11111111111111111111111111111110 +#
b11111111111111111111111111111110 *#
b0 {"
b0 ~"
b0 |"
b0 w"
b0 y"
b0 x"
b1 k"
b1 n"
b1 l"
b1 g"
b1 i"
b1 h"
1F
b111 =
b111 <"
b111 !#
1E
b11 8
b11 U"
b11 2#
b111 9
b111 T"
b111 "#
b0 :
b0 S"
b0 p"
b0 ;
b0 R"
b0 `"
b11111111111111111111111111111111 @"
b11111111111111111111111111111111 C"
b1111101000 F"
b1011 E"
b1111101000 D"
b1011 B"
b11 Y"
b11111111111111111111111111111111 X"
b0 W"
b0 V"
b11 ["
b100101100 ^"
b1011 ]"
b100101100 \"
b1011 Z"
1'
#220000
0'
#225000
1J
0D
1E
1F
b11 G
b11 #"
b11 ."
b11 ["
b1011 ]"
b1011 Z"
b11111111111111111111111111111111 C"
b1011 E"
b1011 B"
1'
#230000
0'
#235000
0,
b10010001 s
b10010001 {
b10010001 |
b100110010111 z
b110100100 y
b11001110010 x
b0 w
b110000001 v
b10 ""
b101 !"
b0 ~
b1 }
0F
0E
b1 3
b1 _
b1 f"
1e"
b0 2
b0 ^
b0 v"
1u"
b110 1
b110 ]
b110 (#
1'#
b10 0
b10 \
b10 8#
17#
1'
#240000
0'
#245000
b100 -"
1)
14
15
16
17
1'
#250000
0'
#255000
1H
0J
b100 G
b100 #"
b100 ."
1'
#260000
0'
#265000
b10010001 @
b10010001 t
1u
07#
0'#
0u"
0e"
1'
#270000
0'
#275000
b101 -"
0)
1%"
07
06
05
04
1I
1'
#280000
0'
#285000
1A
0H
b110 -"
b101 G
b101 #"
b101 ."
1'
#290000
0'
#295000
1"
0A
b0 -"
b110 G
b110 #"
b110 ."
0u
b10010001 !
b10010001 /
b10010001 [
1'
#300000
b110010 $
b110010 +
b11001000 #
b11001000 *
b1 %
b1 .
b1010011010101010100001001011111001100100011000000110000010111110011010100110000 D#
b10010110 C#
b110010 B#
b11001000 A#
b1 E#
0'
#305000
0%"
0"
0I
b0 G
b0 #"
b0 ."
1'
#310000
b1 -"
1&
0'
#315000
1C
b10 -"
b1 G
b1 #"
b1 ."
1'
#320000
b10 -"
0&
0'
#325000
b1 g"
b1 i"
b1 h"
b0 -#
b0 0#
b0 .#
b0 )#
b0 +#
b0 *#
b11111111111111111111111111111100 =#
b11111111111111111111111111111100 @#
b11111111111111111111111111111100 >#
b1100 9#
b11111111111111111111111111111100 ;#
b11111111111111111111111111111100 :#
1D
0C
b1 Z
b1 a"
b1 q"
b1 ##
b1 3#
b110010 Y
b110010 G"
b11001000 X
b11001000 /"
b10 G
b10 #"
b10 ."
1'
#330000
0'
#335000
b11 -"
1,
b11111111111111111111111111111100 =#
b111 @#
b111 >#
b1100 9#
b11111111111111111111111111111100 ;#
b111 :#
b11 )#
b11 +#
b11 -#
b11111111111111111111111111111100 0#
b11111111111111111111111111111100 .#
b11111111111111111111111111111100 *#
b0 k"
b0 n"
b0 l"
b0 g"
b0 i"
b0 h"
1F
b10 <
b10 ="
b10 1#
b101 =
b101 <"
b101 !#
b11 ?
b11 :"
b11 _"
1E
b1011 8
b1011 U"
b1011 2#
b1 9
b1 T"
b1 "#
b11 ;
b11 R"
b11 `"
b10 A"
b11111111111111111111111111111101 @"
b11111111111111111111111111111111 >"
b10 C"
b11001000 F"
b1011 E"
b11001000 D"
b1011 B"
b11111111111111111111111111111011 Y"
b1 X"
b11111111111111111111111111111111 V"
b11111111111111111111111111111011 ["
b110010 ^"
b1011 ]"
b110010 \"
b1011 Z"
1'
#340000
0'
#345000
1J
0D
1E
1F
b11 G
b11 #"
b11 ."
b11111111111111111111111111111011 ["
b1011 ]"
b1011 Z"
b10 C"
b1011 E"
b1011 B"
1'
#350000
0'
#355000
0,
b10010110 s
b10010110 {
b10010110 |
b100110011100 z
b10110111110 y
b1111011110 x
b0 v
b111 ""
b11 !"
b0 }
0F
0E
b0 3
b0 _
b0 f"
1e"
1u"
b11 1
b11 ]
b11 (#
1'#
b1100 0
b1100 \
b1100 8#
17#
1'
#360000
0'
#365000
b100 -"
1)
14
15
16
17
1'
#370000
0'
#375000
1H
0J
b100 G
b100 #"
b100 ."
1'
#380000
0'
#385000
b10010110 @
b10010110 t
1u
07#
0'#
0u"
0e"
1'
#390000
0'
#395000
b101 -"
0)
1%"
07
06
05
04
1I
1'
#400000
0'
#405000
1A
0H
b110 -"
b101 G
b101 #"
b101 ."
1'
#410000
0'
#415000
1"
0A
b0 -"
b110 G
b110 #"
b110 ."
0u
b10010110 !
b10010110 /
b10010110 [
1'
#420000
b11001000 $
b11001000 +
b110010 #
b110010 *
b101001101010101010000100101111101010111010100100100000101010000 D#
b1111111101101010 C#
b11001000 B#
b110010 A#
0'
#425000
0%"
0"
0I
b0 G
b0 #"
b0 ."
1'
#430000
b1 -"
1&
0'
#435000
1C
b10 -"
b1 G
b1 #"
b1 ."
1'
#440000
b10 -"
0&
0'
#445000
1D
0C
b11001000 Y
b11001000 G"
b110010 X
b110010 /"
b10 G
b10 #"
b10 ."
1'
#450000
0'
#455000
b11 -"
1,
b100 =#
b11111111111111111111111111111001 @#
b11111111111111111111111111111001 >#
b100 9#
b100 ;#
b11111111111111111111111111111001 :#
b11111111111111111111111111111101 -#
b100 0#
b100 .#
b101 )#
b11111111111111111111111111111101 +#
b100 *#
1F
b1011 <
b1011 ="
b1011 1#
b1 =
b1 <"
b1 !#
1E
b10 8
b10 U"
b10 2#
b101 9
b101 T"
b101 "#
b11111111111111111111111111111011 A"
b1 @"
b11111111111111111111111111111011 C"
b110010 F"
b1011 E"
b110010 D"
b1011 B"
b10 Y"
b11111111111111111111111111111101 X"
b10 ["
b11001000 ^"
b1011 ]"
b11001000 \"
b1011 Z"
1'
#460000
0'
#465000
1J
0D
1E
1F
b11 G
b11 #"
b11 ."
b10 ["
b1011 ]"
b1011 Z"
b11111111111111111111111111111011 C"
b1011 E"
b1011 B"
1'
#470000
0'
#475000
0,
b1111111101101010 s
b11111111111111111111111101101010 {
b1111101101 |
b100001110000 z
b1101001000 y
b10100101000 x
b100 ""
b100 !"
0F
0E
1e"
1u"
b101 1
b101 ]
b101 (#
1'#
b100 0
b100 \
b100 8#
17#
1'
#480000
0'
#485000
b100 -"
1)
14
15
16
17
1'
#490000
0'
#495000
1H
0J
b100 G
b100 #"
b100 ."
1'
#500000
0'
#505000
b1111111101101010 @
b1111111101101010 t
1u
07#
0'#
0u"
0e"
1'
#510000
0'
#515000
b101 -"
0)
1%"
07
06
05
04
1I
1'
#520000
0'
#525000
1A
0H
b110 -"
b101 G
b101 #"
b101 ."
1'
#530000
0'
#535000
1"
0A
b0 -"
b110 G
b110 #"
b110 ."
0u
b1111111101101010 !
b1111111101101010 /
b1111111101101010 [
1'
#540000
b10001 $
b10001 +
b1011 #
b1011 *
b10 %
b10 .
b10011010101010101001100010111110011000100110001010111110011000100110111 D#
b10111011 C#
b10001 B#
b1011 A#
b10 E#
0'
#545000
0%"
0"
0I
b0 G
b0 #"
b0 ."
1'
#550000
b1 -"
1&
0'
#555000
1C
b10 -"
b1 G
b1 #"
b1 ."
1'
#560000
b10 -"
0&
0'
#565000
b1 g"
b1 i"
b1 k"
b1 n"
b1 l"
b1 h"
b11111111111111111111111111111101 -#
b11111111111111111111111111111101 0#
b11111111111111111111111111111101 .#
b101 )#
b11111111111111111111111111111101 +#
b11111111111111111111111111111101 *#
b1 =#
b11111111111111111111111111110110 @#
b11111111111111111111111111110110 >#
b1 9#
b1 ;#
b11111111111111111111111111110110 :#
1D
0C
b10 Z
b10 a"
b10 q"
b10 ##
b10 3#
b10001 Y
b10001 G"
b1011 X
b1011 /"
b10 G
b10 #"
b10 ."
1'
#570000
0'
#575000
b11 -"
1,
b0 =#
b0 @#
b0 >#
b0 9#
b0 ;#
b0 :#
b11111111111111111111111111111110 -#
b11111111111111111111111111110111 0#
b11111111111111111111111111110111 .#
b110 )#
b11111111111111111111111111111110 +#
b11111111111111111111111111110111 *#
b10 w"
b10 y"
b10 {"
b10 ~"
b10 |"
b10 x"
1F
b0 <
b0 ="
b0 1#
b101 =
b101 <"
b101 !#
b1 >
b1 ;"
b1 o"
1E
b1011 8
b1011 U"
b1011 2#
b11 9
b11 T"
b11 "#
b10 :
b10 S"
b10 p"
b0 A"
b11111111111111111111111111111101 @"
b1 ?"
b0 C"
b1011 F"
b1011 E"
b1011 D"
b1011 B"
b11111111111111111111111111111011 Y"
b11 X"
b10 W"
b11111111111111111111111111111011 ["
b10001 ^"
b1011 ]"
b10001 \"
b1011 Z"
1'
#580000
0'
#585000
1J
0D
1E
1F
b11 G
b11 #"
b11 ."
b11111111111111111111111111111011 ["
b1011 ]"
b1011 Z"
b0 C"
b1011 E"
b1011 B"
1'
#590000
0'
#595000
0,
b111001110 w
b110000001 v
b10 ~
b1 }
b10111011 s
b10111011 {
b10111011 |
b100111000001 z
b0 y
b11001110010 x
b0 ""
b101 !"
0F
0E
b1 3
b1 _
b1 f"
1e"
b10 2
b10 ^
b10 v"
1u"
b110 1
b110 ]
b110 (#
1'#
b0 0
b0 \
b0 8#
17#
1'
#600000
0'
#605000
b100 -"
1)
14
15
16
17
1'
#610000
0'
#615000
1H
0J
b100 G
b100 #"
b100 ."
1'
#620000
0'
#625000
b10111011 @
b10111011 t
1u
07#
0'#
0u"
0e"
1'
#630000
0'
#635000
b101 -"
0)
1%"
07
06
05
04
1I
1'
#640000
0'
#645000
1A
0H
b110 -"
b101 G
b101 #"
b101 ."
1'
#650000
0'
#655000
1"
0A
b0 -"
b110 G
b110 #"
b110 ."
0u
b10111011 !
b10111011 /
b10111011 [
1'
#660000
b101000 $
b101000 +
b101000 #
b101000 *
b100110101010101010011000101111101010111010100100100000101010000 D#
b110111101 C#
b101000 B#
b101000 A#
0'
#665000
0%"
0"
0I
b0 G
b0 #"
b0 ."
1'
#670000
b1 -"
1&
0'
#675000
1C
b10 -"
b1 G
b1 #"
b1 ."
1'
#680000
b10 -"
0&
0'
#685000
1D
0C
b101000 Y
b101000 G"
b101000 X
b101000 /"
b10 G
b10 #"
b10 ."
1'
#690000
0'
#695000
b11 -"
1,
b101 9#
b101 ;#
b101 =#
b10000 @#
b10000 >#
b10000 :#
b11111111111111111111111111111101 -#
b100 0#
b100 .#
b101 )#
b11111111111111111111111111111101 +#
b100 *#
b0 {"
b0 ~"
b0 |"
b0 w"
b0 y"
b0 x"
b1 g"
b1 i"
b1 h"
1F
b1100 <
b1100 ="
b1100 1#
b110 =
b110 <"
b110 !#
b0 >
b0 ;"
b0 o"
b1 ?
b1 :"
b1 _"
1E
b1100 8
b1100 U"
b1100 2#
b110 9
b110 T"
b110 "#
b0 :
b0 S"
b0 p"
b1 ;
b1 R"
b1 `"
b11111111111111111111111111111100 A"
b11111111111111111111111111111110 @"
b0 ?"
b1 >"
b11111111111111111111111111111100 C"
b101000 F"
b1011 E"
b101000 D"
b1011 B"
b11111111111111111111111111111100 Y"
b11111111111111111111111111111110 X"
b0 W"
b1 V"
b11111111111111111111111111111100 ["
b101000 ^"
b1011 ]"
b101000 \"
b1011 Z"
1'
#700000
0'
#705000
1J
0D
1E
1F
b11 G
b11 #"
b11 ."
b11111111111111111111111111111100 ["
b1011 ]"
b1011 Z"
b11111111111111111111111111111100 C"
b1011 E"
b1011 B"
1'
#710000
0'
#715000
0,
b10000011010 y
b101 ""
b110111101 s
b110111101 {
b110111101 |
b101011000011 z
b10100101000 x
b0 w
b110000001 v
b100 !"
b0 ~
b1 }
0F
0E
1e"
b0 2
b0 ^
b0 v"
1u"
b101 1
b101 ]
b101 (#
1'#
b101 0
b101 \
b101 8#
17#
1'
#720000
0'
#725000
b100 -"
1)
14
15
16
17
1'
#730000
0'
#735000
1H
0J
b100 G
b100 #"
b100 ."
1'
#740000
0'
#745000
b110111101 @
b110111101 t
1u
07#
0'#
0u"
0e"
1'
#750000
0'
#755000
b101 -"
0)
1%"
07
06
05
04
1I
1'
#760000
0'
#765000
1A
0H
b110 -"
b101 G
b101 #"
b101 ."
1'
#770000
0'
#775000
1"
0A
b0 -"
b110 G
b110 #"
b110 ."
0u
b110111101 !
b110111101 /
b110111101 [
1'
#780000
0'
#785000
0%"
0"
0I
b0 G
b0 #"
b0 ."
1'
