rrns_crt/runs/24582149656/precheck/rtl/crt_rtl_precheck.vcd
$date
	Fri Apr 17 19:07:35 2026
$end
$version
	Icarus Verilog
$end
$timescale
	1ps
$end
$scope module tb_rrns_top_crt $end
$var wire 16 ! X_out [15:0] $end
$var wire 1 " Valid $end
$var wire 1 # Error_Detected $end
$var wire 1 $ Done $end
$var wire 1 % Corrected $end
$var reg 16 & A_in [15:0] $end
$var reg 16 ' B_in [15:0] $end
$var reg 2 ( Op_Sel [1:0] $end
$var reg 1 ) Start $end
$var reg 1 * clk $end
$var reg 1 + rst_n $end
$scope module dut $end
$var wire 1 , ALU_Done_all $end
$var wire 16 - A_in [15:0] $end
$var wire 16 . B_in [15:0] $end
$var wire 1 % Corrected $end
$var wire 1 / Encode_Done_all $end
$var wire 1 # Error_Detected $end
$var wire 1 0 MRC_Done $end
$var wire 2 1 Op_Sel [1:0] $end
$var wire 1 ) Start $end
$var wire 1 " Valid $end
$var wire 16 2 X_out [15:0] $end
$var wire 1 * clk $end
$var wire 1 + rst_n $end
$var wire 5 3 z_r5 [4:0] $end
$var wire 4 4 z_r4 [3:0] $end
$var wire 4 5 z_r3 [3:0] $end
$var wire 3 6 z_r2 [2:0] $end
$var wire 3 7 z_r1 [2:0] $end
$var wire 2 8 z_r0 [1:0] $end
$var wire 1 9 slice5_done $end
$var wire 1 : slice4_done $end
$var wire 1 ; slice3_done $end
$var wire 1 < slice2_done $end
$var wire 1 = slice1_done $end
$var wire 1 > slice0_done $end
$var wire 5 ? b_r5 [4:0] $end
$var wire 4 @ b_r4 [3:0] $end
$var wire 4 A b_r3 [3:0] $end
$var wire 3 B b_r2 [2:0] $end
$var wire 3 C b_r1 [2:0] $end
$var wire 2 D b_r0 [1:0] $end
$var wire 5 E a_r5 [4:0] $end
$var wire 4 F a_r4 [3:0] $end
$var wire 4 G a_r3 [3:0] $end
$var wire 3 H a_r2 [2:0] $end
$var wire 3 I a_r1 [2:0] $end
$var wire 2 J a_r0 [1:0] $end
$var wire 16 K X_corr_now [15:0] $end
$var wire 16 L X_base [15:0] $end
$var wire 1 M Valid_now $end
$var wire 1 N Out_EN $end
$var wire 1 O MRC_Start $end
$var wire 1 P Load_IN $end
$var wire 1 Q Error_now $end
$var wire 1 R Encode_EN $end
$var wire 1 S Encode_Done_B $end
$var wire 1 T Encode_Done_A $end
$var wire 1 $ Done $end
$var wire 1 U Corrected_now $end
$var wire 3 V CU_state_dbg [2:0] $end
$var wire 1 W CRT_Start $end
$var wire 1 X CRT_Done $end
$var wire 1 Y ALU_EN $end
$var parameter 32 Z CENTERED_OUT_EN $end
$var parameter 32 [ CRNS_EN $end
$var parameter 32 \ M0 $end
$var parameter 32 ] M1 $end
$var parameter 32 ^ M2 $end
$var parameter 32 _ M3 $end
$var parameter 32 ` M4 $end
$var parameter 32 a M5 $end
$var parameter 32 b W0 $end
$var parameter 32 c W1 $end
$var parameter 32 d W2 $end
$var parameter 32 e W3 $end
$var parameter 32 f W4 $end
$var parameter 32 g W5 $end
$var parameter 32 h WIDTH_IN $end
$var reg 16 i A_reg [15:0] $end
$var reg 16 j A_req [15:0] $end
$var reg 16 k B_reg [15:0] $end
$var reg 16 l B_req [15:0] $end
$var reg 1 m Corrected_reg $end
$var reg 1 n Error_reg $end
$var reg 2 o OpSel_reg [1:0] $end
$var reg 2 p OpSel_req [1:0] $end
$var reg 1 q Valid_reg $end
$var reg 16 r X_reg [15:0] $end
$scope module u_corrector $end
$var wire 5 s r5 [4:0] $end
$var wire 4 t r4 [3:0] $end
$var wire 4 u r3 [3:0] $end
$var wire 3 v r2 [2:0] $end
$var wire 3 w r1 [2:0] $end
$var wire 2 x r0 [1:0] $end
$var wire 16 y X_base [15:0] $end
$var parameter 32 z HALF_BASE $end
$var parameter 32 { M_BASE $end
$var parameter 32 | OUT_WIDTH $end
$var parameter 32 } W0 $end
$var parameter 32 ~ W1 $end
$var parameter 32 !" W2 $end
$var parameter 32 "" W3 $end
$var parameter 32 #" W4 $end
$var parameter 32 $" W5 $end
$var reg 1 U Corrected $end
$var reg 1 Q Error_Detected $end
$var reg 1 M Valid $end
$var reg 16 %" X_corr [15:0] $end
$var reg 1 &" chk13 $end
$var reg 1 '" chk17 $end
$var reg 1 (" ok3_13 $end
$var reg 1 )" ok3_17 $end
$var integer 32 *" cand3_13 [31:0] $end
$var integer 32 +" cand3_17 [31:0] $end
$var integer 32 ," n0 [31:0] $end
$var integer 32 -" n1 [31:0] $end
$var integer 32 ." n2 [31:0] $end
$var integer 32 /" n3 [31:0] $end
$var integer 32 0" n4 [31:0] $end
$var integer 32 1" n5 [31:0] $end
$var integer 32 2" x_base_int [31:0] $end
$scope function center_with_modulus $end
$var integer 32 3" p [31:0] $end
$var integer 32 4" t [31:0] $end
$var integer 32 5" x [31:0] $end
$upscope $end
$scope function in_base_range $end
$var integer 32 6" x [31:0] $end
$upscope $end
$scope function norm_mod $end
$var integer 32 7" m [31:0] $end
$var integer 32 8" t [31:0] $end
$var integer 32 9" x [31:0] $end
$upscope $end
$scope function red_ok $end
$var integer 32 :" m [31:0] $end
$var integer 32 ;" r [31:0] $end
$var integer 32 <" x [31:0] $end
$upscope $end
$upscope $end
$scope module u_crt $end
$var wire 1 * clk $end
$var wire 1 + rst_n $end
$var wire 4 =" r3 [3:0] $end
$var wire 3 >" r2 [2:0] $end
$var wire 3 ?" r1 [2:0] $end
$var wire 2 @" r0 [1:0] $end
$var wire 1 W CRT_Start $end
$var parameter 32 A" HALF_M $end
$var parameter 32 B" INV0 $end
$var parameter 32 C" INV1 $end
$var parameter 32 D" INV2 $end
$var parameter 32 E" INV3 $end
$var parameter 32 F" M $end
$var parameter 32 G" M0 $end
$var parameter 32 H" M1 $end
$var parameter 32 I" M2 $end
$var parameter 32 J" M3 $end
$var parameter 32 K" MOD0 $end
$var parameter 32 L" MOD1 $end
$var parameter 32 M" MOD2 $end
$var parameter 32 N" MOD3 $end
$var parameter 32 O" OUT_WIDTH $end
$var parameter 32 P" W0 $end
$var parameter 32 Q" W1 $end
$var parameter 32 R" W2 $end
$var parameter 32 S" W3 $end
$var reg 1 X CRT_Done $end
$var reg 16 T" X_next [15:0] $end
$var reg 16 U" X_out [15:0] $end
$var reg 1 V" start_d $end
$var reg 10 W" term0 [9:0] $end
$var reg 10 X" term1 [9:0] $end
$var reg 11 Y" term2 [10:0] $end
$var reg 12 Z" term3 [11:0] $end
$var reg 13 [" total [12:0] $end
$var reg 11 \" total_centered [10:0] $end
$var reg 11 ]" total_mod [10:0] $end
$var reg 2 ^" x0_mod [1:0] $end
$var reg 3 _" x1_mod [2:0] $end
$var reg 3 `" x2_mod [2:0] $end
$var reg 4 a" x3_mod [3:0] $end
$scope function norm_mod $end
$var integer 32 b" m [31:0] $end
$var integer 32 c" t [31:0] $end
$var integer 32 d" x [31:0] $end
$upscope $end
$upscope $end
$scope module u_cu $end
$var wire 1 , ALU_Done $end
$var wire 1 X CRT_Done $end
$var wire 3 e" CU_state_dbg [2:0] $end
$var wire 1 / Encode_Done $end
$var wire 1 0 MRC_Done $end
$var wire 1 f" Recon_Mode $end
$var wire 1 ) Start $end
$var wire 1 * clk $end
$var wire 1 + rst_n $end
$var wire 1 g" recon_done_sel $end
$var parameter 3 h" S_ALU $end
$var parameter 3 i" S_DONE $end
$var parameter 3 j" S_ENCODE $end
$var parameter 3 k" S_IDLE $end
$var parameter 3 l" S_LOAD $end
$var parameter 3 m" S_OUT $end
$var parameter 3 n" S_RECON $end
$var reg 1 Y ALU_EN $end
$var reg 1 W CRT_Start $end
$var reg 1 $ Done $end
$var reg 1 R Encode_EN $end
$var reg 1 P Load_IN $end
$var reg 1 O MRC_Start $end
$var reg 1 N Out_EN $end
$var reg 3 o" next_state [2:0] $end
$var reg 3 p" state [2:0] $end
$upscope $end
$scope module u_enc_a $end
$var wire 1 R Encode_EN $end
$var wire 1 * clk $end
$var wire 1 + rst_n $end
$var wire 16 q" x [15:0] $end
$var parameter 32 r" CRNS_EN $end
$var parameter 32 s" M0 $end
$var parameter 32 t" M1 $end
$var parameter 32 u" M2 $end
$var parameter 32 v" M3 $end
$var parameter 32 w" M4 $end
$var parameter 32 x" M5 $end
$var parameter 32 y" W0 $end
$var parameter 32 z" W1 $end
$var parameter 32 {" W2 $end
$var parameter 32 |" W3 $end
$var parameter 32 }" W4 $end
$var parameter 32 ~" W5 $end
$var parameter 32 !# WIDTH_IN $end
$var reg 1 T Encode_Done $end
$var reg 2 "# r0 [1:0] $end
$var reg 3 ## r1 [2:0] $end
$var reg 3 $# r2 [2:0] $end
$var reg 4 %# r3 [3:0] $end
$var reg 4 &# r4 [3:0] $end
$var reg 5 '# r5 [4:0] $end
$var integer 32 (# tmp0 [31:0] $end
$var integer 32 )# tmp1 [31:0] $end
$var integer 32 *# tmp2 [31:0] $end
$var integer 32 +# tmp3 [31:0] $end
$var integer 32 ,# tmp4 [31:0] $end
$var integer 32 -# tmp5 [31:0] $end
$scope function norm_bal $end
$var integer 32 .# m [31:0] $end
$var integer 32 /# r [31:0] $end
$var integer 32 0# val [31:0] $end
$upscope $end
$scope function norm_std $end
$var integer 32 1# m [31:0] $end
$var integer 32 2# val [31:0] $end
$upscope $end
$upscope $end
$scope module u_enc_b $end
$var wire 1 R Encode_EN $end
$var wire 1 * clk $end
$var wire 1 + rst_n $end
$var wire 16 3# x [15:0] $end
$var parameter 32 4# CRNS_EN $end
$var parameter 32 5# M0 $end
$var parameter 32 6# M1 $end
$var parameter 32 7# M2 $end
$var parameter 32 8# M3 $end
$var parameter 32 9# M4 $end
$var parameter 32 :# M5 $end
$var parameter 32 ;# W0 $end
$var parameter 32 <# W1 $end
$var parameter 32 =# W2 $end
$var parameter 32 ># W3 $end
$var parameter 32 ?# W4 $end
$var parameter 32 @# W5 $end
$var parameter 32 A# WIDTH_IN $end
$var reg 1 S Encode_Done $end
$var reg 2 B# r0 [1:0] $end
$var reg 3 C# r1 [2:0] $end
$var reg 3 D# r2 [2:0] $end
$var reg 4 E# r3 [3:0] $end
$var reg 4 F# r4 [3:0] $end
$var reg 5 G# r5 [4:0] $end
$var integer 32 H# tmp0 [31:0] $end
$var integer 32 I# tmp1 [31:0] $end
$var integer 32 J# tmp2 [31:0] $end
$var integer 32 K# tmp3 [31:0] $end
$var integer 32 L# tmp4 [31:0] $end
$var integer 32 M# tmp5 [31:0] $end
$scope function norm_bal $end
$var integer 32 N# m [31:0] $end
$var integer 32 O# r [31:0] $end
$var integer 32 P# val [31:0] $end
$upscope $end
$scope function norm_std $end
$var integer 32 Q# m [31:0] $end
$var integer 32 R# val [31:0] $end
$upscope $end
$upscope $end
$scope module u_slice0 $end
$var wire 1 Y ALU_EN $end
$var wire 2 S# a [1:0] $end
$var wire 2 T# b [1:0] $end
$var wire 1 * clk $end
$var wire 2 U# op_sel [1:0] $end
$var wire 1 + rst_n $end
$var parameter 32 V# CRNS_EN $end
$var parameter 32 W# MODULUS $end
$var parameter 32 X# WIDTH $end
$var reg 1 > ALU_Done $end
$var reg 1 Y# start_d $end
$var reg 2 Z# y [1:0] $end
$var reg 2 [# y_next [1:0] $end
$var integer 32 \# raw [31:0] $end
$var integer 32 ]# tmp [31:0] $end
$scope function norm_bal $end
$var integer 32 ^# m [31:0] $end
$var integer 32 _# r [31:0] $end
$var integer 32 `# val [31:0] $end
$upscope $end
$scope function norm_std $end
$var integer 32 a# m [31:0] $end
$var integer 32 b# val [31:0] $end
$upscope $end
$upscope $end
$scope module u_slice1 $end
$var wire 1 Y ALU_EN $end
$var wire 3 c# a [2:0] $end
$var wire 3 d# b [2:0] $end
$var wire 1 * clk $end
$var wire 2 e# op_sel [1:0] $end
$var wire 1 + rst_n $end
$var parameter 32 f# CRNS_EN $end
$var parameter 32 g# MODULUS $end
$var parameter 32 h# WIDTH $end
$var reg 1 = ALU_Done $end
$var reg 1 i# start_d $end
$var reg 3 j# y [2:0] $end
$var reg 3 k# y_next [2:0] $end
$var integer 32 l# raw [31:0] $end
$var integer 32 m# tmp [31:0] $end
$scope function norm_bal $end
$var integer 32 n# m [31:0] $end
$var integer 32 o# r [31:0] $end
$var integer 32 p# val [31:0] $end
$upscope $end
$scope function norm_std $end
$var integer 32 q# m [31:0] $end
$var integer 32 r# val [31:0] $end
$upscope $end
$upscope $end
$scope module u_slice2 $end
$var wire 1 Y ALU_EN $end
$var wire 3 s# a [2:0] $end
$var wire 3 t# b [2:0] $end
$var wire 1 * clk $end
$var wire 2 u# op_sel [1:0] $end
$var wire 1 + rst_n $end
$var parameter 32 v# CRNS_EN $end
$var parameter 32 w# MODULUS $end
$var parameter 32 x# WIDTH $end
$var reg 1 < ALU_Done $end
$var reg 1 y# start_d $end
$var reg 3 z# y [2:0] $end
$var reg 3 {# y_next [2:0] $end
$var integer 32 |# raw [31:0] $end
$var integer 32 }# tmp [31:0] $end
$scope function norm_bal $end
$var integer 32 ~# m [31:0] $end
$var integer 32 !$ r [31:0] $end
$var integer 32 "$ val [31:0] $end
$upscope $end
$scope function norm_std $end
$var integer 32 #$ m [31:0] $end
$var integer 32 $$ val [31:0] $end
$upscope $end
$upscope $end
$scope module u_slice3 $end
$var wire 1 Y ALU_EN $end
$var wire 4 %$ a [3:0] $end
$var wire 4 &$ b [3:0] $end
$var wire 1 * clk $end
$var wire 2 '$ op_sel [1:0] $end
$var wire 1 + rst_n $end
$var parameter 32 ($ CRNS_EN $end
$var parameter 32 )$ MODULUS $end
$var parameter 32 *$ WIDTH $end
$var reg 1 ; ALU_Done $end
$var reg 1 +$ start_d $end
$var reg 4 ,$ y [3:0] $end
$var reg 4 -$ y_next [3:0] $end
$var integer 32 .$ raw [31:0] $end
$var integer 32 /$ tmp [31:0] $end
$scope function norm_bal $end
$var integer 32 0$ m [31:0] $end
$var integer 32 1$ r [31:0] $end
$var integer 32 2$ val [31:0] $end
$upscope $end
$scope function norm_std $end
$var integer 32 3$ m [31:0] $end
$var integer 32 4$ val [31:0] $end
$upscope $end
$upscope $end
$scope module u_slice4 $end
$var wire 1 Y ALU_EN $end
$var wire 4 5$ a [3:0] $end
$var wire 4 6$ b [3:0] $end
$var wire 1 * clk $end
$var wire 2 7$ op_sel [1:0] $end
$var wire 1 + rst_n $end
$var parameter 32 8$ CRNS_EN $end
$var parameter 32 9$ MODULUS $end
$var parameter 32 :$ WIDTH $end
$var reg 1 : ALU_Done $end
$var reg 1 ;$ start_d $end
$var reg 4 <$ y [3:0] $end
$var reg 4 =$ y_next [3:0] $end
$var integer 32 >$ raw [31:0] $end
$var integer 32 ?$ tmp [31:0] $end
$scope function norm_bal $end
$var integer 32 @$ m [31:0] $end
$var integer 32 A$ r [31:0] $end
$var integer 32 B$ val [31:0] $end
$upscope $end
$scope function norm_std $end
$var integer 32 C$ m [31:0] $end
$var integer 32 D$ val [31:0] $end
$upscope $end
$upscope $end
$scope module u_slice5 $end
$var wire 1 Y ALU_EN $end
$var wire 5 E$ a [4:0] $end
$var wire 5 F$ b [4:0] $end
$var wire 1 * clk $end
$var wire 2 G$ op_sel [1:0] $end
$var wire 1 + rst_n $end
$var parameter 32 H$ CRNS_EN $end
$var parameter 32 I$ MODULUS $end
$var parameter 32 J$ WIDTH $end
$var reg 1 9 ALU_Done $end
$var reg 1 K$ start_d $end
$var reg 5 L$ y [4:0] $end
$var reg 5 M$ y_next [4:0] $end
$var integer 32 N$ raw [31:0] $end
$var integer 32 O$ tmp [31:0] $end
$scope function norm_bal $end
$var integer 32 P$ m [31:0] $end
$var integer 32 Q$ r [31:0] $end
$var integer 32 R$ val [31:0] $end
$upscope $end
$scope function norm_std $end
$var integer 32 S$ m [31:0] $end
$var integer 32 T$ val [31:0] $end
$upscope $end
$upscope $end
$upscope $end
$scope task run_fault_test_base_lane $end
$var reg 16 U$ a [15:0] $end
$var reg 16 V$ b [15:0] $end
$var reg 4 W$ corrupted_r3 [3:0] $end
$var reg 16 X$ expected_x [15:0] $end
$var reg 256 Y$ name [255:0] $end
$var reg 2 Z$ op [1:0] $end
$var reg 4 [$ original_r3 [3:0] $end
$upscope $end
$scope task run_fault_test_red13 $end
$var reg 16 \$ a [15:0] $end
$var reg 16 ]$ b [15:0] $end
$var reg 4 ^$ corrupted_r4 [3:0] $end
$var reg 16 _$ expected_x [15:0] $end
$var reg 256 `$ name [255:0] $end
$var reg 2 a$ op [1:0] $end
$upscope $end
$scope task run_fault_test_red17 $end
$var reg 16 b$ a [15:0] $end
$var reg 16 c$ b [15:0] $end
$var reg 5 d$ corrupted_r5 [4:0] $end
$var reg 16 e$ expected_x [15:0] $end
$var reg 256 f$ name [255:0] $end
$var reg 2 g$ op [1:0] $end
$upscope $end
$scope task run_test $end
$var reg 16 h$ a [15:0] $end
$var reg 16 i$ b [15:0] $end
$var reg 1 j$ expected_corr $end
$var reg 1 k$ expected_err $end
$var reg 1 l$ expected_valid $end
$var reg 16 m$ expected_x [15:0] $end
$var reg 256 n$ name [255:0] $end
$var reg 2 o$ op [1:0] $end
$upscope $end
$upscope $end
$enddefinitions $end
$comment Show the parameter values. $end
$dumpall
b101 J$
b10001 I$
b1 H$
b100 :$
b1101 9$
b1 8$
b100 *$
b1011 )$
b1 ($
b11 x#
b111 w#
b1 v#
b11 h#
b101 g#
b1 f#
b10 X#
b11 W#
b1 V#
b10000 A#
b101 @#
b100 ?#
b100 >#
b11 =#
b11 <#
b10 ;#
b10001 :#
b1101 9#
b1011 8#
b111 7#
b101 6#
b11 5#
b1 4#
b10000 !#
b101 ~"
b100 }"
b100 |"
b11 {"
b11 z"
b10 y"
b10001 x"
b1101 w"
b1011 v"
b111 u"
b101 t"
b11 s"
b1 r"
b100 n"
b101 m"
b1 l"
b0 k"
b10 j"
b110 i"
b11 h"
b100 S"
b11 R"
b11 Q"
b10 P"
b10000 O"
b1011 N"
b111 M"
b101 L"
b11 K"
b1101001 J"
b10100101 I"
b11100111 H"
b110000001 G"
b10010000011 F"
b10 E"
b10 D"
b1 C"
b1 B"
b1001000001 A"
b101 $"
b100 #"
b100 ""
b11 !"
b11 ~
b10 }
b10000 |
b10010000011 {
b1001000001 z
b10000 h
b101 g
b100 f
b100 e
b11 d
b11 c
b10 b
b10001 a
b1101 `
b1011 _
b111 ^
b101 ]
b11 \
b1 [
b1 Z
$end
#0
$dumpvars
bx o$
bx n$
bx m$
xl$
xk$
xj$
bx i$
bx h$
bx g$
bx f$
bx e$
bx d$
bx c$
bx b$
bx a$
bx `$
bx _$
bx ^$
bx ]$
bx \$
bx [$
bx Z$
bx Y$
bx X$
bx W$
bx V$
bx U$
bx T$
bx S$
bx R$
bx Q$
bx P$
bx O$
bx N$
bx M$
bx L$
xK$
bx G$
bx F$
bx E$
bx D$
bx C$
bx B$
bx A$
bx @$
bx ?$
bx >$
bx =$
bx <$
x;$
bx 7$
bx 6$
bx 5$
bx 4$
bx 3$
bx 2$
bx 1$
bx 0$
bx /$
bx .$
bx -$
bx ,$
x+$
bx '$
bx &$
bx %$
bx $$
bx #$
bx "$
bx !$
bx ~#
bx }#
bx |#
bx {#
bx z#
xy#
bx u#
bx t#
bx s#
bx r#
bx q#
bx p#
bx o#
bx n#
bx m#
bx l#
bx k#
bx j#
xi#
bx e#
bx d#
bx c#
bx b#
bx a#
bx `#
bx _#
bx ^#
bx ]#
bx \#
bx [#
bx Z#
xY#
bx U#
bx T#
bx S#
bx R#
bx Q#
bx P#
bx O#
bx N#
bx M#
bx L#
bx K#
bx J#
bx I#
bx H#
bx G#
bx F#
bx E#
bx D#
bx C#
bx B#
bx 3#
bx 2#
bx 1#
bx 0#
bx /#
bx .#
bx -#
bx ,#
bx +#
bx *#
bx )#
bx (#
bx '#
bx &#
bx %#
bx $#
bx ##
bx "#
bx q"
bx p"
b0 o"
xg"
0f"
bx e"
bx d"
bx c"
bx b"
bx a"
bx `"
bx _"
bx ^"
bx ]"
bx \"
bx ["
bx Z"
bx Y"
bx X"
bx W"
xV"
bx U"
bx T"
bx @"
bx ?"
bx >"
bx ="
bx <"
bx ;"
bx :"
bx 9"
bx 8"
bx 7"
bx 6"
bx 5"
bx 4"
bx 3"
bx 2"
bx 1"
bx 0"
bx /"
bx ."
bx -"
bx ,"
bx +"
bx *"
x)"
x("
x'"
x&"
bx %"
bx y
bx x
bx w
bx v
bx u
bx t
bx s
bx r
xq
bx p
bx o
xn
xm
bx l
bx k
bx j
bx i
0Y
xX
0W
bx V
xU
xT
xS
0R
xQ
0P
0O
0N
xM
bx L
bx K
bx J
bx I
bx H
bx G
bx F
bx E
bx D
bx C
bx B
bx A
bx @
bx ?
x>
x=
x<
x;
x:
x9
bx 8
bx 7
bx 6
bx 5
bx 4
bx 3
bx 2
b0 1
00
x/
b0 .
b0 -
x,
0+
0*
0)
b0 (
b0 '
b0 &
x%
0$
x#
x"
bx !
$end
#5000
0/
0,
0g"
b0 V
b0 e"
b0 p"
0T
0S
0>
0Y#
0=
0i#
0<
0y#
0;
0+$
0:
0;$
09
0K$
0V"
0X
b0 p
b0 l
b0 j
0"
0q
0%
0m
0#
0n
b0 !
b0 2
b0 r
1*
#10000
0*
#15000
1*
#20000
0*
#25000
1*
#30000
0*
#35000
1*
#40000
0*
#45000
1*
#50000
1+
0*
#55000
1*
#60000
b111 '
b111 .
b1010 &
b1010 -
b100000101000100010001000101111100110001001100000101111100110111 n$
1l$
0j$
0k$
b10001 m$
b111 i$
b1010 h$
b0 o$
0*
#65000
b111 l
b1010 j
1*
#70000
b1 o"
1)
0*
#75000
1P
b10 o"
b1 V
b1 e"
b1 p"
1*
#80000
b10 o"
0)
0*
#85000
1R
0P
b11 a#
b11 ^#
bx [#
bx ]#
bx \#
b101 q#
b101 n#
bx k#
bx m#
bx l#
b111 #$
b111 ~#
bx {#
bx }#
bx |#
b1011 3$
b1011 0$
bx -$
bx /$
bx .$
b1101 C$
b1101 @$
bx =$
bx ?$
bx >$
b10001 S$
b10001 P$
bx M$
bx O$
bx N$
b10 V
b10 e"
b10 p"
b0 o
b0 U#
b0 e#
b0 u#
b0 '$
b0 7$
b0 G$
b111 k
b111 3#
b1010 i
b1010 q"
1*
#90000
0*
#95000
b11 o"
1/
b0 Q$
b0 T$
b0 R$
b0 M$
b0 O$
b0 N$
b100 A$
b11111111111111111111111111110111 D$
b11111111111111111111111111110111 B$
b100 =$
b100 ?$
b11111111111111111111111111110111 >$
b11111111111111111111111111111011 1$
b11111111111111111111111111111011 4$
b11111111111111111111111111111011 2$
b1011 -$
b11111111111111111111111111111011 /$
b11111111111111111111111111111011 .$
b11 !$
b11 $$
b11 "$
b11 {#
b11 }#
b11 |#
b10 o#
b10 r#
b10 p#
b10 k#
b10 m#
b10 l#
b11111111111111111111111111111111 _#
b10 b#
b10 `#
b11 [#
b11111111111111111111111111111111 ]#
b10 \#
1S
b111 ?
b111 G#
b111 F$
b1010 @
b1010 F#
b1010 6$
b1100 A
b1100 E#
b1100 &$
b0 B
b0 D#
b0 t#
b10 C
b10 C#
b10 d#
b1 D
b1 B#
b1 T#
1T
b11001 E
b11001 '#
b11001 E$
b1101 F
b1101 &#
b1101 5$
b1111 G
b1111 %#
b1111 %$
b11 H
b11 $#
b11 s#
b0 I
b0 ##
b0 c#
b1 J
b1 "#
b1 S#
b111 M#
b11111111111111111111111111111010 L#
b11111111111111111111111111111100 K#
b0 J#
b10 I#
b1 H#
b111 O#
b111 R#
b10001 Q#
b111 P#
b10001 N#
b11111111111111111111111111111001 -#
b11111111111111111111111111111101 ,#
b11111111111111111111111111111111 +#
b11 *#
b0 )#
b1 (#
b11111111111111111111111111111001 /#
b1010 2#
b10001 1#
b1010 0#
b10001 .#
1*
#100000
0*
#105000
1Y
0R
b11 V
b11 e"
b11 p"
1T
1S
b11111111111111111111111111111001 /#
b10001 1#
b10001 .#
b111 O#
b10001 Q#
b10001 N#
1*
#110000
0*
#115000
b10001 K
b10001 %"
1M
1U
1Q
1)"
1("
b10001 6"
b10001 <"
b10001 +"
b10001 *"
b10001 4"
b1101111110101 5"
b11011111001 3"
b100 ;"
b1101 :"
b0 1"
b100 0"
b110 /"
b11 ."
b10 -"
b10 ,"
b100 8"
b100 9"
b1101 7"
b10001 T"
b10001 \"
b10001 ]"
b110110011010 ["
b10011101100 Z"
b1111011110 Y"
b111001110 X"
b1100000010 W"
b110 a"
b11 `"
b10 _"
b10 ^"
b10001 c"
b110110011010 d"
b10010000011 b"
0/
b0 3
b0 s
b0 L$
1K$
b100 4
b100 t
b100 <$
1;$
b1011 5
b1011 u
b1011 ="
b1011 ,$
1+$
b11 6
b11 v
b11 >"
b11 z#
1y#
b10 7
b10 w
b10 ?"
b10 j#
1i#
b11 8
b11 x
b11 @"
b11 Z#
1Y#
0S
0T
1*
#120000
0*
#125000
b100 o"
1,
1>
1=
1<
1;
1:
19
1*
#130000
0*
#135000
1W
0Y
b100 V
b100 e"
b100 p"
1*
#140000
0*
#145000
0U
0Q
b1101111110101 5"
b11011111001 3"
1'"
b100 ;"
b1101 :"
1&"
b10001 2"
b100 8"
b100 9"
b1101 7"
0Y#
0i#
0y#
0+$
0;$
0K$
b10001 L
b10001 y
b10001 U"
1V"
1*
#150000
0*
#155000
b101 o"
1g"
0,
1X
09
0:
0;
0<
0=
0>
1*
#160000
0*
#165000
1N
0W
b110 o"
b101 V
b101 e"
b101 p"
1*
#170000
0*
#175000
1$
0N
b0 o"
1"
1q
b10001 !
b10001 2
b10001 r
0V"
b110 V
b110 e"
b110 p"
1*
#180000
b101000001 '
b101000001 .
b1111011 &
b1111011 -
b100000101000100010001000101111100110001001100100011001101011111001100110011001000110001 n$
b110111100 m$
b101000001 i$
b1111011 h$
0*
#185000
0$
0g"
b0 V
b0 e"
b0 p"
0X
b101000001 l
b1111011 j
1*
#190000
b1 o"
1)
0*
#195000
1P
b10 o"
b1 V
b1 e"
b1 p"
1*
#200000
b10 o"
0)
0*
#205000
1R
0P
b10 V
b10 e"
b10 p"
b101000001 k
b101000001 3#
b1111011 i
b1111011 q"
1*
#210000
0*
#215000
b11 o"
1/
b10 M$
b10 O$
b10 Q$
b10 T$
b10 R$
b10 N$
b10 A$
b10 D$
b10 B$
b10 =$
b10 ?$
b10 >$
b100 1$
b100 4$
b100 2$
b100 -$
b100 /$
b100 .$
b11111111111111111111111111111100 $$
b11111111111111111111111111111100 "$
b11 {#
b11 }#
b11111111111111111111111111111100 |#
b11111111111111111111111111111111 o#
b11111111111111111111111111111111 r#
b11111111111111111111111111111111 p#
b111 k#
b11111111111111111111111111111111 m#
b11111111111111111111111111111111 l#
b0 _#
b0 b#
b0 `#
b0 [#
b0 ]#
b0 \#
1S
b11110 ?
b11110 G#
b11110 F$
b1100 @
b1100 F#
b1100 6$
b10 A
b10 E#
b10 &$
b111 B
b111 D#
b111 t#
b1 C
b1 C#
b1 d#
b0 D
b0 B#
b0 T#
1T
b100 E
b100 '#
b100 E$
b110 F
b110 &#
b110 5$
b10 G
b10 %#
b10 %$
b101 H
b101 $#
b101 s#
b110 I
b110 ##
b110 c#
b0 J
b0 "#
b0 S#
b11111111111111111111111111111110 M#
b11111111111111111111111111111100 L#
b10 K#
b11111111111111111111111111111111 J#
b1 I#
b0 H#
b11111111111111111111111111111110 O#
b101000001 R#
b10001 Q#
b101000001 P#
b10001 N#
b100 -#
b110 ,#
b10 +#
b11111111111111111111111111111101 *#
b11111111111111111111111111111110 )#
b0 (#
b100 /#
b1111011 2#
b10001 1#
b1111011 0#
b10001 .#
1*
#220000
0*
#225000
1Y
0R
b11 V
b11 e"
b11 p"
1T
1S
b100 /#
b10001 1#
b10001 .#
b11111111111111111111111111111110 O#
b10001 Q#
b10001 N#
1*
#230000
0*
#235000
1U
b110111100 K
b110111100 %"
1Q
b110111100 6"
b110111100 <"
b110111100 +"
b110111100 *"
b110111100 4"
b10010010011001 5"
b11011111001 3"
0'"
b1101 :"
0&"
b10 ;"
b10 1"
b10 0"
b100 /"
b100 -"
b0 ,"
b10 8"
b10 9"
b1101 7"
b110111100 T"
b110111100 \"
b110111100 ]"
b101011000010 ["
b1101001000 Z"
b1110011100 X"
b0 W"
b100 a"
b100 _"
b0 ^"
b110111100 c"
b101011000010 d"
b10010000011 b"
0/
b10 3
b10 s
b10 L$
1K$
b10 4
b10 t
b10 <$
1;$
b100 5
b100 u
b100 ="
b100 ,$
1+$
1y#
b111 7
b111 w
b111 ?"
b111 j#
1i#
b0 8
b0 x
b0 @"
b0 Z#
1Y#
0S
0T
1*
#240000
0*
#245000
b100 o"
1,
1>
1=
1<
1;
1:
19
1*
#250000
0*
#255000
1W
0Y
b100 V
b100 e"
b100 p"
1*
#260000
0*
#265000
0U
0Q
b10010010011001 5"
b11011111001 3"
1'"
b1101 :"
1&"
b110111100 2"
b10 8"
b10 9"
b1101 7"
0Y#
0i#
0y#
0+$
0;$
0K$
b110111100 L
b110111100 y
b110111100 U"
1V"
1*
#270000
0*
#275000
b101 o"
1g"
0,
1X
09
0:
0;
0<
0=
0>
1*
#280000
0*
#285000
1N
0W
b110 o"
b101 V
b101 e"
b101 p"
1*
#290000
0*
#295000
1$
0N
b0 o"
b110111100 !
b110111100 2
b110111100 r
0V"
b110 V
b110 e"
b110 p"
1*
#300000
b110010 '
b110010 .
b11001000 &
b11001000 -
b1 (
b1 1
b1010011010101010100001001011111001100100011000000110000010111110011010100110000 n$
b10010110 m$
b110010 i$
b11001000 h$
b1 o$
0*
#305000
0$
0g"
b0 V
b0 e"
b0 p"
0X
b1 p
b110010 l
b11001000 j
1*
#310000
b1 o"
1)
0*
#315000
1P
b10 o"
b1 V
b1 e"
b1 p"
1*
#320000
b10 o"
0)
0*
