runs/24291139735/precheck/rtl/rtl_precheck.vcd
$date
	Sat Apr 11 20:39:57 2026
$end
$version
	Icarus Verilog
$end
$timescale
	1ps
$end
$scope module tb_crns_top_mrc $end
$var wire 16 ! X_out [15:0] $end
$var wire 1 " Done $end
$var reg 16 # A_in [15:0] $end
$var reg 16 $ B_in [15:0] $end
$var reg 2 % Op_Sel [1:0] $end
$var reg 1 & Start $end
$var reg 1 ' clk $end
$var reg 1 ( rst_n $end
$scope module dut $end
$var wire 1 ) ALU_Done_all $end
$var wire 16 * A_in [15:0] $end
$var wire 16 + B_in [15:0] $end
$var wire 1 , CRT_Done $end
$var wire 1 - Encode_Done_all $end
$var wire 2 . Op_Sel [1:0] $end
$var wire 1 & Start $end
$var wire 16 / X_out [15:0] $end
$var wire 1 ' clk $end
$var wire 1 ( rst_n $end
$var wire 4 0 z_r3 [3:0] $end
$var wire 3 1 z_r2 [2:0] $end
$var wire 3 2 z_r1 [2:0] $end
$var wire 2 3 z_r0 [1:0] $end
$var wire 1 4 slice3_done $end
$var wire 1 5 slice2_done $end
$var wire 1 6 slice1_done $end
$var wire 1 7 slice0_done $end
$var wire 4 8 b_r3 [3:0] $end
$var wire 3 9 b_r2 [2:0] $end
$var wire 3 : b_r1 [2:0] $end
$var wire 2 ; b_r0 [1:0] $end
$var wire 4 < a_r3 [3:0] $end
$var wire 3 = a_r2 [2:0] $end
$var wire 3 > a_r1 [2:0] $end
$var wire 2 ? a_r0 [1:0] $end
$var wire 16 @ X_mrc [15:0] $end
$var wire 1 A Out_EN $end
$var wire 1 B MRC_Start $end
$var wire 1 C MRC_Done $end
$var wire 1 D Load_IN $end
$var wire 1 E Encode_EN $end
$var wire 1 F Encode_Done_B $end
$var wire 1 G Encode_Done_A $end
$var wire 1 " Done $end
$var wire 3 H CU_state_dbg [2:0] $end
$var wire 1 I CRT_Start $end
$var wire 1 J ALU_EN $end
$var parameter 32 K CENTERED_OUT_EN $end
$var parameter 32 L CRNS_EN $end
$var parameter 32 M M0 $end
$var parameter 32 N M1 $end
$var parameter 32 O M2 $end
$var parameter 32 P M3 $end
$var parameter 32 Q W0 $end
$var parameter 32 R W1 $end
$var parameter 32 S W2 $end
$var parameter 32 T W3 $end
$var parameter 32 U WIDTH_IN $end
$var reg 16 V A_reg [15:0] $end
$var reg 16 W B_reg [15:0] $end
$var reg 2 X OpSel_reg [1:0] $end
$var reg 16 Y X_reg [15:0] $end
$scope module u_cu $end
$var wire 1 ) ALU_Done $end
$var wire 1 , CRT_Done $end
$var wire 3 Z CU_state_dbg [2:0] $end
$var wire 1 - Encode_Done $end
$var wire 1 [ Recon_Mode $end
$var wire 1 & Start $end
$var wire 1 ' clk $end
$var wire 1 ( rst_n $end
$var wire 1 \ recon_done_sel $end
$var wire 1 C MRC_Done $end
$var parameter 3 ] S_ALU $end
$var parameter 3 ^ S_DONE $end
$var parameter 3 _ S_ENCODE $end
$var parameter 3 ` S_IDLE $end
$var parameter 3 a S_LOAD $end
$var parameter 3 b S_OUT $end
$var parameter 3 c S_RECON $end
$var reg 1 J ALU_EN $end
$var reg 1 I CRT_Start $end
$var reg 1 " Done $end
$var reg 1 E Encode_EN $end
$var reg 1 D Load_IN $end
$var reg 1 B MRC_Start $end
$var reg 1 A Out_EN $end
$var reg 3 d next_state [2:0] $end
$var reg 3 e state [2:0] $end
$upscope $end
$scope module u_enc_a $end
$var wire 1 E Encode_EN $end
$var wire 1 ' clk $end
$var wire 1 ( rst_n $end
$var wire 16 f x [15:0] $end
$var parameter 32 g CRNS_EN $end
$var parameter 32 h M0 $end
$var parameter 32 i M1 $end
$var parameter 32 j M2 $end
$var parameter 32 k M3 $end
$var parameter 32 l W0 $end
$var parameter 32 m W1 $end
$var parameter 32 n W2 $end
$var parameter 32 o W3 $end
$var parameter 32 p WIDTH_IN $end
$var reg 1 G Encode_Done $end
$var reg 2 q r0 [1:0] $end
$var reg 3 r r1 [2:0] $end
$var reg 3 s r2 [2:0] $end
$var reg 4 t r3 [3:0] $end
$var integer 32 u tmp0 [31:0] $end
$var integer 32 v tmp1 [31:0] $end
$var integer 32 w tmp2 [31:0] $end
$var integer 32 x tmp3 [31:0] $end
$scope function norm_bal $end
$var integer 32 y m [31:0] $end
$var integer 32 z r [31:0] $end
$var integer 32 { val [31:0] $end
$upscope $end
$scope function norm_std $end
$var integer 32 | m [31:0] $end
$var integer 32 } val [31:0] $end
$upscope $end
$upscope $end
$scope module u_enc_b $end
$var wire 1 E Encode_EN $end
$var wire 1 ' clk $end
$var wire 1 ( rst_n $end
$var wire 16 ~ x [15:0] $end
$var parameter 32 !" CRNS_EN $end
$var parameter 32 "" M0 $end
$var parameter 32 #" M1 $end
$var parameter 32 $" M2 $end
$var parameter 32 %" M3 $end
$var parameter 32 &" W0 $end
$var parameter 32 '" W1 $end
$var parameter 32 (" W2 $end
$var parameter 32 )" W3 $end
$var parameter 32 *" WIDTH_IN $end
$var reg 1 F Encode_Done $end
$var reg 2 +" r0 [1:0] $end
$var reg 3 ," r1 [2:0] $end
$var reg 3 -" r2 [2:0] $end
$var reg 4 ." r3 [3:0] $end
$var integer 32 /" tmp0 [31:0] $end
$var integer 32 0" tmp1 [31:0] $end
$var integer 32 1" tmp2 [31:0] $end
$var integer 32 2" tmp3 [31:0] $end
$scope function norm_bal $end
$var integer 32 3" m [31:0] $end
$var integer 32 4" r [31:0] $end
$var integer 32 5" val [31:0] $end
$upscope $end
$scope function norm_std $end
$var integer 32 6" m [31:0] $end
$var integer 32 7" val [31:0] $end
$upscope $end
$upscope $end
$scope module u_mrc $end
$var wire 1 B MRC_Start $end
$var wire 1 ' clk $end
$var wire 1 ( rst_n $end
$var wire 1 8" start_pulse $end
$var wire 11 9" total_mod_w [10:0] $end
$var wire 11 :" total_centered_w [10:0] $end
$var wire 4 ;" t4_w [3:0] $end
$var wire 3 <" t3_w [2:0] $end
$var wire 3 =" t2_w [2:0] $end
$var wire 4 >" r3 [3:0] $end
$var wire 3 ?" r2 [2:0] $end
$var wire 3 @" r1 [2:0] $end
$var wire 2 A" r0 [1:0] $end
$var wire 11 B" X4_w [10:0] $end
$var wire 7 C" X3_next_w [6:0] $end
$var wire 4 D" X2_next_w [3:0] $end
$var parameter 32 E" HALF_M $end
$var parameter 32 F" INV_12 $end
$var parameter 32 G" INV_123 $end
$var parameter 32 H" INV_1234 $end
$var parameter 32 I" MOD0 $end
$var parameter 32 J" MOD1 $end
$var parameter 32 K" MOD2 $end
$var parameter 32 L" MOD3 $end
$var parameter 32 M" MPREV1 $end
$var parameter 32 N" MPREV2 $end
$var parameter 32 O" MPREV3 $end
$var parameter 32 P" M_TOTAL $end
$var parameter 32 Q" OUT_WIDTH $end
$var parameter 3 R" S_DONE $end
$var parameter 3 S" S_IDLE $end
$var parameter 3 T" S_S1 $end
$var parameter 3 U" S_S2 $end
$var parameter 3 V" S_S3 $end
$var parameter 3 W" S_S4 $end
$var parameter 32 X" W0 $end
$var parameter 32 Y" W1 $end
$var parameter 32 Z" W2 $end
$var parameter 32 [" W3 $end
$var reg 1 C MRC_Done $end
$var reg 2 \" X1_r [1:0] $end
$var reg 4 ]" X2_r [3:0] $end
$var reg 7 ^" X3_r [6:0] $end
$var reg 16 _" X_out [15:0] $end
$var reg 2 `" r0_mod_r [1:0] $end
$var reg 3 a" r1_mod_r [2:0] $end
$var reg 3 b" r2_mod_r [2:0] $end
$var reg 4 c" r3_mod_r [3:0] $end
$var reg 1 d" start_d $end
$var reg 3 e" state [2:0] $end
$scope function norm_mod $end
$var integer 32 f" m [31:0] $end
$var integer 32 g" t [31:0] $end
$var integer 32 h" x [31:0] $end
$upscope $end
$upscope $end
$scope module u_slice0 $end
$var wire 1 J ALU_EN $end
$var wire 2 i" a [1:0] $end
$var wire 2 j" b [1:0] $end
$var wire 1 ' clk $end
$var wire 2 k" op_sel [1:0] $end
$var wire 1 ( rst_n $end
$var parameter 32 l" CRNS_EN $end
$var parameter 32 m" MODULUS $end
$var parameter 32 n" WIDTH $end
$var reg 1 7 ALU_Done $end
$var reg 1 o" start_d $end
$var reg 2 p" y [1:0] $end
$var reg 2 q" y_next [1:0] $end
$var integer 32 r" raw [31:0] $end
$var integer 32 s" tmp [31:0] $end
$scope function norm_bal $end
$var integer 32 t" m [31:0] $end
$var integer 32 u" r [31:0] $end
$var integer 32 v" val [31:0] $end
$upscope $end
$scope function norm_std $end
$var integer 32 w" m [31:0] $end
$var integer 32 x" val [31:0] $end
$upscope $end
$upscope $end
$scope module u_slice1 $end
$var wire 1 J ALU_EN $end
$var wire 3 y" a [2:0] $end
$var wire 3 z" b [2:0] $end
$var wire 1 ' clk $end
$var wire 2 {" op_sel [1:0] $end
$var wire 1 ( rst_n $end
$var parameter 32 |" CRNS_EN $end
$var parameter 32 }" MODULUS $end
$var parameter 32 ~" WIDTH $end
$var reg 1 6 ALU_Done $end
$var reg 1 !# start_d $end
$var reg 3 "# y [2:0] $end
$var reg 3 ## y_next [2:0] $end
$var integer 32 $# raw [31:0] $end
$var integer 32 %# tmp [31:0] $end
$scope function norm_bal $end
$var integer 32 &# m [31:0] $end
$var integer 32 '# r [31:0] $end
$var integer 32 (# val [31:0] $end
$upscope $end
$scope function norm_std $end
$var integer 32 )# m [31:0] $end
$var integer 32 *# val [31:0] $end
$upscope $end
$upscope $end
$scope module u_slice2 $end
$var wire 1 J ALU_EN $end
$var wire 3 +# a [2:0] $end
$var wire 3 ,# b [2:0] $end
$var wire 1 ' clk $end
$var wire 2 -# op_sel [1:0] $end
$var wire 1 ( rst_n $end
$var parameter 32 .# CRNS_EN $end
$var parameter 32 /# MODULUS $end
$var parameter 32 0# WIDTH $end
$var reg 1 5 ALU_Done $end
$var reg 1 1# start_d $end
$var reg 3 2# y [2:0] $end
$var reg 3 3# y_next [2:0] $end
$var integer 32 4# raw [31:0] $end
$var integer 32 5# tmp [31:0] $end
$scope function norm_bal $end
$var integer 32 6# m [31:0] $end
$var integer 32 7# r [31:0] $end
$var integer 32 8# val [31:0] $end
$upscope $end
$scope function norm_std $end
$var integer 32 9# m [31:0] $end
$var integer 32 :# val [31:0] $end
$upscope $end
$upscope $end
$scope module u_slice3 $end
$var wire 1 J ALU_EN $end
$var wire 4 ;# a [3:0] $end
$var wire 4 <# b [3:0] $end
$var wire 1 ' clk $end
$var wire 2 =# op_sel [1:0] $end
$var wire 1 ( rst_n $end
$var parameter 32 ># CRNS_EN $end
$var parameter 32 ?# MODULUS $end
$var parameter 32 @# WIDTH $end
$var reg 1 4 ALU_Done $end
$var reg 1 A# start_d $end
$var reg 4 B# y [3:0] $end
$var reg 4 C# y_next [3:0] $end
$var integer 32 D# raw [31:0] $end
$var integer 32 E# tmp [31:0] $end
$scope function norm_bal $end
$var integer 32 F# m [31:0] $end
$var integer 32 G# r [31:0] $end
$var integer 32 H# val [31:0] $end
$upscope $end
$scope function norm_std $end
$var integer 32 I# m [31:0] $end
$var integer 32 J# val [31:0] $end
$upscope $end
$upscope $end
$upscope $end
$scope task run_test $end
$var reg 16 K# a [15:0] $end
$var reg 16 L# b [15:0] $end
$var reg 16 M# expected [15:0] $end
$var reg 128 N# name [127:0] $end
$var reg 2 O# op [1:0] $end
$upscope $end
$upscope $end
$enddefinitions $end
$comment Show the parameter values. $end
$dumpall
b100 @#
b1011 ?#
b1 >#
b11 0#
b111 /#
b1 .#
b11 ~"
b101 }"
b1 |"
b10 n"
b11 m"
b1 l"
b100 ["
b11 Z"
b11 Y"
b10 X"
b100 W"
b11 V"
b10 U"
b1 T"
b0 S"
b101 R"
b10000 Q"
b10010000011 P"
b1101001 O"
b1111 N"
b11 M"
b1011 L"
b111 K"
b101 J"
b11 I"
b10 H"
b1 G"
b10 F"
b1001000001 E"
b10000 *"
b100 )"
b11 ("
b11 '"
b10 &"
b1011 %"
b111 $"
b101 #"
b11 ""
b1 !"
b10000 p
b100 o
b11 n
b11 m
b10 l
b1011 k
b111 j
b101 i
b11 h
b1 g
b100 c
b101 b
b1 a
b0 `
b10 _
b110 ^
b11 ]
b10000 U
b100 T
b11 S
b11 R
b10 Q
b1011 P
b111 O
b101 N
b11 M
b1 L
b1 K
$end
#0
$dumpvars
bx O#
bx N#
bx M#
bx L#
bx K#
bx J#
bx I#
bx H#
bx G#
bx F#
bx E#
bx D#
bx C#
bx B#
xA#
bx =#
bx <#
bx ;#
bx :#
bx 9#
bx 8#
bx 7#
bx 6#
bx 5#
bx 4#
bx 3#
bx 2#
x1#
bx -#
bx ,#
bx +#
bx *#
bx )#
bx (#
bx '#
bx &#
bx %#
bx $#
bx ##
bx "#
x!#
bx {"
bx z"
bx y"
bx x"
bx w"
bx v"
bx u"
bx t"
bx s"
bx r"
bx q"
bx p"
xo"
bx k"
bx j"
bx i"
bx h"
bx g"
b111 f"
bx e"
xd"
bx c"
bx b"
bx a"
bx `"
bx _"
bx ^"
bx ]"
bx \"
bx D"
bx C"
bx B"
bx A"
bx @"
bx ?"
bx >"
bx ="
bx <"
bx ;"
bx :"
bx 9"
08"
bx 7"
bx 6"
bx 5"
bx 4"
bx 3"
bx 2"
bx 1"
bx 0"
bx /"
bx ."
bx -"
bx ,"
bx +"
bx ~
bx }
bx |
bx {
bx z
bx y
bx x
bx w
bx v
bx u
bx t
bx s
bx r
bx q
bx f
bx e
b0 d
x\
1[
bx Z
bx Y
bx X
bx W
bx V
0J
0I
bx H
xG
xF
0E
0D
xC
0B
0A
bx @
bx ?
bx >
bx =
bx <
bx ;
bx :
bx 9
bx 8
x7
x6
x5
x4
bx 3
bx 2
bx 1
bx 0
bx /
b0 .
x-
0,
b0 +
b0 *
x)
0(
0'
0&
b0 %
b0 $
b0 #
0"
bx !
$end
#5000
0-
0)
0\
b0 H
b0 Z
b0 e
0G
0F
07
0o"
06
0!#
05
01#
04
0A#
0C
0d"
b0 e"
1'
#10000
0'
#15000
1'
#20000
0'
#25000
1'
#30000
0'
#35000
1'
#40000
0'
#45000
1'
#50000
1(
0'
#55000
1'
#60000
b111 $
b111 +
b1010 #
b1010 *
b100000101000100010001000101111100110001001100000101111100110111 N#
b10001 M#
b111 L#
b1010 K#
b0 O#
0'
#65000
1'
#70000
b1 d
1&
0'
#75000
1D
b10 d
b1 H
b1 Z
b1 e
1'
#80000
b10 d
0&
0'
#85000
1E
0D
b11 w"
b11 t"
bx q"
bx s"
bx r"
b101 )#
b101 &#
bx ##
bx %#
bx $#
b111 9#
b111 6#
bx 3#
bx 5#
bx 4#
b1011 I#
b1011 F#
bx C#
bx E#
bx D#
b10 H
b10 Z
b10 e
b0 X
b0 k"
b0 {"
b0 -#
b0 =#
b111 W
b111 ~
b1010 V
b1010 f
1'
#90000
0'
#95000
b11 d
1-
b11111111111111111111111111111011 G#
b11111111111111111111111111111011 J#
b11111111111111111111111111111011 H#
b1011 C#
b11111111111111111111111111111011 E#
b11111111111111111111111111111011 D#
b11 7#
b11 :#
b11 8#
b11 3#
b11 5#
b11 4#
b10 '#
b10 *#
b10 (#
b10 ##
b10 %#
b10 $#
b11111111111111111111111111111111 u"
b10 x"
b10 v"
b11 q"
b11111111111111111111111111111111 s"
b10 r"
1F
b1100 8
b1100 ."
b1100 <#
b0 9
b0 -"
b0 ,#
b10 :
b10 ,"
b10 z"
b1 ;
b1 +"
b1 j"
1G
b1111 <
b1111 t
b1111 ;#
b11 =
b11 s
b11 +#
b0 >
b0 r
b0 y"
b1 ?
b1 q
b1 i"
b11111111111111111111111111111100 2"
b0 1"
b10 0"
b1 /"
b11111111111111111111111111111100 4"
b111 7"
b1011 6"
b111 5"
b1011 3"
b11111111111111111111111111111111 x
b11 w
b0 v
b1 u
b11111111111111111111111111111111 z
b1010 }
b1011 |
b1010 {
b1011 y
1'
#100000
0'
#105000
1J
0E
b11 H
b11 Z
b11 e
1G
1F
b11111111111111111111111111111111 z
b1011 |
b1011 y
b11111111111111111111111111111100 4"
b1011 6"
b1011 3"
1'
#110000
0'
#115000
0-
b1011 0
b1011 >"
b1011 B#
1A#
b11 1
b11 ?"
b11 2#
11#
b10 2
b10 @"
b10 "#
1!#
b11 3
b11 A"
b11 p"
1o"
0F
0G
1'
#120000
0'
#125000
b100 d
1)
17
16
15
14
1'
#130000
0'
#135000
18"
1B
0J
b100 H
b100 Z
b100 e
1'
#140000
0'
#145000
08"
0o"
0!#
01#
0A#
b1 e"
b110 c"
b11 b"
b10 a"
b10 `"
1d"
b110 g"
b11111111111111111111111111111011 h"
b1011 f"
1'
#150000
0'
#155000
b10 D"
b0 ="
b0 g"
b101 f"
b0 h"
0)
b10 e"
b10 \"
04
05
06
07
1'
#160000
0'
#165000
b10001 C"
b1 <"
b1 g"
b111 f"
b1 h"
b11 e"
b10 ]"
1'
#170000
0'
#175000
b10001 :"
b10001 9"
b10001 B"
b0 ;"
b10001 g"
b10010000011 f"
b10001 h"
b100 e"
b10001 ^"
1'
#180000
0'
#185000
b101 e"
b10001 @
b10001 _"
1'
#190000
0'
#195000
b101 d
1\
b0 e"
1C
1'
#200000
0'
#205000
1A
0B
b110 d
0\
b101 H
b101 Z
b101 e
0C
1'
#210000
0'
#215000
1"
0A
b0 d
b10001 !
b10001 /
b10001 Y
0d"
b110 H
b110 Z
b110 e
1'
#220000
b100101100 $
b100101100 +
b1111101000 #
b1111101000 *
b100000101000100010001000101111101010111010100100100000101010000 N#
b10010001 M#
b100101100 L#
b1111101000 K#
0'
#225000
0"
b0 H
b0 Z
b0 e
1'
#230000
b1 d
1&
0'
#235000
1D
b10 d
b1 H
b1 Z
b1 e
1'
#240000
b10 d
0&
0'
#245000
1E
0D
b10 H
b10 Z
b10 e
b100101100 W
b100101100 ~
b1111101000 V
b1111101000 f
1'
#250000
0'
#255000
b11 d
b10 G#
b10 J#
b10 H#
b10 C#
b10 E#
b10 D#
b0 '#
b0 *#
b0 (#
b0 ##
b0 %#
b0 $#
b1 u"
b1 x"
b1 v"
b1 q"
b1 s"
b1 r"
1-
b11111111111111111111111111111110 7#
b11111111111111111111111111111110 :#
b11111111111111111111111111111110 8#
b110 3#
b11111111111111111111111111111110 5#
b11111111111111111111111111111110 4#
1F
b11 8
b11 ."
b11 <#
b111 9
b111 -"
b111 ,#
b0 :
b0 ,"
b0 z"
b0 ;
b0 +"
b0 j"
1G
b111 =
b111 s
b111 +#
b11 2"
b11111111111111111111111111111111 1"
b0 0"
b0 /"
b11 4"
b100101100 7"
b1011 6"
b100101100 5"
b1011 3"
b11111111111111111111111111111111 w
b11111111111111111111111111111111 z
b1111101000 }
b1011 |
b1111101000 {
b1011 y
1'
#260000
0'
#265000
1J
0E
b11 H
b11 Z
b11 e
1G
1F
b11111111111111111111111111111111 z
b1011 |
b1011 y
b11 4"
b1011 6"
b1011 3"
1'
#270000
0'
#275000
0-
b10 0
b10 >"
b10 B#
1A#
b110 1
b110 ?"
b110 2#
11#
b0 2
b0 @"
b0 "#
1!#
b1 3
b1 A"
b1 p"
1o"
0F
0G
1'
#280000
0'
#285000
b100 d
1)
17
16
15
14
1'
#290000
0'
#295000
18"
1B
0J
b100 H
b100 Z
b100 e
1'
#300000
0'
#305000
b101001100 :"
b101001100 9"
b101001100 B"
b101111 C"
b101 D"
b11 ;"
b11 <"
b1 ="
08"
0o"
0!#
01#
0A#
b1 e"
b10 c"
b101 b"
b0 a"
b1 `"
1d"
b101001100 g"
b101001100 h"
b10010000011 f"
1'
#310000
0'
#315000
b11 ="
b11 g"
b101 f"
b1000 h"
b1010 D"
0)
b10 e"
b1 \"
04
05
06
07
1'
#320000
0'
#325000
b10 <"
b10 g"
b111 f"
b10 h"
b101000 C"
b11 e"
b1010 ]"
1'
#330000
0'
#335000
b10010001 :"
b1 ;"
b10010001 9"
b10010001 g"
b10010000011 f"
b10010001 h"
b10010001 B"
b100 e"
b101000 ^"
1'
#340000
0'
#345000
b101 e"
b10010001 @
b10010001 _"
1'
#350000
0'
#355000
b101 d
1\
b0 e"
1C
1'
#360000
0'
#365000
1A
0B
b110 d
0\
b101 H
b101 Z
b101 e
0C
1'
#370000
0'
#375000
1"
0A
b0 d
b10010001 !
b10010001 /
b10010001 Y
0d"
b110 H
b110 Z
b110 e
1'
#380000
b110010 $
b110010 +
b11001000 #
b11001000 *
b1 %
b1 .
b1010011010101010100001001011111001100100011000000110000010111110011010100110000 N#
b10010110 M#
b110010 L#
b11001000 K#
b1 O#
0'
#385000
0"
b0 H
b0 Z
b0 e
1'
#390000
b1 d
1&
0'
#395000
1D
b10 d
b1 H
b1 Z
b1 e
1'
#400000
b10 d
0&
0'
#405000
1E
0D
b1 q"
b1 s"
b1 r"
b0 7#
b0 :#
b0 8#
b0 3#
b0 5#
b0 4#
b11111111111111111111111111111100 G#
b11111111111111111111111111111100 J#
b11111111111111111111111111111100 H#
b1100 C#
b11111111111111111111111111111100 E#
b11111111111111111111111111111100 D#
b10 H
b10 Z
b10 e
b1 X
b1 k"
b1 {"
b1 -#
b1 =#
b110010 W
b110010 ~
b11001000 V
b11001000 f
1'
#410000
0'
#415000
b11 d
1-
b11111111111111111111111111111100 G#
b111 J#
b111 H#
b1100 C#
b11111111111111111111111111111100 E#
b111 D#
b11 3#
b11 5#
b11 7#
b11111111111111111111111111111100 :#
b11111111111111111111111111111100 8#
b11111111111111111111111111111100 4#
b0 u"
b0 x"
b0 v"
b0 q"
b0 s"
b0 r"
1F
b1011 8
b1011 ."
b1011 <#
b1 9
b1 -"
b1 ,#
b11 ;
b11 +"
b11 j"
1G
b10 <
b10 t
b10 ;#
b101 =
b101 s
b101 +#
b11 ?
b11 q
b11 i"
b11111111111111111111111111111011 2"
b1 1"
b11111111111111111111111111111111 /"
b11111111111111111111111111111011 4"
b110010 7"
b1011 6"
b110010 5"
b1011 3"
b10 x
b11111111111111111111111111111101 w
b11111111111111111111111111111111 u
b10 z
b11001000 }
b1011 |
b11001000 {
b1011 y
1'
#420000
0'
#425000
1J
0E
b11 H
b11 Z
b11 e
1G
1F
b10 z
b1011 |
b1011 y
b11111111111111111111111111111011 4"
b1011 6"
b1011 3"
1'
#430000
0'
#435000
0-
b1100 0
b1100 >"
b1100 B#
1A#
b11 1
b11 ?"
b11 2#
11#
1!#
b0 3
b0 A"
b0 p"
1o"
0F
0G
1'
#440000
0'
#445000
b100 d
1)
17
16
15
14
1'
#450000
0'
#455000
18"
1B
0J
b100 H
b100 Z
b100 e
1'
#460000
0'
#465000
b101000 :"
b101000 9"
b101000 B"
b1010 C"
b0 ;"
b0 <"
08"
0o"
0!#
01#
0A#
b1 e"
b111 c"
b11 b"
b0 `"
1d"
b101000 g"
b101000 h"
b10010000011 f"
1'
#470000
0'
#475000
b0 ="
b0 g"
b101 f"
b0 h"
b0 D"
0)
b10 e"
b0 \"
04
05
06
07
1'
#480000
0'
#485000
b11 <"
b11 g"
b11 h"
b111 f"
b101101 C"
b11 e"
b0 ]"
1'
#490000
0'
#495000
b10010110 :"
b1 ;"
b10010110 9"
b10010110 g"
b10010000011 f"
b10010110 h"
b10010110 B"
b100 e"
b101101 ^"
1'
#500000
0'
#505000
b101 e"
b10010110 @
b10010110 _"
1'
#510000
0'
#515000
b101 d
1\
b0 e"
1C
1'
#520000
0'
#525000
1A
0B
b110 d
0\
b101 H
b101 Z
b101 e
0C
1'
#530000
0'
#535000
1"
0A
b0 d
b10010110 !
b10010110 /
b10010110 Y
0d"
b110 H
b110 Z
b110 e
1'
#540000
b11001000 $
b11001000 +
b110010 #
b110010 *
b101001101010101010000100101111101010111010100100100000101010000 N#
b1111111101101010 M#
b11001000 L#
b110010 K#
0'
#545000
0"
b0 H
b0 Z
b0 e
1'
#550000
b1 d
1&
0'
#555000
1D
b10 d
b1 H
b1 Z
b1 e
1'
#560000
b10 d
0&
0'
#565000
1E
0D
b10 H
b10 Z
b10 e
b11001000 W
b11001000 ~
b110010 V
b110010 f
1'
#570000
0'
#575000
b11 d
1-
b100 G#
b11111111111111111111111111111001 J#
b11111111111111111111111111111001 H#
b100 C#
b100 E#
b11111111111111111111111111111001 D#
b11111111111111111111111111111101 7#
b100 :#
b100 8#
b101 3#
b11111111111111111111111111111101 5#
b100 4#
1F
b10 8
b10 ."
b10 <#
b101 9
b101 -"
b101 ,#
1G
b1011 <
b1011 t
b1011 ;#
b1 =
b1 s
b1 +#
b10 2"
b11111111111111111111111111111101 1"
b10 4"
b11001000 7"
b1011 6"
b11001000 5"
b1011 3"
b11111111111111111111111111111011 x
b1 w
b11111111111111111111111111111011 z
b110010 }
b1011 |
b110010 {
b1011 y
1'
#580000
0'
#585000
1J
0E
b11 H
b11 Z
b11 e
1G
1F
b11111111111111111111111111111011 z
b1011 |
b1011 y
b10 4"
b1011 6"
b1011 3"
1'
#590000
0'
#595000
0-
b100 0
b100 >"
b100 B#
1A#
b101 1
b101 ?"
b101 2#
11#
1!#
1o"
0F
0G
1'
#600000
0'
#605000
b100 d
1)
17
16
15
14
1'
#610000
0'
#615000
18"
1B
0J
b100 H
b100 Z
b100 e
1'
#620000
0'
#625000
b11000100000 :"
b1010100011 9"
b1010100011 B"
b111100 C"
b110 ;"
b100 <"
08"
0o"
0!#
01#
0A#
b1 e"
b100 c"
b100 b"
1d"
b1010100011 g"
b1010100011 h"
b10010000011 f"
1'
#630000
0'
#635000
0)
b10 e"
04
05
06
07
1'
#640000
0'
#645000
b11 e"
1'
#650000
0'
#655000
b11101101010 :"
b1001 ;"
b1111101101 9"
b1111101101 g"
b10010000011 f"
b1111101101 h"
b1111101101 B"
b100 e"
b111100 ^"
1'
#660000
0'
#665000
b101 e"
b1111111101101010 @
b1111111101101010 _"
1'
#670000
0'
#675000
b101 d
1\
b0 e"
1C
1'
#680000
0'
#685000
1A
0B
b110 d
0\
b101 H
b101 Z
b101 e
0C
1'
#690000
0'
#695000
1"
0A
b0 d
b1111111101101010 !
b1111111101101010 /
b1111111101101010 Y
0d"
b110 H
b110 Z
b110 e
1'
#700000
b10001 $
b10001 +
b1011 #
b1011 *
b10 %
b10 .
b10011010101010101001100010111110011000100110001010111110011000100110111 N#
b10111011 M#
b10001 L#
b1011 K#
b10 O#
0'
#705000
0"
b0 H
b0 Z
b0 e
1'
#710000
b1 d
1&
0'
#715000
1D
b10 d
b1 H
b1 Z
b1 e
1'
#720000
b10 d
0&
0'
#725000
1E
0D
b1 q"
b1 s"
b1 u"
b1 x"
b1 v"
b1 r"
b11111111111111111111111111111101 7#
b11111111111111111111111111111101 :#
b11111111111111111111111111111101 8#
b101 3#
b11111111111111111111111111111101 5#
b11111111111111111111111111111101 4#
b1 G#
b11111111111111111111111111110110 J#
b11111111111111111111111111110110 H#
b1 C#
b1 E#
b11111111111111111111111111110110 D#
b10 H
b10 Z
b10 e
b10 X
b10 k"
b10 {"
b10 -#
b10 =#
b10001 W
b10001 ~
b1011 V
b1011 f
1'
#730000
0'
#735000
b11 d
1-
b0 G#
b0 J#
b0 H#
b0 C#
b0 E#
b0 D#
b11111111111111111111111111111110 7#
b11111111111111111111111111110111 :#
b11111111111111111111111111110111 8#
b110 3#
b11111111111111111111111111111110 5#
b11111111111111111111111111110111 4#
b10 ##
b10 %#
b10 '#
b10 *#
b10 (#
b10 $#
1F
b1011 8
b1011 ."
b1011 <#
b11 9
b11 -"
b11 ,#
b10 :
b10 ,"
b10 z"
1G
b0 <
b0 t
b0 ;#
b101 =
b101 s
b101 +#
b1 >
b1 r
b1 y"
b11111111111111111111111111111011 2"
b11 1"
b10 0"
b11111111111111111111111111111011 4"
b10001 7"
b1011 6"
b10001 5"
b1011 3"
b0 x
b11111111111111111111111111111101 w
b1 v
b0 z
b1011 }
b1011 |
b1011 {
b1011 y
1'
#740000
0'
#745000
1J
0E
b11 H
b11 Z
b11 e
1G
1F
b0 z
b1011 |
b1011 y
b11111111111111111111111111111011 4"
b1011 6"
b1011 3"
1'
#750000
0'
#755000
0-
b0 0
b0 >"
b0 B#
1A#
b110 1
b110 ?"
b110 2#
11#
b10 2
b10 @"
b10 "#
1!#
b1 3
b1 A"
b1 p"
1o"
0F
0G
1'
#760000
0'
#765000
b100 d
1)
17
16
15
14
1'
#770000
0'
#775000
18"
1B
0J
b100 H
b100 Z
b100 e
1'
#780000
0'
#785000
b10100101 :"
b10100101 9"
b10100101 B"
b1001011 C"
b1100 D"
b1 ;"
b101 <"
b100 ="
08"
0o"
0!#
01#
0A#
b1 e"
b0 c"
b101 b"
b10 a"
b1 `"
1d"
b10100101 g"
b10100101 h"
b10010000011 f"
1'
#790000
0'
#795000
b10 ="
b10 g"
b101 f"
b10 h"
b111 D"
0)
b10 e"
b1 \"
04
05
06
07
1'
#800000
0'
#805000
b0 g"
b111 f"
b111 h"
b1010010 C"
b11 e"
b111 ]"
1'
#810000
0'
#815000
b10111011 :"
b10111011 9"
b10111011 g"
b10010000011 f"
b10111011 h"
b10111011 B"
b100 e"
b1010010 ^"
1'
#820000
0'
#825000
b101 e"
b10111011 @
b10111011 _"
1'
#830000
0'
#835000
b101 d
1\
b0 e"
1C
1'
#840000
0'
#845000
1A
0B
b110 d
0\
b101 H
b101 Z
b101 e
0C
1'
#850000
0'
#855000
1"
0A
b0 d
b10111011 !
b10111011 /
b10111011 Y
0d"
b110 H
b110 Z
b110 e
1'
#860000
b101000 $
b101000 +
b101000 #
b101000 *
b100110101010101010011000101111101010111010100100100000101010000 N#
b110111101 M#
b101000 L#
b101000 K#
0'
#865000
0"
b0 H
b0 Z
b0 e
1'
#870000
b1 d
1&
0'
#875000
1D
b10 d
b1 H
b1 Z
b1 e
1'
#880000
b10 d
0&
0'
#885000
1E
0D
b10 H
b10 Z
b10 e
b101000 W
b101000 ~
b101000 V
b101000 f
1'
#890000
0'
