final_alu/latest/precheck/rtl/final_alu_rtl_precheck.vcd
$date
	Tue Apr 21 14:41:39 2026
$end
$version
	Icarus Verilog
$end
$timescale
	1ps
$end
$scope module tb_final_alu_top $end
$var wire 16 ! X_out [15:0] $end
$var wire 1 " Valid $end
$var wire 1 # Error_Detected $end
$var wire 1 $ Done $end
$var wire 1 % Corrected $end
$var reg 16 & A_in [15:0] $end
$var reg 16 ' B_in [15:0] $end
$var reg 2 ( Op_Sel [1:0] $end
$var reg 1 ) Start $end
$var reg 1 * clk $end
$var reg 4 + force_r4_hold [3:0] $end
$var reg 5 , force_r5_hold [4:0] $end
$var reg 1 - rst_n $end
$var integer 32 . force_lane_hold [31:0] $end
$var integer 32 / lane [31:0] $end
$var integer 32 0 tests_failed [31:0] $end
$var integer 32 1 tests_run [31:0] $end
$scope module dut $end
$var wire 1 2 ALU_Done_all $end
$var wire 16 3 A_in [15:0] $end
$var wire 16 4 B_in [15:0] $end
$var wire 1 % Corrected $end
$var wire 1 5 Encode_Done_all $end
$var wire 1 # Error_Detected $end
$var wire 2 6 Op_Sel [1:0] $end
$var wire 1 ) Start $end
$var wire 1 " Valid $end
$var wire 16 7 X_base_pre [15:0] $end
$var wire 16 8 X_out [15:0] $end
$var wire 5 9 a_r5 [4:0] $end
$var wire 1 : alu_en_local $end
$var wire 5 ; b_r5 [4:0] $end
$var wire 1 * clk $end
$var wire 1 < encode_en_local $end
$var wire 1 = load_in_local $end
$var wire 1 > out_en_local $end
$var wire 1 - rst_n $end
$var wire 5 ? z_r5 [4:0] $end
$var wire 4 @ z_r4 [3:0] $end
$var wire 5 A z_r3_full [4:0] $end
$var wire 4 B z_r3 [3:0] $end
$var wire 5 C z_r2_full [4:0] $end
$var wire 3 D z_r2 [2:0] $end
$var wire 5 E z_r1_full [4:0] $end
$var wire 3 F z_r1 [2:0] $end
$var wire 5 G z_r0_full [4:0] $end
$var wire 2 H z_r0 [1:0] $end
$var wire 1 I slice5_done $end
$var wire 1 J slice4_done $end
$var wire 1 K slice3_done $end
$var wire 1 L slice2_done $end
$var wire 1 M slice1_done $end
$var wire 1 N slice0_done $end
$var wire 1 O recon_post_sel $end
$var wire 5 P corr_r3_full [4:0] $end
$var wire 4 Q corr_r3 [3:0] $end
$var wire 5 R corr_r2_full [4:0] $end
$var wire 3 S corr_r2 [2:0] $end
$var wire 5 T corr_r1_full [4:0] $end
$var wire 3 U corr_r1 [2:0] $end
$var wire 5 V corr_r0_full [4:0] $end
$var wire 2 W corr_r0 [1:0] $end
$var wire 5 X b_r5_full [4:0] $end
$var wire 5 Y b_r4_full [4:0] $end
$var wire 4 Z b_r4 [3:0] $end
$var wire 5 [ b_r3_full [4:0] $end
$var wire 4 \ b_r3 [3:0] $end
$var wire 5 ] b_r2_full [4:0] $end
$var wire 3 ^ b_r2 [2:0] $end
$var wire 5 _ b_r1_full [4:0] $end
$var wire 3 ` b_r1 [2:0] $end
$var wire 5 a b_r0_full [4:0] $end
$var wire 2 b b_r0 [1:0] $end
$var wire 5 c a_r5_full [4:0] $end
$var wire 5 d a_r4_full [4:0] $end
$var wire 4 e a_r4 [3:0] $end
$var wire 5 f a_r3_full [4:0] $end
$var wire 4 g a_r3 [3:0] $end
$var wire 5 h a_r2_full [4:0] $end
$var wire 3 i a_r2 [2:0] $end
$var wire 5 j a_r1_full [4:0] $end
$var wire 3 k a_r1 [2:0] $end
$var wire 5 l a_r0_full [4:0] $end
$var wire 2 m a_r0 [1:0] $end
$var wire 16 n X_final_post [15:0] $end
$var wire 1 o Valid_now $end
$var wire 1 p Recon_Start $end
$var wire 1 q Recon_Done $end
$var wire 1 r Out_EN $end
$var wire 1 s Load_IN $end
$var wire 1 t Error_now $end
$var wire 1 u Encode_EN $end
$var wire 1 v Encode_Done_B $end
$var wire 1 w Encode_Done_A $end
$var wire 1 $ Done $end
$var wire 1 x Corrected_now $end
$var wire 1 y Correct_Start $end
$var wire 1 z Correct_Done $end
$var wire 4 { CU_state_dbg [3:0] $end
$var wire 1 | ALU_EN $end
$var parameter 32 } CENTERED_OUT_EN $end
$var parameter 32 ~ CRNS_EN $end
$var parameter 32 !" M0 $end
$var parameter 32 "" M1 $end
$var parameter 32 #" M2 $end
$var parameter 32 $" M3 $end
$var parameter 32 %" M4 $end
$var parameter 32 &" M5 $end
$var parameter 32 '" W0 $end
$var parameter 32 (" W1 $end
$var parameter 32 )" W2 $end
$var parameter 32 *" W3 $end
$var parameter 32 +" W4 $end
$var parameter 32 ," W5 $end
$var parameter 32 -" WIDTH_IN $end
$var reg 16 ." A_reg [15:0] $end
$var reg 16 /" A_req [15:0] $end
$var reg 16 0" B_reg [15:0] $end
$var reg 16 1" B_req [15:0] $end
$var reg 1 2" Corrected_reg $end
$var reg 1 3" Error_reg $end
$var reg 2 4" OpSel_reg [1:0] $end
$var reg 2 5" OpSel_req [1:0] $end
$var reg 1 6" Valid_reg $end
$var reg 16 7" X_reg [15:0] $end
$scope module u_corrector $end
$var wire 16 8" X_base [15:0] $end
$var wire 1 * clk $end
$var wire 1 - rst_n $end
$var wire 1 9" start_pulse $end
$var wire 5 :" r5 [4:0] $end
$var wire 4 ;" r4 [3:0] $end
$var wire 4 <" r3 [3:0] $end
$var wire 3 =" r2 [2:0] $end
$var wire 3 >" r1 [2:0] $end
$var wire 2 ?" r0 [1:0] $end
$var wire 1 y Correct_Start $end
$var parameter 32 @" M0 $end
$var parameter 32 A" M1 $end
$var parameter 32 B" M2 $end
$var parameter 32 C" M3 $end
$var parameter 32 D" M4 $end
$var parameter 32 E" M5 $end
$var parameter 32 F" M_BASE $end
$var parameter 32 G" OUT_WIDTH $end
$var parameter 3 H" S_DONE $end
$var parameter 3 I" S_EVAL $end
$var parameter 3 J" S_IDLE $end
$var parameter 3 K" S_PREP $end
$var parameter 3 L" S_RESOLVE $end
$var parameter 32 M" W0 $end
$var parameter 32 N" W1 $end
$var parameter 32 O" W2 $end
$var parameter 32 P" W3 $end
$var parameter 32 Q" W4 $end
$var parameter 32 R" W5 $end
$var reg 1 z Correct_Done $end
$var reg 1 x Corrected $end
$var reg 1 t Error_Detected $end
$var reg 1 o Valid $end
$var reg 2 S" b0_w [1:0] $end
$var reg 3 T" b1_w [2:0] $end
$var reg 3 U" b2_w [2:0] $end
$var reg 4 V" b3_w [3:0] $end
$var reg 4 W" cand_val_r [3:0] $end
$var reg 1 X" chk13_r $end
$var reg 1 Y" chk17_r $end
$var reg 1 Z" conflict_found_r $end
$var reg 2 [" corr_r0 [1:0] $end
$var reg 3 \" corr_r1 [2:0] $end
$var reg 3 ]" corr_r2 [2:0] $end
$var reg 4 ^" corr_r3 [3:0] $end
$var reg 4 _" exp13_w [3:0] $end
$var reg 5 `" exp17_w [4:0] $end
$var reg 1 a" hit_w $end
$var reg 2 b" lane_idx_r [1:0] $end
$var reg 2 c" n0_r [1:0] $end
$var reg 3 d" n1_r [2:0] $end
$var reg 3 e" n2_r [2:0] $end
$var reg 4 f" n3_r [3:0] $end
$var reg 4 g" n4_r [3:0] $end
$var reg 5 h" n5_r [4:0] $end
$var reg 1 i" start_d $end
$var reg 3 j" state [2:0] $end
$var reg 1 k" winner_found_r $end
$var reg 2 l" winner_lane_r [1:0] $end
$var reg 4 m" winner_res_r [3:0] $end
$scope function canon_r0 $end
$var reg 2 n" x [1:0] $end
$upscope $end
$scope function canon_r1 $end
$var reg 3 o" x [2:0] $end
$upscope $end
$scope function canon_r2 $end
$var reg 3 p" x [2:0] $end
$upscope $end
$scope function canon_r3 $end
$var reg 4 q" x [3:0] $end
$upscope $end
$scope function canon_r4 $end
$var reg 4 r" x [3:0] $end
$upscope $end
$scope function canon_r5 $end
$var reg 5 s" x [4:0] $end
$upscope $end
$scope function center_with_modulus $end
$var integer 32 t" p [31:0] $end
$var integer 32 u" t [31:0] $end
$var integer 32 v" x [31:0] $end
$upscope $end
$scope function norm_mod $end
$var integer 32 w" m [31:0] $end
$var integer 32 x" t [31:0] $end
$var integer 32 y" x [31:0] $end
$upscope $end
$scope function x_mod13_from_centered $end
$var reg 16 z" x [15:0] $end
$var integer 32 {" xs [31:0] $end
$upscope $end
$scope function x_mod17_from_centered $end
$var reg 16 |" x [15:0] $end
$var integer 32 }" xs [31:0] $end
$upscope $end
$scope begin predict_reds $end
$var integer 32 ~" t2_i [31:0] $end
$var integer 32 !# t3_i [31:0] $end
$var integer 32 "# t4_i [31:0] $end
$var integer 32 ## x1_i [31:0] $end
$var integer 32 $# x2_i [31:0] $end
$var integer 32 %# x3_i [31:0] $end
$var integer 32 &# x_ctr_i [31:0] $end
$var integer 32 '# x_pos_i [31:0] $end
$upscope $end
$upscope $end
$scope module u_cu $end
$var wire 1 2 ALU_Done $end
$var wire 1 z Correct_Done $end
$var wire 1 5 Encode_Done $end
$var wire 1 ) Start $end
$var wire 1 * clk $end
$var wire 1 - rst_n $end
$var wire 1 q Recon_Done $end
$var wire 4 (# CU_state_dbg [3:0] $end
$var parameter 4 )# S_ALU $end
$var parameter 4 *# S_CORRECT $end
$var parameter 4 +# S_DONE $end
$var parameter 4 ,# S_ENCODE $end
$var parameter 4 -# S_IDLE $end
$var parameter 4 .# S_LOAD $end
$var parameter 4 /# S_OUT $end
$var parameter 4 0# S_RECON_POST $end
$var parameter 4 1# S_RECON_PRE $end
$var reg 1 | ALU_EN $end
$var reg 1 y Correct_Start $end
$var reg 1 $ Done $end
$var reg 1 u Encode_EN $end
$var reg 1 s Load_IN $end
$var reg 1 r Out_EN $end
$var reg 1 p Recon_Start $end
$var reg 4 2# next_state [3:0] $end
$var reg 4 3# state [3:0] $end
$upscope $end
$scope module u_enc_a $end
$var wire 1 w Encode_Done $end
$var wire 1 < Encode_EN $end
$var wire 1 * clk $end
$var wire 1 - rst_n $end
$var wire 16 4# x [15:0] $end
$var wire 5 5# red_r1 [4:0] $end
$var wire 5 6# red_r0 [4:0] $end
$var wire 5 7# base_r3 [4:0] $end
$var wire 5 8# base_r2 [4:0] $end
$var wire 5 9# base_r1 [4:0] $end
$var wire 5 :# base_r0 [4:0] $end
$var wire 1 ;# _unused_ok $end
$var parameter 32 <# CRNS_EN $end
$var parameter 32 =# M0 $end
$var parameter 32 ># M1 $end
$var parameter 32 ?# M2 $end
$var parameter 32 @# M3 $end
$var parameter 32 A# M4 $end
$var parameter 32 B# M5 $end
$var parameter 32 C# WIDTH_IN $end
$scope function enc_mod $end
$var integer 32 D# m [31:0] $end
$var integer 32 E# val [31:0] $end
$upscope $end
$scope function norm_bal $end
$var integer 32 F# m [31:0] $end
$var integer 32 G# r [31:0] $end
$var integer 32 H# val [31:0] $end
$upscope $end
$scope function norm_std $end
$var integer 32 I# m [31:0] $end
$var integer 32 J# val [31:0] $end
$upscope $end
$upscope $end
$scope module u_enc_b $end
$var wire 1 v Encode_Done $end
$var wire 1 < Encode_EN $end
$var wire 1 * clk $end
$var wire 1 - rst_n $end
$var wire 16 K# x [15:0] $end
$var wire 5 L# red_r1 [4:0] $end
$var wire 5 M# red_r0 [4:0] $end
$var wire 5 N# base_r3 [4:0] $end
$var wire 5 O# base_r2 [4:0] $end
$var wire 5 P# base_r1 [4:0] $end
$var wire 5 Q# base_r0 [4:0] $end
$var wire 1 R# _unused_ok $end
$var parameter 32 S# CRNS_EN $end
$var parameter 32 T# M0 $end
$var parameter 32 U# M1 $end
$var parameter 32 V# M2 $end
$var parameter 32 W# M3 $end
$var parameter 32 X# M4 $end
$var parameter 32 Y# M5 $end
$var parameter 32 Z# WIDTH_IN $end
$scope function enc_mod $end
$var integer 32 [# m [31:0] $end
$var integer 32 \# val [31:0] $end
$upscope $end
$scope function norm_bal $end
$var integer 32 ]# m [31:0] $end
$var integer 32 ^# r [31:0] $end
$var integer 32 _# val [31:0] $end
$upscope $end
$scope function norm_std $end
$var integer 32 `# m [31:0] $end
$var integer 32 a# val [31:0] $end
$upscope $end
$upscope $end
$scope module u_recon $end
$var wire 1 p Recon_Start $end
$var wire 5 b# base_r0 [4:0] $end
$var wire 5 c# base_r1 [4:0] $end
$var wire 5 d# base_r2 [4:0] $end
$var wire 5 e# base_r3 [4:0] $end
$var wire 1 * clk $end
$var wire 1 - rst_n $end
$var parameter 32 f# CRT_M0 $end
$var parameter 32 g# CRT_M1 $end
$var parameter 32 h# CRT_M2 $end
$var parameter 32 i# CRT_M3 $end
$var parameter 32 j# HALF_M $end
$var parameter 32 k# INV0 $end
$var parameter 32 l# INV1 $end
$var parameter 32 m# INV2 $end
$var parameter 32 n# INV3 $end
$var parameter 32 o# M $end
$var parameter 32 p# MOD0 $end
$var parameter 32 q# MOD1 $end
$var parameter 32 r# MOD2 $end
$var parameter 32 s# MOD3 $end
$var parameter 32 t# OUT_WIDTH $end
$var reg 1 q Recon_Done $end
$var reg 16 u# X_next [15:0] $end
$var reg 16 v# X_out [15:0] $end
$var reg 1 w# start_d $end
$var reg 10 x# term0 [9:0] $end
$var reg 10 y# term1 [9:0] $end
$var reg 11 z# term2 [10:0] $end
$var reg 12 {# term3 [11:0] $end
$var reg 13 |# total [12:0] $end
$var reg 11 }# total_centered [10:0] $end
$var reg 11 ~# total_mod [10:0] $end
$var reg 2 !$ x0_mod [1:0] $end
$var reg 3 "$ x1_mod [2:0] $end
$var reg 3 #$ x2_mod [2:0] $end
$var reg 4 $$ x3_mod [3:0] $end
$scope function norm_mod $end
$var integer 32 %$ m [31:0] $end
$var integer 32 &$ t [31:0] $end
$var integer 32 '$ x [31:0] $end
$upscope $end
$upscope $end
$scope module u_slice0 $end
$var wire 1 : ALU_EN $end
$var wire 2 ($ a [1:0] $end
$var wire 2 )$ b [1:0] $end
$var wire 1 * clk $end
$var wire 2 *$ op_sel [1:0] $end
$var wire 1 - rst_n $end
$var parameter 32 +$ CRNS_EN $end
$var parameter 32 ,$ MODULUS $end
$var parameter 32 -$ WIDTH $end
$var reg 1 N ALU_Done $end
$var reg 1 .$ start_d $end
$var reg 2 /$ y [1:0] $end
$var reg 2 0$ y_next [1:0] $end
$var integer 32 1$ raw [31:0] $end
$var integer 32 2$ tmp [31:0] $end
$scope function norm_bal $end
$var integer 32 3$ m [31:0] $end
$var integer 32 4$ r [31:0] $end
$var integer 32 5$ val [31:0] $end
$upscope $end
$scope function norm_std $end
$var integer 32 6$ m [31:0] $end
$var integer 32 7$ val [31:0] $end
$upscope $end
$upscope $end
$scope module u_slice1 $end
$var wire 1 : ALU_EN $end
$var wire 3 8$ a [2:0] $end
$var wire 3 9$ b [2:0] $end
$var wire 1 * clk $end
$var wire 2 :$ op_sel [1:0] $end
$var wire 1 - rst_n $end
$var parameter 32 ;$ CRNS_EN $end
$var parameter 32 <$ MODULUS $end
$var parameter 32 =$ WIDTH $end
$var reg 1 M ALU_Done $end
$var reg 1 >$ start_d $end
$var reg 3 ?$ y [2:0] $end
$var reg 3 @$ y_next [2:0] $end
$var integer 32 A$ raw [31:0] $end
$var integer 32 B$ tmp [31:0] $end
$scope function norm_bal $end
$var integer 32 C$ m [31:0] $end
$var integer 32 D$ r [31:0] $end
$var integer 32 E$ val [31:0] $end
$upscope $end
$scope function norm_std $end
$var integer 32 F$ m [31:0] $end
$var integer 32 G$ val [31:0] $end
$upscope $end
$upscope $end
$scope module u_slice2 $end
$var wire 1 : ALU_EN $end
$var wire 3 H$ a [2:0] $end
$var wire 3 I$ b [2:0] $end
$var wire 1 * clk $end
$var wire 2 J$ op_sel [1:0] $end
$var wire 1 - rst_n $end
$var parameter 32 K$ CRNS_EN $end
$var parameter 32 L$ MODULUS $end
$var parameter 32 M$ WIDTH $end
$var reg 1 L ALU_Done $end
$var reg 1 N$ start_d $end
$var reg 3 O$ y [2:0] $end
$var reg 3 P$ y_next [2:0] $end
$var integer 32 Q$ raw [31:0] $end
$var integer 32 R$ tmp [31:0] $end
$scope function norm_bal $end
$var integer 32 S$ m [31:0] $end
$var integer 32 T$ r [31:0] $end
$var integer 32 U$ val [31:0] $end
$upscope $end
$scope function norm_std $end
$var integer 32 V$ m [31:0] $end
$var integer 32 W$ val [31:0] $end
$upscope $end
$upscope $end
$scope module u_slice3 $end
$var wire 1 : ALU_EN $end
$var wire 4 X$ a [3:0] $end
$var wire 4 Y$ b [3:0] $end
$var wire 1 * clk $end
$var wire 2 Z$ op_sel [1:0] $end
$var wire 1 - rst_n $end
$var parameter 32 [$ CRNS_EN $end
$var parameter 32 \$ MODULUS $end
$var parameter 32 ]$ WIDTH $end
$var reg 1 K ALU_Done $end
$var reg 1 ^$ start_d $end
$var reg 4 _$ y [3:0] $end
$var reg 4 `$ y_next [3:0] $end
$var integer 32 a$ raw [31:0] $end
$var integer 32 b$ tmp [31:0] $end
$scope function norm_bal $end
$var integer 32 c$ m [31:0] $end
$var integer 32 d$ r [31:0] $end
$var integer 32 e$ val [31:0] $end
$upscope $end
$scope function norm_std $end
$var integer 32 f$ m [31:0] $end
$var integer 32 g$ val [31:0] $end
$upscope $end
$upscope $end
$scope module u_slice4 $end
$var wire 1 : ALU_EN $end
$var wire 4 h$ a [3:0] $end
$var wire 4 i$ b [3:0] $end
$var wire 1 * clk $end
$var wire 2 j$ op_sel [1:0] $end
$var wire 1 - rst_n $end
$var parameter 32 k$ CRNS_EN $end
$var parameter 32 l$ MODULUS $end
$var parameter 32 m$ WIDTH $end
$var reg 1 J ALU_Done $end
$var reg 1 n$ start_d $end
$var reg 4 o$ y [3:0] $end
$var reg 4 p$ y_next [3:0] $end
$var integer 32 q$ raw [31:0] $end
$var integer 32 r$ tmp [31:0] $end
$scope function norm_bal $end
$var integer 32 s$ m [31:0] $end
$var integer 32 t$ r [31:0] $end
$var integer 32 u$ val [31:0] $end
$upscope $end
$scope function norm_std $end
$var integer 32 v$ m [31:0] $end
$var integer 32 w$ val [31:0] $end
$upscope $end
$upscope $end
$scope module u_slice5 $end
$var wire 1 : ALU_EN $end
$var wire 5 x$ a [4:0] $end
$var wire 5 y$ b [4:0] $end
$var wire 1 * clk $end
$var wire 2 z$ op_sel [1:0] $end
$var wire 1 - rst_n $end
$var parameter 32 {$ CRNS_EN $end
$var parameter 32 |$ MODULUS $end
$var parameter 32 }$ WIDTH $end
$var reg 1 I ALU_Done $end
$var reg 1 ~$ start_d $end
$var reg 5 !% y [4:0] $end
$var reg 5 "% y_next [4:0] $end
$var integer 32 #% raw [31:0] $end
$var integer 32 $% tmp [31:0] $end
$scope function norm_bal $end
$var integer 32 %% m [31:0] $end
$var integer 32 &% r [31:0] $end
$var integer 32 '% val [31:0] $end
$upscope $end
$scope function norm_std $end
$var integer 32 (% m [31:0] $end
$var integer 32 )% val [31:0] $end
$upscope $end
$upscope $end
$upscope $end
$scope task finish_report $end
$upscope $end
$scope task pulse_start $end
$upscope $end
$scope task record_result $end
$upscope $end
$scope task run_fault_test_base_lane $end
$upscope $end
$scope task run_fault_test_red13 $end
$upscope $end
$scope task run_fault_test_red17 $end
$upscope $end
$scope task run_test $end
$upscope $end
$scope task wait_done_or_timeout $end
$upscope $end
$upscope $end
$enddefinitions $end
$comment Show the parameter values. $end
$dumpall
b101 }$
b10001 |$
b1 {$
b100 m$
b1101 l$
b1 k$
b100 ]$
b1011 \$
b1 [$
b11 M$
b111 L$
b1 K$
b11 =$
b101 <$
b1 ;$
b10 -$
b11 ,$
b1 +$
b10000 t#
b1011 s#
b111 r#
b101 q#
b11 p#
b10010000011 o#
b10 n#
b10 m#
b1 l#
b1 k#
b1001000001 j#
b1101001 i#
b10100101 h#
b11100111 g#
b110000001 f#
b10000 Z#
b10001 Y#
b1101 X#
b1011 W#
b111 V#
b101 U#
b11 T#
b1 S#
b10000 C#
b10001 B#
b1101 A#
b1011 @#
b111 ?#
b101 >#
b11 =#
b1 <#
b100 1#
b110 0#
b111 /#
b1 .#
b0 -#
b10 ,#
b1000 +#
b101 *#
b11 )#
b101 R"
b100 Q"
b100 P"
b11 O"
b11 N"
b10 M"
b11 L"
b1 K"
b0 J"
b10 I"
b100 H"
b10000 G"
b10010000011 F"
b10001 E"
b1101 D"
b1011 C"
b111 B"
b101 A"
b11 @"
b10000 -"
b101 ,"
b100 +"
b100 *"
b11 )"
b11 ("
b10 '"
b10001 &"
b1101 %"
b1011 $"
b111 #"
b101 ""
b11 !"
b1 ~
b1 }
$end
#0
$dumpvars
bx )%
bx (%
bx '%
bx &%
bx %%
bx $%
bx #%
bx "%
bx !%
x~$
bx z$
bx y$
bx x$
bx w$
bx v$
bx u$
bx t$
bx s$
bx r$
bx q$
bx p$
bx o$
xn$
bx j$
bx i$
bx h$
bx g$
bx f$
bx e$
bx d$
bx c$
bx b$
bx a$
bx `$
bx _$
x^$
bx Z$
bx Y$
bx X$
bx W$
bx V$
bx U$
bx T$
bx S$
bx R$
bx Q$
bx P$
bx O$
xN$
bx J$
bx I$
bx H$
bx G$
bx F$
bx E$
bx D$
bx C$
bx B$
bx A$
bx @$
bx ?$
x>$
bx :$
bx 9$
bx 8$
bx 7$
bx 6$
bx 5$
bx 4$
bx 3$
bx 2$
bx 1$
bx 0$
bx /$
x.$
bx *$
bx )$
bx ($
bx '$
bx &$
bx %$
bx $$
bx #$
bx "$
bx !$
bx ~#
bx }#
bx |#
bx {#
bx z#
bx y#
bx x#
xw#
bx v#
bx u#
bx e#
bx d#
bx c#
bx b#
bx a#
b11 `#
bx _#
bx ^#
b11 ]#
bx \#
b11 [#
0R#
bx Q#
bx P#
bx O#
bx N#
bx M#
bx L#
bx K#
bx J#
b11 I#
bx H#
bx G#
b11 F#
bx E#
b11 D#
0;#
bx :#
bx 9#
bx 8#
bx 7#
bx 6#
bx 5#
bx 4#
bx 3#
b0 2#
bx (#
bx '#
bx &#
bx %#
bx $#
bx ##
bx "#
bx !#
bx ~"
bx }"
bx |"
bx {"
bx z"
bx y"
bx x"
bx w"
bx v"
bx u"
bx t"
bx s"
bx r"
bx q"
bx p"
bx o"
bx n"
bx m"
bx l"
xk"
bx j"
xi"
bx h"
bx g"
bx f"
bx e"
bx d"
bx c"
bx b"
xa"
bx `"
bx _"
bx ^"
bx ]"
bx \"
bx ["
xZ"
xY"
xX"
bx W"
bx V"
bx U"
bx T"
bx S"
bx ?"
bx >"
bx ="
bx <"
bx ;"
bx :"
x9"
bx 8"
bx 7"
x6"
bx 5"
bx 4"
x3"
x2"
bx 1"
bx 0"
bx /"
bx ."
x|
bx {
xz
xy
xx
xw
xv
xu
xt
xs
xr
xq
xp
xo
bx n
bx m
bx l
bx k
bx j
bx i
bx h
bx g
bx f
bx e
bx d
bx c
bx b
bx a
bx `
bx _
bx ^
bx ]
bx \
bx [
bx Z
bx Y
bx X
bx W
bx V
bx U
bx T
bx S
bx R
bx Q
bx P
xO
xN
xM
xL
xK
xJ
xI
bx H
bx G
bx F
bx E
bx D
bx C
bx B
bx A
bx @
bx ?
x>
x=
x<
bx ;
x:
bx 9
bx 8
bx 7
b0 6
x5
b0 4
b0 3
x2
b0 1
b0 0
bx /
bx .
0-
bx ,
bx +
0*
0)
b0 (
b0 '
b0 &
x%
x$
x#
x"
bx !
$end
#5000
05
09"
0$
0>
0r
0y
0p
0:
0|
0w
0v
0<
0u
0=
0s
02
0O
b0 {
b0 (#
b0 3#
0N
0.$
0M
0>$
0L
0N$
0K
0^$
0J
0n$
0I
0~$
0w#
0q
b0 7
b0 8"
b0 n
b0 v#
0o
0x
0t
0z
0i"
b0 j"
b0 5"
b0 1"
b0 /"
0"
06"
0%
02"
0#
03"
b0 !
b0 8
b0 7"
1*
#10000
0*
#15000
1*
#20000
0*
#25000
1*
#30000
0*
#35000
1*
#40000
0*
#45000
1*
#50000
1-
0*
#55000
1*
#60000
b111 '
b111 4
b1010 &
b1010 3
0*
#65000
b111 1"
b1010 /"
1*
#70000
b1 2#
1)
0*
#75000
1=
1s
b10 2#
b1 {
b1 (#
b1 3#
1*
#80000
b10 2#
0)
0*
#85000
b11111111111111111111111111111111 4$
b10 7$
b10 5$
b10 D$
b10 G$
b10 E$
b11 T$
b11 W$
b11 U$
b11111111111111111111111111111011 d$
b11111111111111111111111111111011 g$
b11111111111111111111111111111011 e$
b100 t$
b11111111111111111111111111110111 w$
b11111111111111111111111111110111 u$
b11 2#
b1 b
b1 )$
b10 `
b10 9$
b0 ^
b0 I$
b1100 \
b1100 Y$
b1010 Z
b1010 i$
b1 m
b1 ($
b0 k
b0 8$
b11 i
b11 H$
b1111 g
b1111 X$
b1101 e
b1101 h$
b0 &%
b0 )%
b0 '%
15
b1 a
b1 Q#
b10 _
b10 P#
b0 ]
b0 O#
b11100 [
b11100 N#
b11010 Y
b11010 M#
b111 ;
b111 y$
b111 X
b111 L#
b1 l
b1 :#
b0 j
b0 9#
b11 h
b11 8#
b11111 f
b11111 7#
b11101 d
b11101 6#
b11001 9
b11001 x$
b11001 c
b11001 5#
1w
1v
1<
1u
0=
0s
b11 6$
b11 3$
b11 0$
b11111111111111111111111111111111 2$
b10 1$
b101 F$
b101 C$
b10 @$
b10 B$
b10 A$
b111 V$
b111 S$
b11 P$
b11 R$
b11 Q$
b1011 f$
b1011 c$
b1011 `$
b11111111111111111111111111111011 b$
b11111111111111111111111111111011 a$
b1101 v$
b1101 s$
b100 p$
b100 r$
b11111111111111111111111111110111 q$
b10001 (%
b10001 %%
b0 "%
b0 $%
b0 #%
b1 ^#
b111 a#
b11 `#
b111 _#
b11 ]#
b11 [#
b111 \#
b1 G#
b1010 J#
b11 I#
b1010 H#
b11 F#
b11 D#
b1010 E#
b10 {
b10 (#
b10 3#
b0 4"
b0 *$
b0 :$
b0 J$
b0 Z$
b0 j$
b0 z$
b111 0"
b111 K#
b1010 ."
b1010 4#
1*
#90000
0*
#95000
05
1:
1|
0w
0v
0<
0u
b11 {
b11 (#
b11 3#
1*
#100000
0*
#105000
b10001 u#
b10001 }#
b10001 ~#
b110110011010 |#
b10011101100 {#
b1111011110 z#
b111001110 y#
b1100000010 x#
b110 $$
b11 #$
b10 "$
b10 !$
b10001 &$
b110110011010 '$
b10010000011 %$
b11111 b#
b10 c#
b11 d#
b11011 e#
b11111 G
b11 H
b11 ?"
b11 /$
1.$
b10 E
b10 F
b10 >"
b10 ?$
1>$
b11 C
b11 D
b11 ="
b11 O$
1N$
b11011 A
b1011 B
b1011 <"
b1011 _$
1^$
b100 @
b100 ;"
b100 o$
1n$
b0 ?
b0 :"
b0 !%
1~$
1*
#110000
0*
#115000
b100 2#
12
1I
1J
1K
1L
1M
1N
1*
#120000
0*
#125000
1p
0:
0|
b100 {
b100 (#
b100 3#
1*
#130000
0*
#135000
b10001 7
b10001 8"
b10001 n
b10001 v#
1w#
0~$
0n$
0^$
0N$
0>$
0.$
1*
#140000
0*
#145000
02
b101 2#
0N
0M
0L
0K
0J
0I
1q
1*
#150000
0*
#155000
19"
1y
0p
b101 {
b101 (#
b101 3#
1*
#160000
0*
#165000
09"
0a"
b1011 `"
b1100 _"
b110010010 &#
b110010010 '#
b11 "#
b1010111 %#
b101 !#
b1100 $#
b100 ~"
b1011 x"
b110010010 y"
b10001 w"
b0 ##
b110 V"
b11 U"
b10 T"
b0 S"
0w#
b1 j"
b0 W"
b0 b"
b0 m"
b0 l"
0Z"
0k"
b11011 P
b1011 Q
b1011 ^"
b11 R
b11 S
b11 ]"
b10 T
b10 U
b10 \"
b11111 V
b11 W
b11 ["
b0 h"
b100 g"
b110 f"
b11 e"
b10 d"
b10 c"
1i"
b0 s"
b100 r"
b1011 q"
b11 p"
b10 o"
b11 n"
1*
#170000
0*
#175000
b100 j"
1o
1Y"
1X"
0q
b10001 }"
b10001 |"
b0 x"
b10001 y"
b10001 w"
b10001 {"
b10001 z"
1*
#180000
0*
#185000
b110 2#
b0 j"
1z
1*
#190000
0*
#195000
1p
0y
0z
1O
b110 {
b110 (#
b110 3#
1*
#200000
0*
#205000
1w#
0i"
1*
#210000
0*
#215000
b111 2#
1q
1*
#220000
0*
#225000
1>
1r
0p
b1000 2#
0O
b111 {
b111 (#
b111 3#
1*
#230000
0*
#235000
1$
0>
0r
b0 2#
1"
16"
b10001 !
b10001 8
b10001 7"
0w#
b1000 {
b1000 (#
b1000 3#
1*
#240000
0*
#245000
0$
b0 {
b0 (#
b0 3#
0q
1*
#246000
b1 1
#250000
b101000001 '
b101000001 4
b1111011 &
b1111011 3
0*
#255000
b101000001 1"
b1111011 /"
1*
#260000
b1 2#
1)
0*
#265000
1=
1s
b10 2#
b1 {
b1 (#
b1 3#
1*
#270000
b10 2#
0)
0*
